"Index" "Open" "High" "Low" "Close" "Volume"
1970-01-02 715.625 716.875 712.812 712.812 18050
1970-01-03 711.875 719.375 710.938 718.125 11771
1970-01-04 720 722.5 717.812 719.375 14433
1970-01-05 724.688 730 724.375 729.688 9750
1970-01-06 732.188 733.125 728.438 732.5 6876
1970-01-07 730.625 733.438 729.688 731.25 4583
1970-01-08 728.75 733.75 728.438 732.5 5689
1970-01-09 732.188 735.625 726.562 728.75 6660
1970-01-10 727.5 729.062 725.625 726.25 4326
1970-01-11 728.125 734.062 727.5 731.25 5014
1970-01-12 732.188 734.062 725.938 726.562 5593
1970-01-13 725 729.688 723.125 728.75 5758
1970-01-14 726.25 728.438 724.688 724.688 4949
1970-01-15 727.5 732.188 727.5 730.938 5983
1970-01-16 730.312 732.812 729.688 730 3356
1970-01-17 727.5 728.75 725.625 727.188 2840
1970-01-18 730 730.938 723.75 723.75 3848
1970-01-19 723.125 725.312 722.5 722.5 4080
1970-01-20 722.188 725 721.562 722.5 3909
1970-01-21 720.938 720.938 713.75 714.375 3882
1970-01-22 715.938 717.5 714.375 716.875 2972
1970-01-23 718.438 719.062 714.375 715.938 1914
1970-01-24 714.375 715.312 711.562 712.812 1539
1970-01-25 713.125 715.938 710.938 714.375 944
1970-01-26 714.375 714.688 712.188 713.438 1170
1970-01-27 712.812 713.75 710.625 713.75 915
1970-01-28 711.875 712.5 710.625 711.875 1052
1970-01-29 716.25 716.562 715 716.25 531
1970-01-30 710 710 700.312 705.312 1437
1970-01-31 703.438 705.625 703.438 705.312 1085
1970-02-01 705.312 705.938 702.812 703.125 629
1970-02-02 699.062 699.062 693.75 696.875 1723
1970-02-03 696.25 696.875 690 690 2494
1970-02-04 689.375 691.875 687.188 691.25 2058
1970-02-05 686.875 690.938 685.938 686.875 5472
1970-02-06 683.125 685.312 680.312 684.688 5549
1970-02-07 685.312 689.062 682.188 684.688 5536
1970-02-08 685 686.562 682.5 683.75 2422
1970-02-09 683.75 686.562 681.875 686.562 3472
1970-02-10 687.812 689.062 684.375 688.75 6557
1970-02-11 692.5 696.875 692.5 695.625 6877
1970-02-12 697.5 700.312 694.062 697.5 7088
1970-02-13 694.688 695.625 691.562 692.5 2930
1970-02-14 695.312 696.25 692.5 694.375 2693
1970-02-15 692.812 697.812 691.562 696.875 3443
1970-02-16 697.188 706.875 697.188 706.25 5836
1970-02-17 720 721.562 715.938 717.5 6786
1970-02-18 713.75 714.062 706.875 710.312 5603
1970-02-19 710.312 711.25 706.562 707.812 4098
1970-02-20 710.312 714.375 710.312 712.812 3889
1970-02-21 714.062 724.375 713.438 724.062 5653
1970-02-22 724.375 727.812 723.125 725.312 5943
1970-02-23 729.375 730.938 725 727.812 8078
1970-02-24 729.688 729.688 723.438 723.75 6439
1970-02-25 720.938 729.688 720.312 727.812 6333
1970-02-26 730 730 723.438 724.688 3210
1970-02-27 721.562 721.562 712.812 712.812 5562
1970-02-28 710.625 717.5 710 714.375 5375
1970-03-01 712.188 715 709.375 709.688 6055
1970-03-02 712.5 720 712.188 718.438 7460
1970-03-03 721.562 725.312 720.938 723.438 3588
1970-03-04 733.125 735 730.312 734.375 4939
1970-03-05 733.75 736.25 728.75 729.375 7722
1970-03-06 730.312 730.312 724.062 728.125 11538
1970-03-07 727.188 727.188 722.812 726.562 7061
1970-03-08 724.375 724.375 718.438 719.062 5684
1970-03-09 715.938 726.25 715.312 725.625 7260
1970-03-10 725 727.812 724.062 725.312 7651
1970-03-11 725.938 726.875 723.75 724.375 3778
1970-03-12 724.375 732.188 724.375 731.562 3936
1970-03-13 734.062 741.875 733.75 740.312 6401
1970-03-14 747.812 755 747.5 748.125 6037
1970-03-15 748.438 768.125 748.438 765.312 8741
1970-03-16 782.5 785.312 769.688 773.125 8623
1970-03-17 775.312 778.75 766.25 772.188 7046
1970-03-18 783.125 792.188 780.625 782.812 4353
1970-03-19 776.25 776.25 772.5 773.125 3981
1970-03-20 775.625 782.812 772.5 780 5681
1970-03-21 777.188 780.938 773.75 775 5066
1970-03-22 773.125 782.812 769.375 769.375 6969
1970-03-23 765.938 766.875 758.75 759.062 5323
1970-03-24 758.438 763.125 755 762.5 4630
1970-03-25 760.625 764.375 759.375 760.625 4021
1970-03-26 760 765.625 760 763.75 2444
1970-03-27 765.625 769.375 761.25 769.375 3708
1970-03-28 769.375 783.125 769.375 775.938 1601
1970-03-29 776.562 777.812 773.438 774.062 1606
1970-03-30 772.812 775.625 771.25 775 802
1970-03-31 774.375 776.875 772.5 773.75 672
1970-04-01 768.75 769.375 763.75 763.75 1113
1970-04-02 761.25 771.875 760.625 771.875 1014
1970-04-03 773.438 776.25 770.312 772.812 752
1970-04-04 776.562 779.375 767.188 771.875 1062
1970-04-05 768.438 772.188 768.438 770.312 434
1970-04-06 772.5 775.938 771.562 775.625 1193
1970-04-07 772.5 779.375 771.875 777.188 928
1970-04-08 775.625 780.938 775.625 780.625 936
1970-04-09 777.5 785.938 776.875 784.375 4221
1970-04-10 781.562 782.188 775 779.062 3247
1970-04-11 776.875 781.875 776.563 779.688 1797
1970-04-12 783.438 787.188 781.562 785.312 3853
1970-04-13 785.938 787.5 781.875 784.688 5583
1970-04-14 782.5 791.875 781.875 788.125 5687
1970-04-15 788.75 797.5 788.75 797.5 3279
1970-04-16 789.375 790 782.188 784.375 3612
1970-04-17 785.938 787.5 783.75 786.875 3363
1970-04-18 788.438 796.875 788.438 795.625 6173
1970-04-19 804.688 815.625 804.688 815.625 8668
1970-04-20 818.125 829.062 815.312 820 9161
1970-04-21 850 852.5 839.062 839.062 6598
1970-04-22 832.188 844.375 828.125 842.812 5682
1970-04-23 840 843.125 831.875 833.125 5196
1970-04-24 834.375 834.375 822.812 826.25 3306
1970-04-25 830 835.312 828.438 834.375 3550
1970-04-26 839.062 843.438 835 838.125 4061
1970-04-27 836.875 836.875 828.125 833.75 4986
1970-04-28 836.875 837.812 830 834.688 3584
1970-04-29 833.75 833.75 827.812 827.812 2182
1970-04-30 817.812 820.938 813.125 815 3624
1970-05-01 817.188 826.875 816.25 824.375 5286
1970-05-02 825.938 829.375 820.938 820.938 5274
1970-05-03 822.5 830.312 821.875 829.375 4825
1970-05-04 835 836.875 832.5 836.562 3261
1970-05-05 838.75 844.062 836.875 842.5 4781
1970-05-06 844.375 853.438 842.812 848.438 7299
1970-05-07 848.75 851.25 843.438 850 5543
1970-05-08 848.75 849.375 844.375 845.312 4456
1970-05-09 843.75 845 840.625 842.5 3876
1970-05-10 844.688 846.562 842.812 844.375 3921
1970-05-11 845.625 849.688 845 845 3216
1970-05-12 841.875 841.875 837.812 838.75 1160
1970-05-13 838.75 843.75 838.125 842.188 3370
1970-05-14 840 840.625 835.938 838.438 2661
1970-05-15 831.562 836.875 830.625 833.125 4025
1970-05-16 836.875 844.688 836.875 840.938 4333
1970-05-17 840.938 846.25 838.438 846.25 2860
1970-05-18 850.312 850.625 846.875 847.188 2895
1970-05-19 850.312 850.938 844.375 844.375 2511
1970-05-20 842.5 844.062 839.688 840.625 2841
1970-05-21 841.25 842.5 838.438 839.688 2098
1970-05-22 839.375 843.125 835.625 835.625 1584
1970-05-23 835.625 837.812 826.875 827.5 3752
1970-05-24 828.125 832.5 826.562 828.75 3030
1970-05-25 831.875 834.062 828.438 831.562 1946
1970-05-26 833.75 835.625 831.25 835.625 2018
1970-05-27 844.062 846.875 841.875 846.25 1291
1970-05-28 846.25 847.188 845 846.875 1235
1970-05-29 851.25 851.25 845.312 845.312 1357
1970-05-30 844.375 844.688 838.125 838.438 1356
1970-05-31 837.812 840.625 837.5 840.312 745
1970-06-01 838.125 840 834.062 834.062 1045
1970-06-02 835 841.25 834.062 839.688 700
1970-06-03 852.5 852.5 844.062 844.688 861
1970-06-04 840.312 844.688 840.312 843.75 451
1970-06-05 841.875 842.812 837.5 837.5 582
1970-06-06 840.625 841.25 835.938 840 751
1970-06-07 837.812 846.25 836.562 839.375 1087
1970-06-08 828.438 837.188 827.188 836.562 3931
1970-06-09 839.062 841.875 832.5 834.375 3911
1970-06-10 835 840.938 834.062 838.75 1341
1970-06-11 842.188 843.75 839.375 842.812 1348
1970-06-12 841.25 844.375 839.375 842.812 2115
1970-06-13 843.125 843.125 840 840.312 1668
1970-06-14 840 842.188 839.375 840.625 1231
1970-06-15 844.375 850.312 844.375 848.75 3722
1970-06-16 846.562 847.5 843.438 845.625 3284
1970-06-17 847.5 850 845 845.938 2546
1970-06-18 844.688 848.125 842.812 844.688 2582
1970-06-19 845.938 848.75 845 845.312 2525
1970-06-20 845.625 846.25 843.75 845.938 2351
1970-06-21 847.188 851.875 847.188 850.312 3173
1970-06-22 849.062 852.188 848.438 851.25 2872
1970-06-23 853.75 855.938 852.188 852.188 2855
1970-06-24 852.812 856.562 852.812 853.75 2162
1970-06-25 853.438 855 851.875 853.75 2020
1970-06-26 853.125 854.375 851.875 853.75 2723
1970-06-27 852.5 852.812 845.938 847.812 4356
1970-06-28 847.5 847.812 845 846.25 3097
1970-06-29 846.875 847.188 836.25 837.5 5173
1970-06-30 832.5 835.312 829.375 832.188 4190
1970-07-01 833.125 837.5 833.125 837.188 4027
1970-07-02 838.75 838.75 831.25 833.438 4391
1970-07-03 834.375 835.312 830.312 834.375 3432
1970-07-04 835.312 835.625 830.625 832.188 2957
1970-07-05 830.625 830.938 826.562 828.125 2097
1970-07-06 827.812 831.25 827.5 829.062 3262
1970-07-07 827.188 830.312 823.438 829.062 5445
1970-07-08 830 831.25 825 825.312 3194
1970-07-09 821.562 825.312 819.062 822.188 3455
1970-07-10 825 827.812 823.125 824.375 2531
1970-07-11 824.688 827.5 824.062 824.375 2553
1970-07-12 823.125 824.062 821.25 823.75 2768
1970-07-13 825.625 832.5 825.625 830.625 5866
1970-07-14 835.625 838.125 831.875 833.75 5249
1970-07-15 833.75 835.312 831.562 834.062 2921
1970-07-16 836.25 836.875 831.562 831.562 3323
1970-07-17 830 839.062 829.688 834.688 3108
1970-07-18 836.562 841.25 836.25 840.938 2703
1970-07-19 842.812 847.5 842.5 847.5 4538
1970-07-20 849.062 855.312 849.062 853.75 4543
1970-07-21 852.5 858.438 850.938 850.938 4853
1970-07-22 853.125 855 851.25 853.75 2850
1970-07-23 856.25 864.688 856.25 862.812 4903
1970-07-24 866.25 866.562 859.062 859.375 2094
1970-07-25 859.375 865.312 858.438 864.375 2898
1970-07-26 866.875 866.875 860.938 862.812 1866
1970-07-27 867.5 869.062 862.812 864.062 2113
1970-07-28 864.062 865.312 860 860.625 874
1970-07-29 856.25 856.562 852.5 853.75 1049
1970-07-30 853.125 854.375 849.062 849.688 739
1970-07-31 850.312 851.562 848.125 850 993
1970-08-01 851.562 851.562 847.812 847.812 910
1970-08-02 849.062 850.312 846.25 846.25 1008
1970-08-03 847.188 851.875 847.188 851.562 630
1970-08-04 851.25 854.375 851.25 854.062 707
1970-08-05 852.5 854.688 849.688 850.938 641
1970-08-06 850 850.938 848.438 849.688 656
1970-08-07 850.625 850.625 847.5 850.312 397
1970-08-08 848.125 850.625 847.812 849.062 662
1970-08-09 848.75 848.75 846.562 848.438 1093
1970-08-10 841.562 845.938 840 844.375 4491
1970-08-11 847.5 849.062 844.688 846.25 4069
1970-08-12 847.812 847.812 839.688 841.25 3396
1970-08-13 841.25 843.438 839.375 841.875 2128
1970-08-14 842.812 844.688 842.5 843.75 2464
1970-08-15 845.938 846.562 844.375 844.688 2575
1970-08-16 843.75 845.312 843.125 843.125 2129
1970-08-17 843.75 845.938 843.438 845.312 1346
1970-08-18 846.25 852.5 846.25 851.875 3605
1970-08-19 853.438 855 851.25 852.812 2823
1970-08-20 853.438 853.438 850.625 850.625 2487
1970-08-21 851.25 851.562 848.75 848.75 2186
1970-08-22 852.188 856.562 852.188 855 2539
1970-08-23 856.25 857.5 854.062 854.375 2959
1970-08-24 855 856.875 853.75 856.562 2163
1970-08-25 856.875 864.062 856.25 863.438 4589
1970-08-26 863.438 864.062 859.375 861.562 2492
1970-08-27 863.125 864.375 861.25 864.062 2459
1970-08-28 861.875 862.5 856.25 856.562 3631
1970-08-29 855.938 858.438 853.75 857.812 3040
1970-08-30 857.188 857.812 853.438 854.062 3174
1970-08-31 854.375 855.625 852.5 854.375 2386
1970-09-01 857.5 859.062 855 856.25 2910
1970-09-02 856.25 858.75 855 858.438 2540
1970-09-03 857.188 866.562 857.188 863.125 3713
1970-09-04 861.25 864.688 860 863.438 3505
1970-09-05 865 865.625 862.812 865 2946
1970-09-06 867.188 867.812 863.75 865.312 2542
1970-09-07 865 867.812 863.75 866.875 2811
1970-09-08 867.812 872.5 866.875 872.188 4712
1970-09-09 870.625 872.812 868.125 868.75 4145
1970-09-10 868.75 871.875 867.188 870.312 3538
1970-09-11 867.812 868.438 862.5 864.375 3929
1970-09-12 865.312 869.375 864.688 868.75 3621
1970-09-13 870.938 871.25 867.5 867.812 2633
1970-09-14 866.875 868.75 865.625 865.625 3094
1970-09-15 866.25 869.062 865.625 866.875 2256
1970-09-16 863.125 863.125 857.812 858.438 4577
1970-09-17 856.562 859.375 855.938 856.875 3359
1970-09-18 857.188 859.062 855.938 856.25 2552
1970-09-19 855.625 856.875 851.562 851.562 3439
1970-09-20 852.5 854.688 848.125 850 3878
1970-09-21 845.625 848.75 843.75 848.75 3293
1970-09-22 848.438 850.312 846.25 849.688 2987
1970-09-23 850.312 851.875 849.062 849.375 2497
1970-09-24 848.75 849.688 844.688 845.938 2517
1970-09-25 846.875 848.75 845.625 845.625 1795
1970-09-26 841.875 841.875 836.25 836.562 2550
1970-09-27 836.25 841.562 835.625 840 2576
1970-09-28 842.5 844.375 839.688 840 2289
1970-09-29 840 841.25 837.812 838.75 1816
1970-09-30 836.875 840.938 836.875 840.938 879
1970-10-01 840.938 842.5 835.625 836.562 1849
1970-10-02 837.5 837.5 832.188 832.5 1904
1970-10-03 837.5 837.5 833.438 835.625 1474
1970-10-04 837.188 838.438 834.062 835 1368
1970-10-05 840.938 843.75 837.188 843.75 1185
1970-10-06 842.188 843.125 840.312 841.562 718
1970-10-07 839.688 844.688 839.688 843.438 439
1970-10-08 845.938 848.125 844.062 847.812 582
1970-10-09 848.125 848.125 843.75 845.312 753
1970-10-10 844.688 844.688 840 840.312 479
1970-10-11 838.438 841.562 838.438 840.938 702
1970-10-12 833.125 833.438 829.062 830 2632
1970-10-13 828.438 830 825 828.75 3622
1970-10-14 827.188 827.188 820.625 821.25 2727
1970-10-15 821.875 821.875 814.062 815.625 3021
1970-10-16 817.5 823.125 817.5 819.375 4644
1970-10-17 820.625 824.062 820 823.125 2984
1970-10-18 825.625 826.875 823.438 825.938 2502
1970-10-19 824.688 826.875 824.062 826.875 905
1970-10-20 816.562 816.562 808.75 810.938 2527
1970-10-21 810.938 813.438 810.625 813.125 2470
1970-10-22 807.812 809.375 805.312 808.75 3743
1970-10-23 809.062 810.312 804.688 804.688 2946
1970-10-24 807.812 811.25 807.5 808.75 1728
1970-10-25 807.812 808.438 799.688 801.25 2276
1970-10-26 799.688 805 799.688 802.188 3598
1970-10-27 805.625 809.375 802.812 804.062 3870
1970-10-28 802.5 802.5 797.5 799.062 3386
1970-10-29 801.562 806.562 799.062 806.562 2473
1970-10-30 807.188 809.375 806.25 808.75 3216
1970-10-31 816.25 817.812 810.938 811.562 3595
1970-11-01 810.938 811.562 807.812 808.438 2284
1970-11-02 807.188 807.5 800.625 802.812 3317
1970-11-03 795.625 806.25 795.625 805.625 4246
1970-11-04 803.75 804.688 799.375 801.875 3400
1970-11-05 801.875 802.812 799.062 800.938 3626
1970-11-06 799.062 801.562 793.75 794.062 5133
1970-11-07 792.188 795.938 787.188 789.375 6915
1970-11-08 790 792.5 786.562 789.062 4074
1970-11-09 786.562 791.562 786.25 790 3733
1970-11-10 790.938 791.25 785.625 789.688 3961
1970-11-11 790 790 779.688 781.25 5312
1970-11-12 780.938 783.75 779.688 782.188 2135
1970-11-13 780.312 780.938 774.375 778.75 2799
1970-11-14 779.062 781.25 778.438 780.312 2505
1970-11-15 778.75 780.625 775 777.812 3432
1970-11-16 782.5 785.312 781.25 782.5 3369
1970-11-17 785 789.375 785 789.062 3938
1970-11-18 799.375 799.375 795 798.125 3038
1970-11-19 796.562 801.875 795.938 799.375 3432
1970-11-20 802.188 805 799.062 805 3956
1970-11-21 804.062 806.875 800.625 800.625 2766
1970-11-22 801.25 802.812 796.25 798.125 4264
1970-11-23 808.438 810.312 806.25 809.688 4751
1970-11-24 808.438 809.062 805 807.5 3087
1970-11-25 809.062 810.625 807.5 808.75 3079
1970-11-26 809.375 812.188 804.062 805 3930
1970-11-27 803.438 804.688 800 804.688 4247
1970-11-28 799.375 799.375 793.438 794.375 3143
1970-11-29 794.375 796.875 792.188 792.188 2666
1970-11-30 788.75 790.938 786.875 787.812 2760
1970-12-01 789.375 792.5 789.062 790 1140
1970-12-02 789.375 789.375 786.875 787.812 1178
1970-12-03 799.375 799.375 795.938 796.875 1146
1970-12-04 795 802.188 795 801.875 1326
1970-12-05 803.125 804.688 799.062 800.625 944
1970-12-06 800.938 802.188 800.625 802.188 1134
1970-12-07 813.125 813.75 807.188 807.5 1994
1970-12-08 807.188 809.062 806.25 806.875 1267
1970-12-09 805 805.938 799.688 800.312 878
1970-12-10 798.438 800 795.938 797.188 555
1970-12-11 798.75 805.625 798.438 803.75 1102
1970-12-12 805.312 809.062 803.438 805.625 901
1970-12-13 808.75 810.938 808.125 809.062 635
1970-12-14 811.25 811.562 808.125 808.438 961
1970-12-15 799.062 804.375 796.562 803.125 3517
1970-12-16 807.812 810 805.312 809.375 3549
1970-12-17 812.812 813.75 810.312 812.5 3856
1970-12-18 809.062 811.562 808.125 810 2932
1970-12-19 812.5 812.812 807.5 808.438 3223
1970-12-20 806.562 808.75 805 808.438 2383
1970-12-21 810.312 811.875 809.688 810.625 1814
1970-12-22 811.875 811.875 808.125 809.375 2113
1970-12-23 808.438 812.188 807.812 809.375 3389
1970-12-24 812.5 816.25 811.562 816.25 2460
1970-12-25 817.5 819.062 814.688 816.25 2235
1970-12-26 816.875 816.875 814.063 814.375 2217
1970-12-27 810.938 811.875 808.438 810.938 837
1970-12-28 810.938 810.938 803.438 804.062 4321
1970-12-29 802.188 804.687 800.938 803.125 2849
1970-12-30 805 805 799.062 800.625 3994
1970-12-31 803.125 804.688 801.562 804.688 1721
1971-01-01 809.375 810 805.938 809.688 2846
1971-01-02 808.75 810.938 806.562 806.562 3039
1971-01-03 805.625 810 805.312 809.688 3175
1971-01-04 807.812 810 806.25 809.375 2277
1971-01-05 809.062 813.125 808.438 812.188 1677
1971-01-06 801.25 802.5 800 800.938 3051
1971-01-07 800.938 801.25 796.562 799.375 4410
1971-01-08 800.312 800.938 797.5 799.688 4205
1971-01-09 797.812 800.938 796.875 799.375 5104
1971-01-10 799.375 801.562 798.125 798.75 3310
1971-01-11 798.125 800.312 796.25 796.562 2833
1971-01-12 795.312 799.688 795 799.375 4382
1971-01-13 799.375 800.312 796.562 798.75 3442
1971-01-14 798.125 798.75 795 795.938 4781
1971-01-15 792.188 794.062 791.25 791.875 3040
1971-01-16 790.312 792.812 790.312 792.812 3498
1971-01-17 793.75 794.062 793.125 794.062 680
1971-01-18 794.063 794.687 792.188 792.812 5116
1971-01-19 793.75 799.062 793.438 798.75 4776
1971-01-20 802.5 805.312 801.25 805 1382
1971-01-21 803.125 803.125 800 800.938 2738
1971-01-22 798.125 800.625 797.188 799.688 3207
1971-01-23 800.625 803.438 799.375 799.375 2642
1971-01-24 797.812 799.375 797.5 799.375 4359
1971-01-25 798.438 799.375 797.5 798.438 1948
1971-01-26 800 803.125 799.375 802.812 3828
1971-01-27 804.688 807.5 803.75 807.188 4189
1971-01-28 805.938 806.562 804.688 806.562 2927
1971-01-29 807.188 807.188 803.75 804.375 2562
1971-01-30 803.75 807.5 802.5 807.188 4862
1971-01-31 806.562 807.5 803.75 805 1957
1971-02-01 804.375 805 802.188 804.375 3052
1971-02-02 802.5 802.5 798.438 798.438 2958
1971-02-03 796.25 798.125 794.688 798.125 4393
1971-02-04 798.125 799.375 796.875 798.438 2860
1971-02-05 796.25 797.5 796.25 796.875 1307
1971-02-06 795.625 795.625 792.188 792.5 2313
1971-02-07 792.812 794.062 791.875 791.875 1448
1971-02-08 791.875 794.375 791.562 793.75 995
1971-02-09 788.125 790.938 788.125 790 1840
1971-02-10 790.938 792.188 788.75 788.75 800
1971-02-11 789.062 791.25 789.062 790.312 751
1971-02-12 791.875 794.062 791.875 794.062 703
1971-02-13 794.375 795 792.812 794.688 818
1971-02-14 796.25 796.875 795.625 796.25 1497
1971-02-15 789.375 790.625 787.5 788.75 1828
1971-02-16 790.938 792.5 790.312 792.188 1671
1971-02-17 791.875 792.5 789.062 791.25 1147
1971-02-18 793.125 794.688 792.188 794.062 1851
1971-02-19 793.438 793.438 789.688 790.312 2226
1971-02-20 792.5 793.75 790.938 791.875 4006
1971-02-21 790.938 791.25 790 790.625 1000
1971-02-22 788.438 788.75 786.562 788.438 1943
1971-02-23 786.562 792.812 786.25 792.188 3498
1971-02-24 793.125 795 790.938 792.188 3748
1971-02-25 791.25 794.688 791.25 794.375 2892
1971-02-26 791.875 794.688 791.562 793.438 2398
1971-02-27 795.312 796.875 795 795.938 3389
1971-02-28 794.688 795.312 794.375 794.375 1528
1971-03-01 794.062 795 793.438 793.438 1890
1971-03-02 797.188 804.375 797.188 803.125 5113
1971-03-03 801.25 804.688 801.25 804.062 3009
1971-03-04 804.688 804.688 802.188 802.188 3088
1971-03-05 802.812 802.812 800 800.625 3356
1971-03-06 800 802.188 800 801.562 1522
1971-03-07 801.25 801.562 799.375 800.312 3310
1971-03-08 799.688 802.812 799.688 801.25 2818
1971-03-09 801.562 802.5 800.625 800.938 1980
1971-03-10 801.562 801.562 799.688 800.938 2609
1971-03-11 800.938 801.875 800.312 801.875 2233
1971-03-12 802.812 803.125 801.562 801.562 3140
1971-03-13 802.5 803.438 800 800.625 7130
1971-03-14 800 801.25 799.688 800.625 4445
1971-03-15 800.625 801.875 800 801.562 2993
1971-03-16 803.125 805.938 803.125 805.312 10328
1971-03-17 805 805.312 804.062 804.688 3076
1971-03-18 802.188 802.812 800.625 801.875 4390
1971-03-19 801.562 801.875 799.688 801.25 3267
1971-03-20 800.625 801.562 798.75 800.938 3494
1971-03-21 798.438 800 798.438 799.688 4938
1971-03-22 798.438 798.438 795.938 796.25 3045
1971-03-23 796.25 796.25 792.188 792.188 1486
1971-03-24 790.938 795.625 790.938 795 5265
1971-03-25 794.688 797.188 794.375 795.938 4922
1971-03-26 795.312 796.875 794.688 795.938 2729
1971-03-27 793.438 794.688 791.562 791.562 5779
1971-03-28 791.25 793.438 791.25 793.125 3820
1971-03-29 793.75 794.375 792.188 792.188 4177
1971-03-30 789.375 790.312 785.938 786.25 6701
1971-03-31 789.062 789.688 787.812 789.688 3191
1971-04-01 790.625 790.625 785.938 786.875 4074
1971-04-02 786.25 787.188 784.062 785.625 7089
1971-04-03 786.875 789.688 786.562 788.75 4710
1971-04-04 786.25 787.812 784.688 787.188 5816
1971-04-05 790.625 791.562 789.375 790.625 4891
1971-04-06 790.312 790.312 786.875 786.875 3618
1971-04-07 785.312 787.5 784.688 785.625 2129
1971-04-08 786.25 786.562 779.062 780.312 4041
1971-04-09 779.375 780.938 777.5 779.688 1614
1971-04-10 776.875 779.375 775.312 778.438 2715
1971-04-11 777.812 781.562 777.812 779.688 1509
1971-04-12 781.562 782.188 778.438 778.75 1770
1971-04-13 776.25 777.812 774.688 776.562 1598
1971-04-14 775.938 778.125 775.625 776.875 1832
1971-04-15 781.562 781.875 775.625 775.625 1753
1971-04-16 773.75 774.375 770 770.938 1693
1971-04-17 768.438 772.812 768.438 771.562 1574
1971-04-18 772.188 773.438 771.25 771.875 2541
1971-04-19 760.312 761.25 757.5 760.938 4573
1971-04-20 762.5 763.438 759.375 760 4001
1971-04-21 762.188 763.125 761.25 761.562 3472
1971-04-22 764.375 764.688 760.938 760.938 4348
1971-04-23 762.188 764.688 759.688 764.375 4295
1971-04-24 764.062 766.562 763.75 766.25 4618
1971-04-25 762.812 763.125 760.312 760.625 3729
1971-04-26 762.188 764.375 759.688 760.312 3930
1971-04-27 757.812 760 755.625 757.188 4281
1971-04-28 757.812 759.062 755.312 756.25 6770
1971-04-29 758.438 760.625 756.25 758.125 7095
1971-04-30 761.875 764.062 760.312 763.75 4300
1971-05-01 764.062 766.25 762.188 765 7460
1971-05-02 765.938 766.25 762.812 763.125 4566
1971-05-03 763.438 764.688 762.188 764.062 4113
1971-05-04 766.562 767.5 765.625 767.188 7210
1971-05-05 768.75 768.75 760.625 760.625 6689
1971-05-06 760 760 756.25 758.75 10418
1971-05-07 760 761.25 759.062 760.625 4056
1971-05-08 759.375 759.375 754.375 754.375 6620
1971-05-09 751.25 753.125 750.625 751.562 3826
1971-05-10 752.812 754.688 751.562 751.562 3448
1971-05-11 752.812 753.438 750 753.438 5075
1971-05-12 752.812 755.312 752.812 755 4825
1971-05-13 755.938 758.125 755.312 756.562 3821
1971-05-14 754.063 755 750.938 752.188 3558
1971-05-15 750.938 750.938 749.062 750.938 3300
1971-05-16 751.25 752.812 750.625 750.625 3302
1971-05-17 748.75 750.625 748.438 750.312 5555
1971-05-18 750.312 751.875 749.062 749.688 5854
1971-05-19 748.125 748.125 742.5 743.125 4956
1971-05-20 742.188 743.125 739.688 740.312 4904
1971-05-21 738.75 744.062 738.75 743.125 6612
1971-05-22 740.938 742.5 737.812 737.812 6552
1971-05-23 736.562 740.312 735.312 736.562 9485
1971-05-24 731.562 733.75 716.562 724.688 8082
1971-05-25 729.375 730.312 719.688 723.125 7576
1971-05-26 721.562 728.75 720.312 727.5 7814
1971-05-27 729.375 733.75 725.625 731.875 10661
1971-05-28 729.375 730.312 724.688 725.625 7586
1971-05-29 725.938 730.938 724.062 728.75 6240
1971-05-30 733.75 734.688 729.062 730.312 6194
1971-05-31 728.125 728.438 725.625 727.188 5345
1971-06-01 728.75 730 726.562 727.5 5059
1971-06-02 723.125 724.375 717.5 719.062 7856
1971-06-03 721.562 721.875 715.312 717.5 9440
1971-06-04 720 720 712.812 713.438 6187
1971-06-05 710.312 712.5 705.312 709.375 6874
1971-06-06 711.25 715 710.312 711.562 3744
1971-06-07 718.438 725 714.375 724.688 3034
1971-06-08 726.562 732.188 726.25 732.188 4790
1971-06-09 730 733.75 728.438 733.438 3441
1971-06-10 732.188 734.375 727.188 727.812 2107
1971-06-11 725.938 727.188 722.5 726.562 2764
1971-06-12 725.625 730.625 724.688 730.625 1822
1971-06-13 729.375 730.312 725.312 725.625 1329
1971-06-14 726.25 728.125 724.062 727.188 3123
1971-06-15 730.625 733.125 728.75 731.25 2532
1971-06-16 729.688 735.625 729.688 734.375 2247
1971-06-17 742.188 743.75 738.125 742.188 1610
1971-06-18 738.75 740.938 736.875 740.938 1855
1971-06-19 739.375 739.375 735.312 735.625 1587
1971-06-20 726.25 726.25 721.562 724.375 2354
1971-06-21 719.062 720.938 715.625 715.938 6019
1971-06-22 713.75 716.562 712.5 714.375 5108
1971-06-23 717.5 718.125 715.625 715.625 2617
1971-06-24 715.312 715.938 712.5 713.438 4048
1971-06-25 717.188 719.062 715 715.312 5357
1971-06-26 714.688 715 712.5 713.75 3994
1971-06-27 712.812 713.125 710.625 711.562 3910
1971-06-28 711.25 711.562 709.688 711.562 3157
1971-06-29 710.312 716.875 710.312 716.562 9735
1971-06-30 716.562 720.312 714.688 716.875 7208
1971-07-01 712.812 718.125 711.562 718.125 5130
1971-07-02 719.375 729.062 719.375 728.75 9068
1971-07-03 730 733.438 726.25 727.5 6338
1971-07-04 725.938 730.625 724.688 725.625 7113
1971-07-05 727.5 731.562 727.188 731.25 5485
1971-07-06 736.875 739.688 733.75 735.625 9498
1971-07-07 737.5 740.625 734.688 735.938 7844
1971-07-08 734.062 734.062 731.25 733.438 5221
1971-07-09 733.75 736.25 733.125 735.625 4093
1971-07-10 736.25 739.688 736.25 738.75 4204
1971-07-11 740.312 740.938 733.125 733.438 5485
1971-07-12 729.062 737.188 728.125 736.25 4981
1971-07-13 741.25 741.25 735.625 735.625 7838
1971-07-14 735.938 750.312 734.688 748.125 13276
1971-07-15 747.812 755.625 746.25 754.062 9771
1971-07-16 754.062 755.625 750.938 752.5 5482
1971-07-17 749.688 751.25 746.562 747.5 4684
1971-07-18 749.062 754.062 748.75 753.125 5817
1971-07-19 753.75 760.938 751.875 756.875 7771
1971-07-20 758.125 760.312 757.812 759.062 7499
1971-07-21 768.438 768.438 763.75 765.625 7168
1971-07-22 763.75 763.75 758.75 759.375 3635
1971-07-23 757.5 764.062 757.188 761.562 6655
1971-07-24 764.062 764.375 760.938 761.875 7151
1971-07-25 761.25 765 758.75 763.75 7756
1971-07-26 768.125 768.125 760.938 761.562 8176
1971-07-27 758.125 759.688 755.625 757.812 5170
1971-07-28 761.562 761.875 756.875 760.312 8290
1971-07-29 760.312 762.188 756.562 757.5 6221
1971-07-30 754.062 761.25 753.75 760.312 7821
1971-07-31 760.625 762.188 757.188 760.625 4865
1971-08-01 760 761.875 757.812 760.312 4083
1971-08-02 760 764.688 759.688 764.375 5382
1971-08-03 763.125 765.938 761.875 762.5 6687
1971-08-04 762.5 762.5 759.375 760.625 4121
1971-08-05 760 762.188 760 762.188 1940
1971-08-06 760 760.312 755 755.312 4653
1971-08-07 755.625 757.812 754.688 755.938 3398
1971-08-08 756.875 757.188 753.75 754.375 4677
1971-08-09 752.812 755.312 752.5 755 4406
1971-08-10 753.75 756.875 753.438 756.875 1735
1971-08-11 755 755.312 751.875 753.125 3670
1971-08-12 748.75 752.5 748.125 750.938 3918
1971-08-13 750.625 757.5 750.625 756.562 4303
1971-08-14 759.688 764.375 759.375 760.938 2526
1971-08-15 757.812 765.938 757.5 765 3526
1971-08-16 766.25 770.312 765.625 767.188 4284
1971-08-17 764.062 767.812 764.062 767.188 1796
1971-08-18 770.625 772.188 769.688 771.875 1445
1971-08-19 780 781.25 773.438 773.75 2866
1971-08-20 771.875 775.312 770.312 773.75 2773
1971-08-21 775 776.25 772.812 775.312 2114
1971-08-22 776.562 781.25 775.938 780.938 2399
1971-08-23 778.438 780.312 775 778.125 6619
1971-08-24 774.062 774.062 770.625 770.938 4948
1971-08-25 767.5 769.375 766.25 767.188 3819
1971-08-26 767.5 769.375 764.688 764.688 3698
1971-08-27 767.188 769.375 765.938 767.812 4383
1971-08-28 769.375 776.562 769.375 775.625 6495
1971-08-29 773.125 773.125 766.562 767.5 4978
1971-08-30 767.188 767.812 764.375 765.625 4263
1971-08-31 763.75 766.562 763.438 765.312 3693
1971-09-01 767.188 768.75 764.375 764.375 4356
1971-09-02 765 766.875 763.125 765.938 4642
1971-09-03 767.188 773.438 766.25 771.875 5712
1971-09-04 772.5 774.688 772.5 773.75 1053
1971-09-05 776.25 777.188 772.188 772.812 5752
1971-09-06 776.562 776.875 770.312 771.562 7207
1971-09-07 770.938 774.688 770.625 774.375 4410
1971-09-08 775.312 778.125 774.688 776.25 5912
1971-09-09 774.375 778.438 772.188 772.812 5722
1971-09-10 773.125 775.938 772.5 773.75 5036
1971-09-11 775 777.5 773.438 777.188 6366
1971-09-12 782.188 785.625 779.375 785.312 9077
1971-09-13 790.625 793.438 787.812 790.312 6848
1971-09-14 788.75 793.75 788.125 791.875 5653
1971-09-15 795.625 800.625 793.75 795.625 9938
1971-09-16 797.188 798.75 794.688 797.812 6172
1971-09-17 796.25 798.125 792.5 793.75 6364
1971-09-18 789.375 790 785.625 788.125 4116
1971-09-19 787.5 790.625 786.875 788.75 4582
1971-09-20 790 799.375 790 798.75 7816
1971-09-21 797.5 801.875 795.938 796.562 8122
1971-09-22 796.25 804.688 796.25 803.125 8359
1971-09-23 800.625 803.125 797.812 802.188 6166
1971-09-24 803.75 807.812 800.938 806.875 7980
1971-09-25 806.562 808.75 806.562 807.812 1754
1971-09-26 807.812 807.812 798.75 799.688 14105
1971-09-27 795.312 796.875 792.812 793.125 5618
1971-09-28 796.875 800.625 796.562 798.75 6864
1971-09-29 800 800 797.812 798.125 611
1971-09-30 796.562 797.5 794.062 794.375 4079
1971-10-01 794.375 795.938 790.625 793.438 5338
1971-10-02 790.312 799.062 789.375 797.188 5138
1971-10-03 799.062 802.188 796.875 798.75 6033
1971-10-04 801.25 804.688 800.938 802.188 5928
1971-10-05 806.875 807.812 804.062 805.625 5423
1971-10-06 806.25 813.125 805 811.875 4945
1971-10-07 820.938 822.812 819.688 819.688 3711
1971-10-08 819.375 821.25 817.5 819.688 6034
1971-10-09 819.688 820.312 813.75 814.375 4580
1971-10-10 816.25 816.25 813.125 813.75 8044
1971-10-11 810.625 812.5 804.688 805 7056
1971-10-12 804.375 808.125 804.375 805.625 3989
1971-10-13 808.438 809.688 806.562 807.812 4645
1971-10-14 810.312 812.188 807.5 807.5 3427
1971-10-15 806.562 807.188 803.125 803.75 2639
1971-10-16 803.75 804.062 798.125 798.75 2221
1971-10-17 798.125 802.188 798.125 801.875 1023
1971-10-18 805.625 807.812 803.75 805.625 3477
1971-10-19 807.5 809.688 806.562 807.5 966
1971-10-20 804.688 805.312 800 800.312 635
1971-10-21 798.75 810 797.812 805.938 3533
1971-10-22 806.875 811.562 806.875 810 2136
1971-10-23 817.812 820.625 816.25 820.312 2855
1971-10-24 817.188 818.438 814.688 816.562 1594
1971-10-25 807.5 811.875 806.25 808.438 6274
1971-10-26 810 810.312 807.812 809.375 2879
1971-10-27 810.938 810.938 803.75 804.375 3354
1971-10-28 803.125 805.625 802.188 802.812 4667
1971-10-29 802.188 805 801.562 804.375 8151
1971-10-30 790.312 798.75 790.312 797.188 8421
1971-10-31 799.375 800 793.125 795.312 6314
1971-11-01 801.562 805.938 800.625 805.312 6425
1971-11-02 805.938 807.812 802.812 806.875 7646
1971-11-03 806.562 809.375 805.625 806.25 6210
1971-11-04 805.625 806.562 799.688 800.312 8999
1971-11-05 798.438 800.938 796.875 799.062 5576
1971-11-06 804.375 805.625 801.875 803.125 9829
1971-11-07 802.188 805 801.875 804.062 5268
1971-11-08 805 807.5 804.375 805 3927
1971-11-09 808.75 811.562 808.438 810 6176
1971-11-10 809.375 810 808.438 809.062 831
1971-11-11 809.062 817.188 808.75 817.188 7751
1971-11-12 818.75 820.938 817.812 818.438 6730
1971-11-13 818.125 828.438 817.188 827.5 11361
1971-11-14 826.875 830 823.438 824.688 7853
1971-11-15 823.125 826.875 821.25 824.062 9407
1971-11-16 820.312 824.375 819.688 823.75 9446
1971-11-17 827.188 829.062 823.438 824.062 9425
1971-11-18 823.438 825 819.688 821.25 7471
1971-11-19 818.438 818.75 813.125 814.062 9950
1971-11-20 811.562 814.375 810.625 813.125 6901
1971-11-21 815.312 816.562 813.438 815 7865
1971-11-22 815.625 816.25 810 810.312 11302
1971-11-23 811.25 813.438 808.125 809.062 11009
1971-11-24 806.562 813.438 805.938 812.812 10595
1971-11-25 813.125 815.312 809.062 810.312 8701
1971-11-26 808.438 810.938 808.438 810.625 1270
1971-11-27 810.625 812.5 809.062 810.625 6951
1971-11-28 813.125 816.875 812.812 815.625 8587
1971-11-29 815.938 816.562 810 810.625 7764
1971-11-30 810 812.5 810 812.188 4072
1971-12-01 809.062 809.062 803.75 803.75 11686
1971-12-02 800 800.312 797.188 799.062 9191
1971-12-03 800.312 802.188 790.625 794.688 9577
1971-12-04 794.062 795.625 790 794.062 9101
1971-12-05 795.938 798.438 792.812 797.5 10815
1971-12-06 794.688 794.688 788.438 788.75 9272
1971-12-07 791.25 791.875 785 787.5 11113
1971-12-08 784.375 791.562 784.375 790.312 6769
1971-12-09 790 792.812 786.25 786.875 5173
1971-12-10 789.375 791.25 788.75 790.625 2275
1971-12-11 792.812 794.062 787.812 788.125 2523
1971-12-12 786.25 786.562 783.75 785.312 5521
1971-12-13 790.938 797.188 790.938 796.25 2435
1971-12-14 796.875 796.875 794.375 796.562 2478
1971-12-15 793.75 794.375 792.188 794.062 1909
1971-12-16 789.375 791.875 789.062 789.688 3093
1971-12-17 787.5 790 786.25 789.375 4101
1971-12-18 790.312 793.438 788.438 788.438 2564
1971-12-19 790 790 784.062 785 2067
1971-12-20 784.062 787.5 784.062 787.188 3778
1971-12-21 792.5 792.5 789.062 790 1831
1971-12-22 782.188 786.875 781.562 783.75 7255
1971-12-23 782.188 783.75 780.938 781.875 6390
1971-12-24 781.875 785 780.312 784.688 4615
1971-12-25 786.875 790 784.688 789.688 8172
1971-12-26 785.938 787.5 783.75 784.688 8595
1971-12-27 783.125 790.625 782.5 788.438 9612
1971-12-28 790 795.625 789.062 794.375 11624
1971-12-29 793.125 796.25 792.5 793.438 7638
1971-12-30 791.562 793.125 790.625 791.562 6188
1971-12-31 792.5 793.125 790.625 791.25 5899
1972-01-01 791.25 791.25 787.188 789.688 6247
1972-01-02 789.375 794.375 788.438 789.375 5717
1972-01-03 788.75 795.625 788.125 794.688 5732
1972-01-04 797.5 801.562 796.562 799.062 10413
1972-01-05 803.75 809.688 803.75 806.25 11729
1972-01-06 808.438 808.438 804.688 805.625 7252
1972-01-07 806.562 809.375 804.688 808.438 7621
1972-01-08 809.375 815 809.062 814.688 8472
1972-01-09 811.875 815.625 809.688 811.562 7660
1972-01-10 818.125 822.5 817.5 818.125 9009
1972-01-11 817.188 821.25 815.312 817.188 13305
1972-01-12 819.062 820.938 815.938 819.688 7685
1972-01-13 817.5 819.375 812.188 814.375 9046
1972-01-14 814.688 815.938 813.125 814.062 8245
1972-01-15 810.312 810.938 807.5 808.75 8638
1972-01-16 806.25 812.188 806.25 811.875 4729
1972-01-17 806.875 808.75 806.25 806.875 7447
1972-01-18 808.125 812.5 807.812 810.625 8781
1972-01-19 809.062 815 808.438 813.125 10581
1972-01-20 812.188 815.312 811.562 815 10015
1972-01-21 819.375 822.812 818.438 819.062 11455
1972-01-22 820 820.625 818.438 820.312 4503
1972-01-23 821.875 825.312 820 820.312 10379
1972-01-24 818.75 818.75 814.062 814.688 14020
1972-01-25 815.938 820.625 815.625 820.312 11203
1972-01-26 825.312 828.75 824.375 828.125 9535
1972-01-27 828.75 829.062 826.875 827.5 5253
1972-01-28 828.75 837.188 828.125 836.25 15453
1972-01-29 837.5 840.938 834.062 834.375 15572
1972-01-30 833.75 840.938 833.75 839.688 10078
1972-01-31 838.125 838.75 835.625 837.812 6548
1972-02-01 851.562 855.938 848.125 851.875 12928
1972-02-02 849.688 851.25 847.812 850 7138
1972-02-03 850.625 851.875 847.5 848.438 10596
1972-02-04 846.25 849.688 845 849.375 7201
1972-02-05 850.312 852.5 849.688 851.875 4996
1972-02-06 856.25 861.562 856.25 859.688 9853
1972-02-07 858.125 859.375 855.938 859.062 9399
1972-02-08 860 863.75 857.5 863.438 7597
1972-02-09 861.562 868.125 860.625 867.5 6792
1972-02-10 872.5 885.625 872.5 880.625 7288
1972-02-11 878.125 882.812 878.125 880.625 6358
1972-02-12 893.75 895.625 887.188 892.812 5439
1972-02-13 885.938 891.562 885.625 888.125 7246
1972-02-14 880.312 882.188 872.812 873.125 7257
1972-02-15 873.75 874.688 870 874.688 3427
1972-02-16 878.75 880 876.562 879.375 4264
1972-02-17 881.25 883.125 876.25 876.562 1902
1972-02-18 875.312 879.062 870.938 873.75 1955
1972-02-19 880.625 889.688 880.625 885.938 2627
1972-02-20 890.625 891.25 885 885.312 1717
1972-02-21 887.812 891.25 885 890.312 1870
1972-02-22 886.562 887.188 884.688 886.25 2468
1972-02-23 869.062 872.5 862.812 865.312 10169
1972-02-24 860 860.625 851.562 854.688 10451
1972-02-25 849.375 851.875 847.5 848.438 6608
1972-02-26 844.688 848.75 844.062 845.938 8949
1972-02-27 846.562 849.062 844.062 844.375 13250
1972-02-28 851.25 854.688 848.75 854.062 12259
1972-02-29 856.875 861.25 856.875 858.75 9395
1972-03-01 863.75 865.312 860.625 863.125 6663
1972-03-02 861.562 864.375 859.688 860.625 9937
1972-03-03 863.125 865 859.062 860 6989
1972-03-04 873.438 875.312 869.688 870.312 7379
1972-03-05 865.625 874.375 865.625 871.25 9496
1972-03-06 871.875 873.438 868.75 869.062 6792
1972-03-07 866.875 867.188 860.625 861.25 10300
1972-03-08 861.25 864.062 855.625 861.875 13116
1972-03-09 858.438 864.375 857.812 861.875 6501
1972-03-10 861.25 865.938 861.25 865.625 6852
1972-03-11 871.25 871.875 865 868.75 15331
1972-03-12 868.75 869.062 855.938 856.25 14126
1972-03-13 858.125 859.062 853.75 856.25 9611
1972-03-14 851.562 853.125 848.438 850 7654
1972-03-15 848.125 851.25 847.188 849.688 7925
1972-03-16 851.562 853.125 847.188 847.188 9572
1972-03-17 846.25 847.812 844.062 846.25 10940
1972-03-18 841.562 846.25 841.25 843.75 7569
1972-03-19 839.375 840.938 836.562 839.688 10266
1972-03-20 839.062 843.438 837.188 840.625 10449
1972-03-21 841.875 846.562 840.312 845.938 10348
1972-03-22 850 851.562 848.125 850.938 9929
1972-03-23 848.125 848.438 841.562 841.875 7561
1972-03-24 840.938 844.688 840.625 844.688 6093
1972-03-25 846.875 847.812 843.125 843.438 8285
1972-03-26 848.125 850 841.562 849.062 13460
1972-03-27 850.625 857.188 849.375 855.625 16449
1972-03-28 851.25 860.625 851.25 857.5 11165
1972-03-29 861.25 861.25 855.312 858.125 6112
1972-03-30 855.625 855.625 851.875 852.812 8480
1972-03-31 851.875 857.812 850.938 857.812 9743
1972-04-01 859.375 862.5 856.875 858.438 14294
1972-04-02 855.625 864.375 853.75 864.062 9262
1972-04-03 862.5 867.812 862.5 866.562 9357
1972-04-04 865.312 869.062 862.188 867.812 7366
1972-04-05 869.375 872.188 867.812 871.562 9151
1972-04-06 874.062 877.5 872.188 872.5 7507
1972-04-07 871.875 873.75 870.625 871.25 4628
1972-04-08 870 870.625 867.188 869.375 4736
1972-04-09 870.312 874.688 869.688 874.375 11857
1972-04-10 875.312 876.25 871.875 872.188 9475
1972-04-11 875.312 875.312 872.188 873.75 4837
1972-04-12 870.938 870.938 864.688 865.938 3047
1972-04-13 864.375 868.75 864.062 868.438 2390
1972-04-14 871.875 875 870.625 872.188 2869
1972-04-15 870.312 870.938 866.25 866.875 5463
1972-04-16 860 860 853.125 855 3908
1972-04-17 858.438 858.438 854.375 855 2328
1972-04-18 858.125 858.75 854.375 856.25 2169
1972-04-19 855.312 857.188 852.188 855 2052
1972-04-20 855.938 856.562 853.75 854.375 1351
1972-04-21 856.562 863.75 854.688 860.312 1118
1972-04-22 862.188 863.438 861.25 862.5 1063
1972-04-23 864.375 865 859.062 859.062 1980
1972-04-24 860 860.312 857.812 859.062 1707
1972-04-25 857.188 860.625 857.188 859.062 2487
1972-04-26 852.812 854.375 851.25 852.5 8078
1972-04-27 858.438 858.438 850.312 850.625 11399
1972-04-28 850 855.625 849.375 854.375 12974
1972-04-29 854.062 859.375 852.5 857.188 7268
1972-04-30 861.25 861.875 856.875 860.312 11307
1972-05-01 853.125 857.5 852.812 856.875 7054
1972-05-02 856.25 859.062 855 858.438 7380
1972-05-03 860 862.812 854.688 855 13011
1972-05-04 858.75 858.75 855.625 856.562 9946
1972-05-05 859.688 860.938 853.438 854.062 8812
1972-05-06 852.812 853.438 848.438 850.312 8265
1972-05-07 850.312 852.812 848.75 851.875 11057
1972-05-08 853.438 854.375 850.312 850.625 8370
1972-05-09 850.938 853.438 850 852.812 8269
1972-05-10 855.312 855.938 853.125 853.75 5216
1972-05-11 857.5 858.125 855.625 858.125 4652
1972-05-12 858.125 861.875 857.5 861.562 9609
1972-05-13 861.25 864.062 860 864.062 10252
1972-05-14 864.688 868.125 864.062 865.625 8131
1972-05-15 865.625 866.562 864.688 865.312 3739
1972-05-16 865 872.188 864.688 869.062 10731
1972-05-17 871.25 871.25 865.625 868.75 13192
1972-05-18 866.562 869.688 865.938 868.125 7290
1972-05-19 865.938 865.938 864.062 865.312 9159
1972-05-20 864.062 865 861.25 861.562 10675
1972-05-21 863.75 873.438 863.438 873.125 15620
1972-05-22 878.75 883.438 877.5 877.5 22082
1972-05-23 876.25 879.375 875.312 878.438 12169
1972-05-24 874.688 882.188 873.125 878.438 12692
1972-05-25 878.125 880.312 876.562 879.375 6048
1972-05-26 868.125 884.375 868.125 882.812 11571
1972-05-27 884.062 887.188 882.812 883.125 18608
1972-05-28 886.562 886.875 881.562 884.688 8971
1972-05-29 885.938 890 884.688 889.062 8683
1972-05-30 886.875 889.375 886.875 887.812 739
1972-05-31 888.75 895.312 888.438 895 13233
1972-06-01 893.438 895 890.938 891.875 13602
1972-06-02 890 891.562 887.812 890 9651
1972-06-03 884.375 888.438 883.125 886.25 10305
1972-06-04 889.375 898.125 889.062 897.812 13943
1972-06-05 898.75 903.125 895.938 897.812 14057
1972-06-06 895.625 898.438 894.375 897.5 9557
1972-06-07 905 905 898.438 899.375 26611
1972-06-08 899.375 900.312 895.312 895.625 17382
1972-06-09 893.438 896.25 892.812 895.625 9867
1972-06-10 896.875 898.438 895.625 896.25 9863
1972-06-11 895 900.938 894.062 899.375 14369
1972-06-12 901.25 904.688 895 895.312 12174
1972-06-13 895 896.562 893.125 896.562 10069
1972-06-14 897.812 900.938 896.25 900.938 7769
1972-06-15 900.625 901.875 899.375 900.938 4021
1972-06-16 898.438 902.188 898.125 899.688 3959
1972-06-17 904.688 910 903.75 910 7315
1972-06-18 914.688 917.188 912.5 915.625 5048
1972-06-19 917.5 927.5 917.5 924.688 3610
1972-06-20 922.5 926.562 920.625 921.875 5924
1972-06-21 926.25 926.25 922.188 923.438 4918
1972-06-22 924.375 927.812 922.812 927.188 3108
1972-06-23 931.562 935.625 930.625 934.688 2796
1972-06-24 933.125 933.438 928.438 930.938 1823
1972-06-25 928.75 931.562 926.25 930.938 1716
1972-06-26 919.688 930 918.75 926.875 8796
1972-06-27 924.062 926.875 923.125 924.688 3449
1972-06-28 924.375 930.938 924.375 926.875 3003
1972-06-29 930.938 932.5 928.438 930.312 3679
1972-06-30 932.188 933.438 927.812 928.125 8513
1972-07-01 929.688 930 928.125 929.062 2885
1972-07-02 927.5 930.312 925.312 926.875 7738
1972-07-03 924.062 928.125 923.438 926.875 8678
1972-07-04 925.625 928.438 925.625 925.938 7116
1972-07-05 930.312 934.688 928.438 934.375 12486
1972-07-06 934.375 936.25 920.938 922.5 22358
1972-07-07 916.562 918.75 910 915.938 20467
1972-07-08 913.125 918.125 911.25 911.875 13592
1972-07-09 903.75 907.5 900 900.625 15832
1972-07-10 907.5 908.125 903.75 906.875 10850
1972-07-11 909.375 915.625 907.188 913.125 14458
1972-07-12 916.562 917.188 909.375 914.375 9204
1972-07-13 916.562 921.25 915.938 917.5 8086
1972-07-14 906.25 916.875 905.938 916.875 2033
1972-07-15 920 921.25 915.938 918.438 10817
1972-07-16 922.5 922.812 914.688 915.312 14251
1972-07-17 916.562 918.438 914.062 918.438 9678
1972-07-18 915.938 919.375 915.312 918.75 7902
1972-07-19 922.812 926.25 921.25 926.25 9022
1972-07-20 930.625 932.188 927.188 931.875 14975
1972-07-21 932.188 933.75 927.812 928.438 12347
1972-07-22 930.312 930.625 926.875 928.125 10540
1972-07-23 927.812 933.125 927.5 930 10954
1972-07-24 931.25 934.688 930.938 934.375 13448
1972-07-25 939.375 940.938 937.188 938.75 15561
1972-07-26 938.125 940 933.125 933.438 16413
1972-07-27 934.062 934.062 927.812 930 13533
1972-07-28 920.312 925.938 916.25 924.688 18791
1972-07-29 925.312 931.562 925.312 931.25 10956
1972-07-30 933.75 937.5 933.75 937.188 15019
1972-07-31 935.625 940.625 934.688 938.125 12670
1972-08-01 940.938 942.812 939.062 942.5 12283
1972-08-02 950.312 953.75 945.938 953.125 14452
1972-08-03 957.188 957.5 950.625 955 14687
1972-08-04 949.062 957.5 948.75 950 14704
1972-08-05 950.312 953.125 948.438 953.125 13833
1972-08-06 960 966.25 958.438 965 16536
1972-08-07 965.938 976.875 963.125 972.5 21315
1972-08-08 968.75 971.875 968.438 970 20952
1972-08-09 968.125 974.062 967.5 973.75 15667
1972-08-10 982.812 992.812 978.438 987.188 17090
1972-08-11 1003.12 1005 984.688 989.062 12487
1972-08-12 987.812 998.75 986.25 996.875 10115
1972-08-13 1002.5 1007.5 1000 1000.31 9591
1972-08-14 994.062 999.375 983.438 985.312 8843
1972-08-15 999.688 1000 988.438 990.938 6349
1972-08-16 990 997.812 983.125 996.25 6030
1972-08-17 1002.19 1010.94 1000 1009.06 4975
1972-08-18 1012.81 1015.62 1009.38 1010.94 4870
1972-08-19 1014.69 1015 1009.38 1012.81 2456
1972-08-20 1005 1009.06 1000.62 1008.44 4645
1972-08-21 1010.62 1015.94 1010.62 1011.56 4273
1972-08-22 1014.06 1014.06 1006.88 1008.75 3711
1972-08-23 1001.88 1012.19 999.688 1002.81 4398
1972-08-24 1000.94 1006.88 1000.31 1005 4227
1972-08-25 1000.62 1004.38 1000.31 1002.19 9446
1972-08-26 1004.06 1006.25 997.188 997.5 17663
1972-08-27 1002.81 1007.19 1001.25 1006.56 11872
1972-08-28 1006.88 1009.38 1004.06 1006.88 8335
1972-08-29 1008.44 1012.5 1008.44 1012.19 13747
1972-08-30 1021.25 1021.56 1017.5 1020.31 17714
1972-08-31 1020.94 1028.12 1019.06 1027.5 15105
1972-09-01 1033.12 1041.88 1026.25 1026.88 33306
1972-09-02 1020 1029.38 1014.69 1028.44 15141
1972-09-03 1030.62 1032.19 1022.19 1022.5 9420
1972-09-04 1023.12 1027.5 1017.19 1017.81 12373
1972-09-05 1015 1024.06 1012.81 1017.81 13306
1972-09-06 1026.25 1032.5 1023.44 1031.56 19440
1972-09-07 1038.44 1040.94 1031.88 1035.62 19503
1972-09-08 1033.44 1039.69 1031.25 1034.69 14273
1972-09-09 1039.06 1039.06 1029.38 1030 12693
1972-09-10 1034.06 1038.75 1032.5 1038.44 10920
1972-09-11 1038.44 1039.38 1031.88 1034.38 14386
1972-09-12 1045.62 1052.5 1043.44 1051.25 20568
1972-09-13 1048.44 1051.56 1040.62 1045.31 25164
1972-09-14 1047.19 1047.19 1039.38 1040 11830
1972-09-15 1035 1043.44 1034.38 1040.62 11547
1972-09-16 1042.81 1044.38 1025 1025.94 28806
1972-09-17 1016.88 1024.69 1012.81 1017.5 20641
1972-09-18 1018.75 1019.38 1008.75 1010.31 18656
1972-09-19 1012.19 1013.75 1005.62 1006.88 17129
1972-09-20 1009.69 1015.94 1008.44 1015.62 12030
1972-09-21 1019.38 1024.69 1017.81 1022.81 15221
1972-09-22 1020 1025.31 1019.06 1022.5 13568
1972-09-23 1021.88 1024.06 1015.31 1015.94 11958
1972-09-24 1014.06 1014.06 1009.06 1010.94 14142
1972-09-25 1011.25 1021.56 1008.44 1020.31 9661
1972-09-26 1020 1022.5 1016.56 1017.5 15185
1972-09-27 1012.5 1014.38 1010 1013.12 16824
