"Index" "Open" "High" "Low" "Close" "Volume"
1970-01-02 376.5 378.9 372.6 373.5 378
1970-01-03 372 373.5 365.4 372.9 892
1970-01-04 374.7 375.9 366.3 368.4 508
1970-01-05 372 378.6 370.5 372 750
1970-01-06 377.7 382.5 374.4 381.6 558
1970-01-07 377.1 377.1 372 372.3 284
1970-01-08 371.1 376.5 370.8 376.5 348
1970-01-09 376.5 379.2 361.5 361.5 1112
1970-01-10 351 354 346.5 352.8 878
1970-01-11 348 367.8 348 367.8 544
1970-01-12 411.6 415.5 403.5 407.4 1940
1970-01-13 409.5 415.2 407.1 408 1886
1970-01-14 408 420.9 406.2 420.3 2806
1970-01-15 420 425.1 418.8 420.3 3196
1970-01-16 424.5 425.7 415.8 422.7 2264
1970-01-17 420.6 427.5 420 426.6 1786
1970-01-18 433.5 438.6 429.9 438.3 4284
1970-01-19 435 439.2 432.6 435.3 2086
1970-01-20 433.5 436.5 427.8 428.4 1986
1970-01-21 418.5 419.7 413.4 413.4 3208
1970-01-22 405 411.9 404.1 404.7 3132
1970-01-23 403.8 407.1 392.7 393.3 3304
1970-01-24 393.3 399 387 394.5 2384
1970-01-25 391.5 404.1 391.5 399.9 1778
1970-01-26 399 405.9 397.5 401.1 1494
1970-01-27 406.2 414.6 405 413.1 2288
1970-01-28 418.5 423 415.2 417.3 2836
1970-01-29 430.5 430.5 423.9 428.4 3012
1970-01-30 420 420.3 413.4 413.4 2152
1970-01-31 410.4 418.2 408.3 408.9 2024
1970-02-01 412.5 415.2 408.9 411.3 1342
1970-02-02 424.5 426 409.5 418.5 3082
1970-02-03 421.5 422.4 414.9 419.4 1510
1970-02-04 416.1 422.4 404.4 417.9 3730
1970-02-05 415.5 421.5 412.5 414.9 986
1970-02-06 414.9 416.7 409.2 413.1 720
1970-02-07 417 420 412.2 412.8 680
1970-02-08 410.1 411 405.9 407.4 734
1970-02-09 408 411.6 403.5 411.3 674
1970-02-10 412.2 415.2 407.1 411.3 540
1970-02-11 415.5 415.8 410.1 411.6 558
1970-02-12 412.2 414.3 408.6 414.3 402
1970-02-13 411.9 415.5 411.6 414 268
1970-02-14 421.5 423 412.5 414 402
1970-02-15 414.9 418.5 413.4 418.2 278
1970-02-16 418.5 421.2 417 420 526
1970-02-17 427.5 429.9 420.6 422.1 434
1970-02-18 416.4 416.4 408.6 414 438
1970-02-19 408 414 402.9 405.9 418
1970-02-20 406.5 413.4 393 405.9 230
1970-02-21 427.5 432.6 427.5 431.1 1850
1970-02-22 432 432.9 422.4 424.5 1582
1970-02-23 421.5 422.7 410.1 410.7 3472
1970-02-24 412.5 417 411.6 413.1 1848
1970-02-25 412.2 415.5 409.5 414 1248
1970-02-26 414.6 417 411 413.7 1278
1970-02-27 405 406.5 399.9 402.6 2512
1970-02-28 400.5 404.4 400.5 400.8 1154
1970-03-01 396.3 401.7 396.3 400.2 1310
1970-03-02 403.2 408 397.5 401.4 2134
1970-03-03 401.4 401.4 396 396.9 1010
1970-03-04 404.7 404.7 400.8 402.6 812
1970-03-05 400.5 400.5 391.5 392.4 1872
1970-03-06 392.7 399.6 388.5 398.1 1774
1970-03-07 396.6 406.5 393.9 405.6 2374
1970-03-08 404.4 404.4 400.5 402.9 846
1970-03-09 397.5 399 387.9 390.6 1378
1970-03-10 392.1 392.1 384 384.9 896
1970-03-11 382.5 389.4 381.9 387 826
1970-03-12 387.6 388.2 384.9 386.1 496
1970-03-13 385.5 385.5 371.1 376.2 1540
1970-03-14 379.8 383.4 374.4 375.9 992
1970-03-15 378.6 380.4 373.2 376.8 852
1970-03-16 391.8 391.8 391.8 391.8 498
1970-03-17 394.5 399 385.5 397.8 2284
1970-03-18 401.1 405.6 393.6 405.3 1202
1970-03-19 402 413.7 402 411 1246
1970-03-20 410.4 416.4 407.1 413.7 1324
1970-03-21 402 409.5 402 405.3 754
1970-03-22 409.5 410.7 401.1 403.5 548
1970-03-23 399 402.6 397.8 402.3 566
1970-03-24 401.4 401.4 396 399.3 298
1970-03-25 402 406.5 400.5 404.7 358
1970-03-26 405 406.8 401.1 401.7 342
1970-03-27 402.3 402.3 396 400.2 256
1970-03-28 402.3 405 400.5 402.3 168
1970-03-29 404.4 409.5 399.3 402.6 302
1970-03-30 400.5 403.5 394.8 403.5 206
1970-03-31 400.5 400.5 397.8 398.1 150
1970-04-01 396 396.3 393 394.8 154
1970-04-02 395.1 402 395.1 401.1 240
1970-04-03 401.1 402.9 397.5 397.8 336
1970-04-04 399 399 382.8 382.8 290
1970-04-05 405.6 413.7 405.6 410.1 1376
1970-04-06 405 412.2 404.4 404.7 1330
1970-04-07 403.2 404.7 396.6 396.9 2514
1970-04-08 400.2 402 397.5 399.3 1174
1970-04-09 401.1 403.8 399.3 402.6 1032
1970-04-10 400.2 401.7 398.1 399.6 1062
1970-04-11 401.1 401.4 396.3 396.9 690
1970-04-12 396.6 397.8 393.3 395.4 1394
1970-04-13 395.1 396.6 388.5 389.1 1548
1970-04-14 388.5 390.9 384 390 1694
1970-04-15 399 399 393.6 396.3 1924
1970-04-16 389.4 393 385.8 392.7 1056
1970-04-17 393.9 399 390.9 398.7 1084
1970-04-18 401.4 413.7 400.5 407.1 3338
1970-04-19 412.2 420.9 411.9 420.3 3146
1970-04-20 422.4 423 411.9 416.1 2140
1970-04-21 428.7 429.9 421.8 427.8 2260
1970-04-22 423 434.7 421.5 433.2 2566
1970-04-23 431.1 441.9 430.2 433.8 1846
1970-04-24 430.8 433.8 426.3 426.6 1004
1970-04-25 426 435.6 424.8 432.6 964
1970-04-26 435 440.7 430.8 432.3 1458
1970-04-27 423 424.8 417.3 417.3 1402
1970-04-28 415.5 419.7 408.3 408.9 1642
1970-04-29 409.5 413.1 406.8 410.4 862
1970-04-30 402.9 405.6 399 399.9 1456
1970-05-01 401.1 408 399.6 406.8 1058
1970-05-02 406.8 409.2 403.8 406.8 756
1970-05-03 409.2 412.5 408 409.8 1058
1970-05-04 414.9 424.2 412.5 423.9 1324
1970-05-05 426 431.7 423.6 426.9 1178
1970-05-06 431.1 431.4 423.3 423.6 744
1970-05-07 429 438.6 429 438.6 796
1970-05-08 441.6 453 441 446.1 964
1970-05-09 441 449.7 439.5 449.1 472
1970-05-10 442.8 450 439.8 446.4 518
1970-05-11 447.9 447.9 440.1 440.1 366
1970-05-12 436.8 439.5 431.1 434.4 546
1970-05-13 441 449.4 438 449.4 642
1970-05-14 449.1 449.1 434.7 436.5 450
1970-05-15 486.6 497.4 485.4 496.2 2780
1970-05-16 503.4 508.8 499.8 508.5 2794
1970-05-17 508.5 513.9 504.3 506.1 2902
1970-05-18 509.7 512.1 501.9 504.6 2424
1970-05-19 505.5 506.4 496.5 498.9 2198
1970-05-20 497.4 500.1 492.9 494.1 1940
1970-05-21 492.3 497.7 490.5 496.5 1530
1970-05-22 499.5 511.2 496.5 511.2 2024
1970-05-23 512.4 514.2 504.6 507.6 2344
1970-05-24 504 509.7 500.4 500.7 1976
1970-05-25 503.7 507 498.9 501.9 1580
1970-05-26 503.1 506.7 499.5 502.8 1522
1970-05-27 504 504.9 495 495.9 2304
1970-05-28 486 489.9 481.2 481.8 3996
1970-05-29 481.5 487.8 478.2 486.9 2794
1970-05-30 481.5 487.2 479.1 480 2264
1970-05-31 481.5 494.7 479.1 494.4 2382
1970-06-01 495.3 495.3 489 490.8 2034
1970-06-02 492 503.4 491.1 500.7 1966
1970-06-03 508.8 510 485.7 487.5 3190
1970-06-04 493.5 497.1 489 496.2 2058
1970-06-05 495.6 500.1 491.4 498.9 1184
1970-06-06 509.4 510.9 498.6 498.9 1640
1970-06-07 498 499.2 494.1 495 1260
1970-06-08 496.8 498.6 494.4 495.3 516
1970-06-09 498.3 501.6 496.8 500.1 768
1970-06-10 499.5 503.7 498 501.3 886
1970-06-11 503.1 510 502.8 509.7 1102
1970-06-12 507 509.1 505.2 507.3 680
1970-06-13 506.1 507 499.8 500.1 790
1970-06-14 498.9 501.6 495.9 496.8 650
1970-06-15 504 506.4 499.8 500.4 826
1970-06-16 497.4 509.7 495.9 508.8 1282
1970-06-17 510 523.8 507.3 523.8 1734
1970-06-18 525 537.6 524.4 534.9 1156
1970-06-19 538.2 539.1 531.3 537.9 698
1970-06-20 535.5 539.1 531.9 536.4 762
1970-06-21 540 540.6 529.5 530.4 756
1970-06-22 528 531.9 528 529.5 350
1970-06-23 531 533.7 529.5 532.5 392
1970-06-24 534 546 534 543.6 286
1970-06-25 587.1 598.2 587.1 590.7 3454
1970-06-26 583.5 589.5 582.3 589.2 3206
1970-06-27 582.9 584.7 577.2 578.1 2952
1970-06-28 579 583.5 576.9 581.4 2114
1970-06-29 578.4 578.4 573.9 574.5 2150
1970-06-30 566.1 567.9 561.3 566.7 3778
1970-07-01 570 572.7 563.4 563.7 3184
1970-07-02 559.5 565.2 556.2 556.5 3970
1970-07-03 555 562.5 555 560.1 2852
1970-07-04 564.6 572.7 562.8 569.1 3388
1970-07-05 579 584.1 572.1 584.1 3368
1970-07-06 580.5 588.9 569.1 569.1 4132
1970-07-07 562.5 568.2 560.1 567.9 2590
1970-07-08 567.9 568.8 561.3 561.6 2004
1970-07-09 555 575.4 553.8 571.5 4476
1970-07-10 571.5 578.4 560.4 561.3 2830
1970-07-11 563.1 563.7 553.5 553.8 3352
1970-07-12 548.1 557.4 548.1 556.2 2352
1970-07-13 558.9 565.5 558.3 562.2 2208
1970-07-14 565.2 566.4 547.5 550.2 3418
1970-07-15 546 551.4 542.1 545.4 4038
1970-07-16 547.5 554.4 543.6 553.2 3006
1970-07-17 552 555.6 547.8 549.6 1842
1970-07-18 553.5 556.2 544.8 550.2 2316
1970-07-19 553.5 555 550.5 551.1 1908
1970-07-20 551.1 554.4 540.3 540.9 1812
1970-07-21 537 540.6 534.6 536.4 1606
1970-07-22 537.6 548.1 537.6 547.2 1638
1970-07-23 550.5 552.9 542.4 546 1574
1970-07-24 537.9 539.7 531.3 535.5 1996
1970-07-25 537 539.1 532.2 534.9 1436
1970-07-26 537.3 547.5 537 546.6 852
1970-07-27 549 552 546 551.4 960
1970-07-28 555 555 549.6 551.7 854
1970-07-29 547.5 555 544.5 553.5 668
1970-07-30 543 543 539.4 540 840
1970-07-31 535.5 536.4 525 525 1204
1970-08-01 525 528 517.5 518.4 776
1970-08-02 520.5 523.2 509.4 509.4 474
1970-08-03 511.8 518.4 504.9 505.8 320
1970-08-04 510 510 497.4 507 328
1970-08-05 558.9 562.2 556.8 560.1 2238
1970-08-06 567 568.5 563.4 568.2 2758
1970-08-07 573.3 578.4 573.3 574.5 3590
1970-08-08 570.3 571.2 562.8 563.4 2112
1970-08-09 564 566.4 561 562.8 2094
1970-08-10 564 570 562.8 568.2 2244
1970-08-11 570 570.6 557.1 558 2658
1970-08-12 560.1 561 553.5 554.4 3246
1970-08-13 556.2 559.2 553.8 554.1 1136
1970-08-14 557.4 558 555 555 1004
1970-08-15 554.7 557.7 551.4 555.9 1748
1970-08-16 559.5 559.8 553.8 553.8 1752
1970-08-17 554.4 556.5 551.4 552.3 1000
1970-08-18 555 556.5 549.6 551.1 2012
1970-08-19 552 552.6 548.1 550.5 1704
1970-08-20 549.9 558.6 549.6 556.8 2726
1970-08-21 559.2 559.5 555.6 558.3 1334
1970-08-22 562.2 568.5 562.2 568.5 2146
1970-08-23 568.5 568.5 560.1 560.7 2120
1970-08-24 561.9 568.5 561 567.9 1860
1970-08-25 573.9 577.2 570 574.8 2910
1970-08-26 573 576.6 570.9 571.8 1188
1970-08-27 574.5 580.8 570.9 580.5 1932
1970-08-28 577.5 577.5 566.7 570.9 2204
1970-08-29 570 571.8 565.5 566.4 1328
1970-08-30 566.4 568.8 564.6 566.1 888
1970-08-31 565.5 568.5 564.6 566.4 658
1970-09-01 573 574.2 570 573.6 1120
1970-09-02 572.4 572.4 562.5 563.4 1058
1970-09-03 565.5 566.4 559.5 561.9 1684
1970-09-04 563.7 576.6 563.7 576.3 2320
1970-09-05 577.2 580.2 569.1 579.6 1386
1970-09-06 580.5 580.5 574.5 579 1074
1970-09-07 576.6 586.8 576.6 582 882
1970-09-08 589.5 596.4 588.6 592.8 1546
1970-09-09 594.9 599.7 592.8 595.8 760
1970-09-10 604.5 610.2 601.5 608.7 864
1970-09-11 607.2 618.6 601.5 616.8 504
1970-09-12 618 622.8 616.5 620.1 704
1970-09-13 621.9 635.1 615.9 635.1 446
1970-09-14 639 650.1 637.5 650.1 376
1970-09-15 665.1 665.1 644.1 651.6 498
1970-09-16 667.5 688.5 666 686.1 4406
1970-09-17 682.5 695.7 679.5 682.5 4340
1970-09-18 679.5 689.4 679.5 682.5 3126
1970-09-19 680.1 682.5 670.8 673.5 4092
1970-09-20 673.8 682.2 670.5 681.6 3362
1970-09-21 673.5 679.5 672.9 676.8 2642
1970-09-22 678 691.8 676.8 691.8 3676
1970-09-23 702 706.8 699.9 706.8 3794
1970-09-24 706.8 720.6 705.3 718.8 4332
1970-09-25 721.5 732 716.4 731.1 3972
1970-09-26 727.5 745.5 720.6 744.6 5068
1970-09-27 733.5 745.2 729.6 729.6 4766
1970-09-28 732 735.6 714.6 714.6 5136
1970-09-29 711.3 722.4 708.6 712.2 3960
1970-09-30 717 727.2 717 727.2 1994
1970-10-01 712.2 712.2 712.2 712.2 542
1970-10-02 697.2 697.2 697.2 697.2 232
1970-10-03 682.2 698.1 682.2 682.8 4942
1970-10-04 682.8 693 680.4 683.1 2824
1970-10-05 691.5 696.3 687.9 693 1904
1970-10-06 690 694.2 678.6 680.7 2498
1970-10-07 681 681 671.4 672.3 2488
1970-10-08 675.3 687.3 675.3 687.3 1752
1970-10-09 702.3 702.3 702.3 702.3 782
1970-10-10 708 713.1 687.3 691.8 2108
1970-10-11 684 686.4 678 680.4 2704
1970-10-12 681.3 682.5 665.4 665.4 2954
1970-10-13 663 663 651.3 655.5 3594
1970-10-14 661.5 670.5 660.6 668.1 2946
1970-10-15 668.1 668.1 653.1 653.1 1668
1970-10-16 651.6 654 638.1 638.1 2482
1970-10-17 639.9 649.2 630.3 647.4 2204
1970-10-18 660 662.4 655.5 657.3 1454
1970-10-19 658.5 659.1 649.8 657.6 622
1970-10-20 650.4 650.4 643.8 645.9 492
1970-10-21 649.5 655.8 633.9 638.1 1146
1970-10-22 631.5 633 623.1 623.1 834
1970-10-23 622.5 624 609.3 609.6 604
1970-10-24 612 622.5 611.7 616.5 312
1970-10-25 615 615 608.7 608.7 272
1970-10-26 609 611.1 603 607.8 198
1970-10-27 608.1 612.9 592.8 592.8 194
1970-10-28 585 585 577.8 577.8 168
1970-10-29 628.5 629.1 621.3 627.9 2856
1970-10-30 628.8 635.7 622.8 625.2 3646
1970-10-31 624 628.8 610.5 618 5798
1970-11-01 620.7 633 616.2 633 4552
1970-11-02 637.8 643.5 631.5 637.8 4914
1970-11-03 634.2 651.9 632.4 651.6 3622
1970-11-04 650.7 650.7 639 643.2 3644
1970-11-05 636 639 628.2 628.2 3426
1970-11-06 621 625.2 613.2 614.4 4218
1970-11-07 611.4 611.4 599.4 599.4 3598
1970-11-08 594 594 584.4 584.4 1766
1970-11-09 580.5 589.8 571.2 572.4 4414
1970-11-10 572.1 575.7 559.8 570.3 4040
1970-11-11 567 573.3 555.3 555.3 3818
1970-11-12 543.3 550.8 540.3 540.3 3328
1970-11-13 529.8 532.5 525.3 525.3 1314
1970-11-14 512.7 536.7 511.5 513.6 5754
1970-11-15 519 520.5 505.8 513 3434
1970-11-16 519 525 509.4 513.3 3496
1970-11-17 517.5 527.4 516.3 520.5 2936
1970-11-18 529.5 534.6 528.6 533.7 2226
1970-11-19 532.8 532.8 518.7 518.7 1662
1970-11-20 514.5 514.5 503.7 504.6 2850
1970-11-21 501.9 508.5 492.6 494.1 2402
1970-11-22 490.5 494.1 483.9 485.4 1684
1970-11-23 496.2 500.4 484.8 490.5 1812
1970-11-24 505.5 505.5 497.4 505.5 1468
1970-11-25 511.5 520.5 510.6 520.5 1366
1970-11-26 533.7 535.5 510.6 513.3 2730
1970-11-27 510.3 519.6 499.8 518.4 1664
1970-11-28 511.8 516.6 506.4 510.3 808
1970-11-29 520.5 520.5 504.6 511.8 1084
1970-11-30 505.5 508.5 499.8 500.1 1062
1970-12-01 501 502.5 489.6 493.5 554
1970-12-02 487.5 490.5 480 480 996
1970-12-03 487.5 487.5 474.3 477.6 808
1970-12-04 477 484.5 471.6 475.2 838
1970-12-05 472.8 474 462 462 800
1970-12-06 462 464.4 456.3 464.4 456
1970-12-07 472.5 475.5 459 459.6 374
1970-12-08 456 468 448.2 459 928
1970-12-09 454.5 462.3 447 447.9 528
1970-12-10 439.5 450 435 445.5 386
1970-12-11 491.4 503.1 490.5 503.1 4166
1970-12-12 507 509.1 495.9 503.1 4122
1970-12-13 512.1 513 493.8 494.4 5044
1970-12-14 499.5 509.4 498.6 509.4 4098
1970-12-15 516 524.4 511.5 524.4 5290
1970-12-16 530.4 532.2 519.6 527.7 5544
1970-12-17 530.1 532.5 520.2 521.7 3180
1970-12-18 516 517.5 507.9 510.3 3908
1970-12-19 510 525.3 509.4 525.3 4572
1970-12-20 522 533.4 522 531 4642
1970-12-21 543 546 539.7 546 3700
1970-12-22 552 557.4 531 531 5686
1970-12-23 531 544.5 530.4 538.8 3314
1970-12-24 543.9 543.9 523.8 526.2 4448
1970-12-25 532.5 539.7 528 536.4 4244
1970-12-26 551.4 551.4 540.3 550.2 4934
1970-12-27 542.4 543.6 535.8 537 2398
1970-12-28 529.5 543 529.5 542.1 3150
1970-12-29 538.5 545.4 535.8 542.1 1918
1970-12-30 543 549.9 541.2 548.1 2570
1970-12-31 544.5 545.4 538.5 539.4 1770
1971-01-01 535.8 536.7 525 528.9 2300
1971-01-02 527.4 528 514.5 515.4 3178
1971-01-03 513.3 515.4 502.5 504 3056
1971-01-04 504 519 504 519 3872
1971-01-05 522 523.8 513 518.7 1918
1971-01-06 531 533.7 518.4 521.1 2108
1971-01-07 522 522 506.1 506.1 1902
1971-01-08 501 502.5 491.4 492.6 1704
1971-01-09 486 486.6 477.6 477.6 2286
1971-01-10 479.1 483 472.5 475.2 1932
1971-01-11 475.2 480 465.6 466.8 1406
1971-01-12 468 481.8 468 479.4 1734
1971-01-13 477 481.2 471.6 472.2 886
1971-01-14 476.4 487.2 476.4 487.2 1210
1971-01-15 494.1 496.8 486 495.9 694
1971-01-16 489 506.4 489 501.6 760
1971-01-17 501 502.5 495 498 618
1971-01-18 492 497.4 489 494.7 252
1971-01-19 498 509.7 498 509.7 562
1971-01-20 511.2 512.7 496.5 498 310
1971-01-21 486.3 486.3 483 483 252
1971-01-22 468 471 468 468 766
1971-01-23 519 526.5 511.5 520.8 4518
1971-01-24 518.4 531.3 516.9 530.4 3268
1971-01-25 531 533.7 526.5 530.1 2482
1971-01-26 530.1 536.1 530.1 534.6 1398
1971-01-27 536.1 538.5 531.3 532.5 1942
1971-01-28 532.8 537.9 526.8 537.6 1840
1971-01-29 544.5 544.5 531.6 532.5 2612
1971-01-30 533.4 542.1 532.5 538.5 3026
1971-01-31 546 552 543 546.3 2808
1971-02-01 546.3 549.9 543.6 549 1798
1971-02-02 552 554.1 546 548.7 2286
1971-02-03 543 544.5 535.5 539.7 2252
1971-02-04 540 541.2 526.8 526.8 3230
1971-02-05 525.3 533.4 525 528.6 2196
1971-02-06 526.8 535.5 524.7 534.6 1938
1971-02-07 534.6 537.6 532.8 535.8 1294
1971-02-08 537 542.1 531 531.9 1730
1971-02-09 528.3 530.1 522.3 522.6 2032
1971-02-10 525 527.7 523.5 524.4 1148
1971-02-11 524.4 526.2 513 513.3 2078
1971-02-12 513.3 521.4 510.9 519 2320
1971-02-13 517.5 523.5 516 517.2 1176
1971-02-14 516 518.7 502.2 502.2 2574
1971-02-15 502.2 506.4 495.6 496.8 2154
1971-02-16 501 501.9 496.5 497.1 1616
1971-02-17 499.5 507 495.3 506.7 1146
1971-02-18 505.5 512.7 504.9 510.3 1068
1971-02-19 510.3 510.3 496.5 497.1 1342
1971-02-20 497.1 501 492.6 493.2 1222
1971-02-21 496.5 499.5 492.3 495 942
1971-02-22 492.6 495 487.5 488.1 840
1971-02-23 489 498 486.9 489 968
1971-02-24 494.4 502.5 493.5 501.6 868
1971-02-25 501.6 503.7 497.4 501.3 630
1971-02-26 499.5 502.8 492.9 493.5 364
1971-02-27 496.5 499.2 493.2 497.7 360
1971-02-28 498 501 495.6 498 564
1971-03-01 498 500.1 487.5 487.8 694
1971-03-02 481.5 493.2 472.8 472.8 546
1971-03-03 540.6 544.8 526.2 526.5 4646
1971-03-04 526.2 527.4 520.5 522.9 2440
1971-03-05 521.4 525.9 516 516.6 2288
1971-03-06 518.1 527.1 517.5 523.5 3188
1971-03-07 522 522.6 511.8 516.9 2848
1971-03-08 519.9 521.7 515.4 518.1 1514
1971-03-09 521.1 529.5 521.1 527.7 2806
1971-03-10 528.6 533.4 527.7 531.6 2390
1971-03-11 531.3 532.8 522.9 527.7 2402
1971-03-12 530.7 535.5 528.6 531.6 2620
1971-03-13 536.1 537 530.4 531.6 1718
1971-03-14 534 534 522.9 526.8 2780
1971-03-15 531.6 541.8 531.6 541.8 3576
1971-03-16 556.8 556.8 556.8 556.8 1190
1971-03-17 571.8 571.8 561.9 566.4 5566
1971-03-18 561 561.6 555.3 561 2900
1971-03-19 558 559.5 546 547.5 3232
1971-03-20 552 553.2 542.1 547.2 2852
1971-03-21 541.5 549 540 547.2 2100
1971-03-22 542.4 544.5 534.6 535.2 2438
1971-03-23 529.2 529.2 520.2 520.2 1984
1971-03-24 519.3 525.9 514.5 519.9 2750
1971-03-25 523.5 534.6 523.5 534.3 2872
1971-03-26 549.3 549.3 547.8 549.3 1632
1971-03-27 543.6 550.5 537 537.9 2034
1971-03-28 539.1 552.9 532.8 552.9 2066
1971-03-29 558.9 565.5 556.8 563.4 2414
1971-03-30 559.5 559.5 551.1 552 1552
1971-03-31 556.5 557.1 543.9 547.5 962
1971-04-01 547.5 547.5 537 539.1 990
1971-04-02 535.5 546.6 531 540.9 1562
1971-04-03 542.4 555.6 538.5 551.7 1170
1971-04-04 550.2 555 544.5 544.5 640
1971-04-05 552 553.8 547.2 549 542
1971-04-06 553.5 553.5 546 551.4 384
1971-04-07 553.5 553.5 544.8 545.4 264
1971-04-08 539.4 539.4 534 537 248
1971-04-09 533.4 533.7 530.1 532.5 322
1971-04-10 528 532.5 528 530.7 330
1971-04-11 531 531 526.5 528.3 298
1971-04-12 529.5 539.1 529.5 537.6 310
1971-04-13 537.9 549 533.7 549 470
1971-04-14 549 550.5 540 545.4 360
1971-04-15 605.1 605.7 600.6 605.7 2886
1971-04-16 604.5 604.5 596.1 596.7 2910
1971-04-17 592.5 595.5 582 584.1 5906
1971-04-18 584.1 589.8 584.1 588.9 3730
1971-04-19 586.5 587.4 582.9 584.7 2232
1971-04-20 584.7 584.7 574.8 576.6 3460
1971-04-21 571.5 579.9 571.5 576.9 2500
1971-04-22 575.4 578.7 565.5 565.8 3664
1971-04-23 558 566.4 558 561.9 3436
1971-04-24 565.5 568.8 559.5 567.6 3174
1971-04-25 564 565.2 559.5 560.1 2404
1971-04-26 561 564.6 559.5 563.1 1804
1971-04-27 556.5 557.4 548.1 548.1 3008
1971-04-28 548.1 549.9 534.3 540.6 4154
1971-04-29 543 545.1 526.8 531.9 4032
1971-04-30 532.5 534.9 528 528 2550
1971-05-01 531.6 533.4 521.1 525.6 2346
1971-05-02 527.1 540.6 524.1 535.2 3248
1971-05-03 534.3 538.8 525.9 526.8 2264
1971-05-04 531.6 531.6 522.9 527.4 2002
1971-05-05 531 536.4 525.6 525.9 2114
1971-05-06 520.5 520.8 511.2 514.5 1846
1971-05-07 507 509.4 500.4 501 2756
1971-05-08 498 502.5 492.3 497.4 2980
1971-05-09 495 499.5 484.8 485.7 2496
1971-05-10 489.6 491.4 476.4 479.7 2394
1971-05-11 480 483.9 473.1 476.7 2046
1971-05-12 476.7 482.7 470.1 482.4 2592
1971-05-13 486.3 487.8 468.3 468.3 2052
1971-05-14 468 471 456 456.9 2692
1971-05-15 453 454.5 444.6 445.8 1522
1971-05-16 445.8 451.2 430.8 430.8 1430
1971-05-17 426.3 428.1 415.8 416.7 1698
1971-05-18 417 426 417 420.6 1176
1971-05-19 417.6 430.5 411.6 411.6 1214
1971-05-20 405 408.6 402.9 405 654
1971-05-21 405.6 405.6 390 390 614
1971-05-22 380.4 390 375.3 376.5 590
1971-05-23 378 391.5 378 391.5 418
1971-05-24 399 404.4 387 389.4 486
1971-05-25 390.3 404.4 387.6 403.2 614
1971-05-26 399 405 389.4 392.4 492
1971-05-27 474.9 477.9 470.1 477.9 5938
1971-05-28 472.5 479.4 462.9 462.9 6294
1971-05-29 464.7 471.9 462.6 466.5 4960
1971-05-30 473.1 477 466.8 468.3 3898
1971-05-31 459.6 461.7 453.3 453.3 3690
1971-06-01 452.7 453 438.3 438.3 5574
1971-06-02 432 433.5 423.3 425.7 4640
1971-06-03 427.5 440.4 422.1 432.9 4206
1971-06-04 434.4 434.4 426 432 2776
1971-06-05 430.5 435.6 423 429.9 3878
1971-06-06 437.4 444 435.3 443.1 4234
1971-06-07 447 452.7 435.3 438.9 4258
1971-06-08 442.5 446.7 435.6 437.7 2900
1971-06-09 430.5 433.2 426 431.1 3800
1971-06-10 429 436.5 424.5 425.1 2930
1971-06-11 417 417.6 410.1 410.1 4342
1971-06-12 409.5 413.7 404.1 410.4 2814
1971-06-13 409.5 409.5 397.5 398.7 2384
1971-06-14 402 408 396 407.1 2604
1971-06-15 412.5 417 407.7 413.1 2846
1971-06-16 413.1 414.3 406.5 411 2236
1971-06-17 414 417.3 410.1 416.1 1922
1971-06-18 409.5 417 406.8 416.1 1928
1971-06-19 409.8 414 401.1 401.1 2582
1971-06-20 387 402 386.4 398.4 3126
1971-06-21 402 406.5 397.8 405 1530
1971-06-22 394.8 398.7 393 397.2 1498
1971-06-23 394.5 397.2 385.5 390.9 1996
1971-06-24 388.8 393.6 382.5 383.4 2026
1971-06-25 384.6 384.9 376.8 377.4 1650
1971-06-26 374.1 376.5 368.7 369.6 1398
1971-06-27 367.8 375 366.9 371.4 734
1971-06-28 369.6 375 369 369.9 300
1971-06-29 375 377.7 371.4 371.4 448
1971-06-30 376.5 376.5 369.3 374.1 248
1971-07-01 371.7 374.4 369 370.8 350
1971-07-02 376.5 378.6 370.8 371.7 556
1971-07-03 373.2 374.4 363 363 576
1971-07-04 360 360 348 348 728
1971-07-05 339.6 347.4 335.1 342 948
1971-07-06 348.3 357 348.3 357 532
1971-07-07 385.8 387.9 372.9 373.5 2860
1971-07-08 371.1 377.1 367.2 372.6 3252
1971-07-09 378 378 360.9 362.1 3702
1971-07-10 364.2 368.1 362.1 364.5 1932
1971-07-11 367.5 371.1 357.6 358.8 3162
1971-07-12 357 357 346.5 349.5 2552
1971-07-13 354 357.6 350.4 354 2258
1971-07-14 357 369 357 369 3314
1971-07-15 375 382.2 372.6 380.4 4624
1971-07-16 378.6 384 375.9 379.2 2876
1971-07-17 376.5 380.4 371.4 372.6 2318
1971-07-18 374.1 375.9 366.6 369.9 2478
1971-07-19 373.5 384.9 373.5 384.9 2072
1971-07-20 392.4 399.9 390 399.9 3276
1971-07-21 411 414.9 405.9 412.5 4052
1971-07-22 403.5 426 399.6 407.7 4108
1971-07-23 408.9 411.3 400.8 408.6 3010
1971-07-24 415.2 419.1 411.6 414.3 2286
1971-07-25 415.5 429.3 414 423 2838
1971-07-26 432 432 417.3 417.9 2894
1971-07-27 413.7 415.5 406.5 408.9 2602
1971-07-28 412.5 414.6 405.9 407.7 2064
1971-07-29 408 410.4 403.5 405 1398
1971-07-30 391.5 399 391.5 393.3 2600
1971-07-31 393.6 396 387.3 387.3 2078
1971-08-01 389.7 390.9 376.5 377.7 1928
1971-08-02 378 384.9 375 376.8 1476
1971-08-03 379.5 381 369.6 373.5 1426
1971-08-04 372 376.2 370.5 372.6 852
1971-08-05 373.8 376.2 367.2 367.2 866
1971-08-06 363 363 352.8 354.3 1194
1971-08-07 354.9 357 349.2 352.8 772
1971-08-08 356.4 360 353.4 354.6 586
1971-08-09 354 366 354 365.1 648
1971-08-10 366 367.2 358.8 362.4 362
1971-08-11 361.5 361.5 348 350.4 420
1971-08-12 348.3 350.7 343.8 350.7 352
1971-08-13 357 365.7 355.2 365.7 380
1971-08-14 374.7 375 357 357 350
1971-08-15 354 367.5 351.6 365.4 328
1971-08-16 367.8 370.2 360 363 756
1971-08-17 361.8 369 360 369 284
1971-08-18 372.9 384 371.1 384 720
1971-08-19 391.5 391.5 371.1 373.2 282
1971-08-20 393.3 396 382.8 382.8 4398
1971-08-21 376.8 386.4 375.6 384.3 4214
1971-08-22 376.5 385.5 375.6 379.2 3974
1971-08-23 377.7 377.7 366.3 368.7 4474
1971-08-24 363 383.7 360.6 383.4 6038
1971-08-25 379.8 381 375.9 377.4 2646
1971-08-26 378.6 387.6 375.9 381.9 3232
1971-08-27 385.5 392.7 383.4 388.8 3400
1971-08-28 396 403.5 393.6 397.8 4310
1971-08-29 394.5 394.5 384 385.2 4066
1971-08-30 383.1 390.6 379.8 388.8 2558
1971-08-31 390 391.5 384 386.7 1802
1971-09-01 386.7 386.7 380.7 382.8 1604
1971-09-02 381 382.8 375.9 378.6 1678
1971-09-03 379.8 383.7 375 379.2 2644
1971-09-04 372 379.2 372 377.7 1374
1971-09-05 382.5 386.4 379.5 382.5 2124
1971-09-06 381 383.7 374.1 374.7 1976
1971-09-07 378 388.2 375.6 386.4 2798
1971-09-08 388.5 389.4 381 381.6 2124
1971-09-09 383.4 396.6 379.5 396.6 2888
1971-09-10 393 396.9 387 391.8 2130
1971-09-11 394.5 394.5 387.6 389.7 1540
1971-09-12 389.7 404.7 389.7 404.7 3096
1971-09-13 408.3 415.2 403.5 406.5 3260
1971-09-14 408 419.4 402.9 413.1 2506
1971-09-15 418.5 418.5 399.6 400.2 2374
1971-09-16 401.7 411.3 401.1 410.4 1370
1971-09-17 407.4 411 402.9 406.2 1202
1971-09-18 400.2 405.9 397.8 405.6 1030
1971-09-19 405.9 407.1 400.2 402 774
1971-09-20 405 412.2 404.4 406.5 1270
1971-09-21 403.5 406.5 401.1 402.9 1070
1971-09-22 402 405 390.3 393 842
1971-09-23 390 398.4 390 392.7 534
1971-09-24 393.6 402.6 391.5 402.3 382
1971-09-25 402 403.8 397.5 402.9 376
1971-09-26 401.4 420 401.1 420 794
1971-09-27 413.1 426 413.1 421.5 732
1971-09-28 427.5 430.2 424.5 430.2 364
1971-09-29 426 428.1 422.7 423 236
1971-09-30 420 422.1 416.1 416.4 310
1971-10-01 416.4 419.4 416.1 417 474
1971-10-02 417 450 412.8 436.2 622
1971-10-03 453.6 459 451.8 452.1 2552
1971-10-04 455.7 456 449.4 452.4 1798
1971-10-05 450 456 439.8 441.9 4440
1971-10-06 441.9 450 438.6 448.8 2880
1971-10-07 456 469.8 453.9 465.6 3730
1971-10-08 468.6 473.1 466.5 470.1 4184
1971-10-09 473.1 476.1 463.5 472.8 4254
1971-10-10 469.8 470.7 462.3 462.6 2716
1971-10-11 461.4 470.1 458.4 462.6 3148
1971-10-12 467.7 469.5 464.4 468 1956
1971-10-13 469.2 471.6 457.5 457.8 2984
1971-10-14 457.5 457.5 450.9 452.4 3102
1971-10-15 445.5 453 443.1 444.3 4388
1971-10-16 442.5 446.7 436.5 437.1 3008
1971-10-17 432 435 422.1 422.4 4346
1971-10-18 426 428.7 421.2 421.8 2672
1971-10-19 427.5 432.9 424.5 432.3 2148
1971-10-20 430.8 438 429.6 437.1 2840
1971-10-21 437.4 451.2 435.6 448.5 4180
1971-10-22 451.5 456 444.6 455.1 3254
1971-10-23 459 462.6 455.7 461.1 3516
1971-10-24 461.1 461.4 457.2 460.8 2238
1971-10-25 460.5 467.4 460.5 466.2 2006
1971-10-26 469.5 475.2 467.4 469.2 2480
1971-10-27 463.5 466.5 461.4 464.1 1000
1971-10-28 462.3 474 460.5 472.2 1296
1971-10-29 470.1 474.9 466.2 469.5 2206
1971-10-30 448.2 465.6 447 462.9 1496
1971-10-31 460.5 467.7 457.8 467.4 916
1971-11-01 474.6 483 474 481.2 1326
1971-11-02 481.5 486.6 478.5 485.7 1044
1971-11-03 485.7 487.5 474 480.9 786
1971-11-04 474 478.8 471.6 478.2 498
1971-11-05 478.2 489 475.8 488.1 768
1971-11-06 489 492.3 488.4 492 430
1971-11-07 497.4 499.5 492.3 499.2 3122
1971-11-08 484.2 487.2 484.2 484.2 2790
1971-11-09 482.1 482.4 469.5 469.5 6902
1971-11-10 465.3 472.5 463.5 464.4 3810
1971-11-11 471 472.8 466.5 466.8 3470
1971-11-12 467.4 470.4 463.2 468.9 2808
1971-11-13 472.5 483.9 471.6 481.2 4718
1971-11-14 481.5 482.1 476.1 479.7 2414
1971-11-15 476.7 480 466.5 467.1 3798
1971-11-16 459 467.1 459 462.6 3532
1971-11-17 467.1 470.7 464.4 466.5 3416
1971-11-18 463.5 465.9 457.8 461.1 3742
1971-11-19 456 456 449.4 452.1 3300
1971-11-20 446.4 454.8 446.1 451.5 2686
1971-11-21 454.8 459.3 453 456.3 1838
1971-11-22 457.5 462.9 453.9 454.2 3226
1971-11-23 456 459.9 450.6 450.9 2396
1971-11-24 447.9 453 441.6 450 3290
1971-11-25 456 456 438.9 440.7 3906
1971-11-26 439.5 444.6 437.1 438.9 1764
1971-11-27 441.9 447.3 441.9 446.1 1882
1971-11-28 452.4 455.1 448.8 450.3 2468
1971-11-29 445.8 449.7 445.8 448.2 1620
1971-11-30 454.2 456.6 450.9 455.7 1586
1971-12-01 453 453 445.5 447.3 2274
1971-12-02 439.5 442.2 432.3 432.3 3608
1971-12-03 433.8 433.8 420.6 423.6 3302
1971-12-04 421.5 428.4 415.5 427.5 2278
1971-12-05 428.1 433.8 417.6 418.2 2260
1971-12-06 420 424.5 413.7 416.4 2476
1971-12-07 416.4 420.9 411.6 412.2 1666
1971-12-08 412.8 416.7 397.5 397.8 1384
1971-12-09 402 405.9 375.9 379.2 1820
1971-12-10 382.2 386.1 369.3 382.5 1818
1971-12-11 387 387 375.9 376.2 794
1971-12-12 372 384 369.3 383.7 740
1971-12-13 391.5 394.5 384 385.8 914
1971-12-14 385.8 397.2 384 396.3 488
1971-12-15 394.5 400.5 393.6 397.2 520
1971-12-16 395.7 407.7 395.7 406.5 406
1971-12-17 403.8 408.9 390.6 390.6 356
1971-12-18 390.6 390.6 372 375.9 490
1971-12-19 394.5 395.7 385.2 385.2 3220
1971-12-20 385.8 390.9 372.3 387 5184
1971-12-21 390 395.1 377.4 383.4 4220
1971-12-22 384.3 392.7 379.2 387.6 3676
1971-12-23 384.6 385.5 378 378.6 1994
1971-12-24 376.8 383.4 373.8 381.9 1984
1971-12-25 385.5 386.1 367.5 368.1 3172
1971-12-26 367.5 374.4 363.3 370.2 2850
1971-12-27 372 378 371.1 377.7 2586
1971-12-28 381.9 381.9 372.3 372.6 2080
1971-12-29 369.6 374.4 367.5 371.4 1504
1971-12-30 369 386.4 368.1 386.4 2836
1971-12-31 385.5 387 378.3 379.5 3158
1972-01-01 379.5 394.5 373.8 394.5 5006
1972-01-02 403.5 408 400.5 405.3 3530
1972-01-03 402 404.7 399.3 399.9 2316
1972-01-04 405.9 409.2 401.4 406.2 2592
1972-01-05 415.5 417.3 408.6 415.2 3562
1972-01-06 415.2 420 411 419.1 2378
1972-01-07 420 420 412.2 416.4 2156
1972-01-08 424.5 431.4 422.1 431.1 3770
1972-01-09 430.5 437.1 428.4 433.8 2858
1972-01-10 439.5 442.2 418.8 418.8 3436
1972-01-11 420 421.5 403.8 411.3 3908
1972-01-12 411.3 414.9 408 413.4 1504
1972-01-13 411 417.9 407.4 410.4 1722
1972-01-14 409.5 411.6 401.7 402.9 1838
1972-01-15 399 417.6 396.9 416.7 1468
1972-01-16 414 422.4 414 414.6 1188
1972-01-17 411.9 429 411.9 421.5 1178
1972-01-18 420.6 421.5 410.1 412.2 860
1972-01-19 412.2 418.5 408.3 417.6 1030
1972-01-20 414.3 416.4 412.5 415.8 286
1972-01-21 417.3 427.5 417.3 425.1 610
1972-01-22 423 426.9 421.8 423 534
1972-01-23 425.4 432.6 425.4 430.5 330
1972-01-24 429.9 430.5 426 429.9 374
1972-01-25 432 442.2 432 442.2 348
1972-01-26 444.6 449.7 444.6 447.3 396
1972-01-27 445.5 445.5 439.8 441 246
1972-01-28 441 445.5 434.7 435.3 266
1972-01-29 435.6 447.6 435.6 446.1 314
1972-01-30 474 482.1 472.8 477.9 5194
1972-01-31 475.5 480.6 474.9 478.8 2654
1972-02-01 492 493.8 490.5 493.8 1876
1972-02-02 491.4 493.8 486.6 492.3 3026
1972-02-03 491.4 491.4 484.8 489.3 3476
1972-02-04 486.9 488.1 474.3 474.3 4048
1972-02-05 474.6 484.5 474.6 482.1 3128
1972-02-06 492 497.1 467.1 469.5 6502
1972-02-07 465 467.7 460.5 462.9 3528
1972-02-08 460.5 470.4 458.4 466.8 3694
1972-02-09 465 471.6 463.5 467.1 2434
1972-02-10 475.5 477 460.5 469.8 3688
1972-02-11 468 469.2 460.8 461.4 2296
1972-02-12 465 471.9 463.5 471.3 2174
1972-02-13 470.4 486.3 468.9 485.7 3954
1972-02-14 483 491.7 479.7 486.9 3418
1972-02-15 483.6 489 479.1 483 2030
1972-02-16 483 486.9 468 473.1 3748
1972-02-17 470.1 471.6 458.4 458.7 3964
1972-02-18 456 460.2 444.3 444.6 3848
1972-02-19 450.6 456.6 442.8 454.2 3974
1972-02-20 456 456 448.8 453.9 2028
1972-02-21 438.9 447 438.9 446.7 2618
1972-02-22 444 444.6 431.7 431.7 2772
1972-02-23 429 437.7 423.6 435.9 2378
1972-02-24 432.9 444 431.1 440.4 1454
1972-02-25 441.6 442.5 435.6 441.9 912
1972-02-26 438.9 440.1 431.4 431.7 1500
1972-02-27 431.1 435.9 425.4 426.3 1208
1972-02-28 428.1 431.7 427.5 427.5 736
1972-02-29 430.5 442.2 430.5 440.4 1078
1972-03-01 442.5 447 439.8 444 554
1972-03-02 444 444 429.9 432.6 716
1972-03-03 435 439.2 432 434.7 558
1972-03-04 445.5 453 444 453 334
1972-03-05 453 459 453 454.8 684
1972-03-06 457.5 465 457.5 462.9 582
1972-03-07 465 465 457.8 462.9 378
1972-03-08 462 463.5 459.9 461.1 648
1972-03-09 460.5 471 460.5 460.8 754
1972-03-10 447.6 451.8 442.5 445.8 2446
1972-03-11 447 450 437.4 441 3842
1972-03-12 435.6 439.8 433.5 436.8 1962
1972-03-13 436.5 445.5 435.6 443.1 2036
1972-03-14 441 444.6 438.6 441.9 1610
1972-03-15 441 443.4 435.6 436.2 1644
1972-03-16 433.8 433.8 421.2 421.2 3306
1972-03-17 417.6 419.7 412.2 414.6 2534
1972-03-18 411.6 420.9 411.6 417.3 1452
1972-03-19 415.8 416.4 405.3 408.9 1886
1972-03-20 413.4 413.4 400.5 406.2 2054
1972-03-21 406.5 414.6 402.9 412.5 1548
1972-03-22 415.5 419.4 412.5 416.4 2292
1972-03-23 412.2 417.6 411.9 414 1086
1972-03-24 415.8 417 404.4 405.9 1432
1972-03-25 407.7 410.7 402.9 404.7 1536
1972-03-26 403.2 407.1 400.5 404.7 1534
1972-03-27 412.5 418.5 409.8 417.6 2228
1972-03-28 416.1 416.7 411 411.6 1510
1972-03-29 410.7 410.7 397.2 398.1 2090
1972-03-30 391.5 396.9 390.6 395.7 1774
1972-03-31 396.6 401.1 394.5 399.6 1432
1972-04-01 398.1 403.5 392.7 396 1804
1972-04-02 390 393 384.9 385.2 1800
1972-04-03 387.6 391.8 385.8 391.5 1240
1972-04-04 390 391.5 383.4 388.8 1522
1972-04-05 391.5 398.4 387.6 395.7 2282
1972-04-06 400.8 404.4 393 395.7 2282
1972-04-07 394.5 396.9 390.6 393.6 1700
1972-04-08 390 396.9 390 396.3 884
1972-04-09 399.9 404.4 397.2 404.1 1272
1972-04-10 404.1 408 400.2 401.1 964
1972-04-11 401.1 405.9 397.8 405.9 958
1972-04-12 405 409.5 404.1 407.1 782
1972-04-13 405 407.4 402 402.6 478
1972-04-14 405 412.8 404.7 411 576
1972-04-15 411 412.8 408.3 412.5 382
1972-04-16 408 419.4 408 417 606
1972-04-17 418.5 426 418.5 422.7 562
1972-04-18 424.8 426.6 422.1 423.3 530
1972-04-19 424.2 432 424.2 431.7 676
1972-04-20 433.5 438.6 432.3 438.6 706
1972-04-21 445.5 456 441 452.1 592
1972-04-22 415.5 419.7 411.9 419.4 2934
1972-04-23 419.4 419.4 412.8 415.5 1788
1972-04-24 415.5 415.5 408.9 410.1 2002
1972-04-25 409.5 410.7 406.2 408 1566
1972-04-26 408.6 414.6 408.6 414.3 1914
1972-04-27 417 429.3 417 424.5 3872
1972-04-28 421.5 429.9 417 429.3 2376
1972-04-29 427.5 433.5 426 427.5 2056
1972-04-30 428.1 428.1 418.5 421.5 2054
1972-05-01 421.2 423.9 416.7 418.5 1854
1972-05-02 418.2 425.4 411.9 418.8 2926
1972-05-03 419.4 423.6 417.6 418.2 1506
1972-05-04 415.5 416.7 412.5 413.1 1168
1972-05-05 406.5 409.5 404.7 405.3 3244
1972-05-06 404.1 407.7 401.7 406.8 1798
1972-05-07 405.3 410.7 404.7 408.9 1114
1972-05-08 408 410.7 405.6 406.2 766
1972-05-09 407.1 410.1 405.3 407.7 1068
1972-05-10 405 405.9 401.1 401.7 1476
1972-05-11 403.5 417 403.5 416.7 2346
1972-05-12 417 419.1 414.3 418.2 1412
1972-05-13 413.4 415.2 410.7 414.3 1126
1972-05-14 415.8 418.2 411.3 411.3 970
1972-05-15 411 411 407.4 410.7 662
1972-05-16 412.5 425.7 412.5 425.7 1482
1972-05-17 424.5 429 421.5 424.5 1194
1972-05-18 423.6 426.3 421.8 423.3 694
1972-05-19 423.9 423.9 420.6 423.3 802
1972-05-20 422.7 425.4 421.8 424.2 688
1972-05-21 427.5 438.6 427.5 438 1340
1972-05-22 436.5 439.5 432.6 435.9 926
1972-05-23 432.9 435 431.4 432.9 436
1972-05-24 429.9 435.9 429.3 435.9 342
1972-05-25 433.5 434.7 429.6 432 250
1972-05-26 435 437.1 430.5 431.1 396
1972-05-27 431.1 431.1 426 426.3 350
1972-05-28 423 423.9 420 420.9 428
1972-05-29 421.8 426 420.9 425.4 416
1972-05-30 423 427.2 423 426.9 200
1972-05-31 428.4 439.2 428.4 436.5 586
1972-06-01 434.4 436.5 432 435.9 304
1972-06-02 435.9 445.2 435 443.1 760
1972-06-03 439.5 439.5 420.3 425.4 556
1972-06-04 442.5 445.5 441 444.3 1262
1972-06-05 446.1 447.6 430.8 431.1 4798
1972-06-06 432.3 432.3 426 430.5 2794
1972-06-07 432.6 435.6 426.3 426.6 1812
1972-06-08 427.8 435 427.8 434.7 1274
1972-06-09 435 436.8 431.4 435.9 1210
1972-06-10 437.4 438.9 434.7 438.6 1090
1972-06-11 439.2 446.1 436.8 444 2066
1972-06-12 436.2 437.4 431.4 434.4 1526
1972-06-13 432.9 440.1 432.9 436.5 1518
1972-06-14 439.5 440.4 434.7 437.7 994
1972-06-15 440.4 451.5 439.5 450.6 3338
1972-06-16 446.1 454.5 446.1 449.7 1820
1972-06-17 452.1 459 451.8 456.9 1712
1972-06-18 459.6 459.6 451.8 453 1778
1972-06-19 451.5 457.2 450.6 452.1 1912
1972-06-20 452.1 456.9 450.9 455.7 1486
1972-06-21 458.4 461.1 456 458.1 1402
1972-06-22 458.1 462 454.5 460.2 1264
1972-06-23 457.5 457.5 451.5 451.8 1364
1972-06-24 444.6 447 436.8 436.8 2630
1972-06-25 437.4 442.5 435.9 440.7 1686
1972-06-26 442.2 446.7 442.2 446.1 970
1972-06-27 441.6 444 441 443.7 370
1972-06-28 446.4 448.2 445.8 447.3 586
1972-06-29 448.2 449.1 440.7 441 548
1972-06-30 440.7 443.1 439.5 439.8 324
1972-07-01 441 443.1 439.8 441.6 444
1972-07-02 438 438 430.8 432.9 1316
1972-07-03 432.9 435.9 432.9 434.7 996
1972-07-04 432 432.6 429.3 429.3 396
1972-07-05 433.2 441 430.5 440.7 372
1972-07-06 440.7 441.6 436.2 439.2 430
1972-07-07 436.5 438.9 433.5 438 446
1972-07-08 440.4 441 436.5 440.7 374
1972-07-09 439.5 440.1 435 436.2 296
1972-07-10 436.2 440.1 432 432 630
1972-07-11 436.5 436.5 407.4 432 436
1972-07-12 437.1 437.4 432 436.5 1106
1972-07-13 444.6 446.1 441.6 444 1612
1972-07-14 441 441.6 438.6 441 862
1972-07-15 442.5 445.2 441 441.6 1074
1972-07-16 441 441 426.9 427.2 2428
1972-07-17 424.5 431.4 423 430.8 1674
1972-07-18 431.4 432.6 429.3 431.7 982
1972-07-19 434.4 435.6 432.9 432.9 660
1972-07-20 432 432 423 427.8 1364
1972-07-21 429.6 431.7 424.5 426 890
1972-07-22 423 426.6 417.3 418.2 2078
1972-07-23 421.5 424.8 419.7 424.2 1058
1972-07-24 423.6 427.5 421.2 427.2 742
1972-07-25 427.2 429.6 412.2 412.5 2066
1972-07-26 416.4 416.4 409.8 410.4 1386
1972-07-27 411.9 415.5 410.4 414.6 846
1972-07-28 412.2 419.4 412.2 418.2 1194
1972-07-29 418.2 421.2 414.6 420.9 900
1972-07-30 420.9 425.4 417.6 424.2 1902
1972-07-31 423 425.1 420.3 421.8 752
1972-08-01 420.6 436.2 418.8 435.9 2772
1972-08-02 435 437.1 432 434.4 1982
1972-08-03 435.9 442.8 433.8 437.4 1552
1972-08-04 442.5 448.2 440.7 447.9 1878
1972-08-05 448.2 451.8 446.1 451.2 1524
1972-08-06 454.5 466.2 454.5 464.7 2166
1972-08-07 462 475.5 462 474.3 1038
1972-08-08 471 471 463.5 464.4 920
1972-08-09 463.5 463.5 458.1 459.6 588
1972-08-10 465 473.7 458.4 473.1 1106
1972-08-11 475.5 476.7 462.6 473.1 686
1972-08-12 471 496.5 469.5 496.5 712
1972-08-13 500.4 525 500.4 514.5 656
1972-08-14 505.5 522 502.5 519 496
1972-08-15 523.5 534 523.5 533.4 248
1972-08-16 531.9 538.5 531 538.5 312
1972-08-17 537 550.5 534 550.5 444
1972-08-18 549.9 556.5 532.8 534 330
1972-08-19 528 543 527.4 543 184
1972-08-20 540 566.7 540 566.7 254
1972-08-21 571.5 603 571.5 603 194
1972-08-22 565.5 570 559.2 568.8 2638
1972-08-23 568.8 572.1 553.8 554.1 3130
1972-08-24 552.6 552.9 547.5 550.5 2742
1972-08-25 554.1 565.5 553.5 565.5 1690
1972-08-26 579 580.5 573.9 580.5 2448
1972-08-27 586.5 591 571.5 575.4 3064
1972-08-28 573.9 573.9 560.4 560.4 2666
1972-08-29 557.4 568.5 545.4 545.4 4398
1972-08-30 557.4 557.4 534.6 536.7 3688
1972-08-31 543.9 551.7 539.4 551.7 2510
1972-09-01 559.2 563.4 547.5 556.2 3868
1972-09-02 550.5 570.9 549.9 567.9 3052
1972-09-03 570 570.6 556.8 562.2 2260
1972-09-04 562.8 567.6 550.5 554.1 2496
1972-09-05 552 567 550.5 565.8 1688
1972-09-06 577.5 580.8 573.3 580.8 2474
1972-09-07 586.8 589.5 571.5 582.9 3046
1972-09-08 579 581.7 567.9 567.9 2134
1972-09-09 561 561.3 552.9 552.9 1738
1972-09-10 546 563.4 546 555.9 2768
1972-09-11 550.5 553.5 540.9 541.5 2636
1972-09-12 542.1 552.9 526.5 526.5 3140
1972-09-13 525.3 525.6 516.6 525.3 2908
1972-09-14 520.5 533.4 520.5 529.8 1580
1972-09-15 529.8 538.5 519.3 520.5 1352
1972-09-16 516 521.4 510.9 512.7 1670
1972-09-17 508.5 518.7 507 517.5 1416
1972-09-18 520.5 532.5 516 525.3 1276
1972-09-19 528.9 532.2 517.5 519.9 964
1972-09-20 519.9 533.4 515.4 533.1 1272
1972-09-21 536.1 537.9 527.4 536.1 1078
1972-09-22 535.2 539.1 529.5 532.2 1066
1972-09-23 532.2 533.4 528 528.6 442
1972-09-24 528 531.6 525.3 531 344
1972-09-25 535.5 545.7 535.5 545.7 548
1972-09-26 544.5 555 543 554.4 364
1972-09-27 548.4 561 548.4 559.2 448
