"Index" "Open" "High" "Low" "Close" "Volume"
1972-09-28 72.26 72.5 72.26 72.41 2861
1972-09-29 72.38 72.4 72.22 72.28 2862
1972-09-30 72.35 72.46 72.27 72.4 2226
1972-10-01 72.45 72.48 72.33 72.39 2597
1972-10-02 72.41 72.62 72.41 72.46 3392
1972-10-03 72.76 72.76 72.54 72.61 2656
1972-10-04 72.58 72.65 72.51 72.55 1983
1972-10-05 72.64 72.67 72.5 72.63 2640
1972-10-06 72.62 73 72.46 72.96 6305
1972-10-07 73.09 73.17 72.99 73.05 3666
1972-10-08 73.23 73.28 73.13 73.14 3304
1972-10-09 73.07 73.14 72.97 73.08 2443
1972-10-10 72.85 72.89 72.58 72.6 5293
1972-10-11 72.41 72.73 72.32 72.59 5873
1972-10-12 72.58 72.67 72.5 72.54 3276
1972-10-13 72.43 72.56 72.25 72.3 3286
1972-10-14 71.98 72.17 71.64 71.71 5823
1972-10-15 72.05 72.05 71.65 71.68 4918
1972-10-16 71.72 71.88 71.57 71.74 3232
1972-10-17 71.74 71.85 71.55 71.65 2198
1972-10-18 71.53 71.75 71.43 71.58 1559
1972-10-19 71.66 71.88 71.66 71.88 1432
1972-10-20 71.95 72.13 71.91 72.03 1723
1972-10-21 72.02 72.04 71.93 71.99 1198
1972-10-22 72.09 72.17 72.04 72.14 1259
1972-10-23 72.16 72.35 72.12 72.32 1994
1972-10-24 72.25 72.29 72.11 72.2 1040
1972-10-25 71.76 71.82 71.54 71.62 2720
1972-10-26 71.7 71.75 71.46 71.51 2001
1972-10-27 71.44 71.5 71.32 71.41 1780
1972-10-28 71.67 71.84 71.56 71.74 2103
1972-10-29 71.78 71.89 71.67 71.86 2828
1972-10-30 71.92 71.94 71.8 71.89 1851
1972-10-31 71.93 71.95 71.82 71.83 2107
1972-11-01 71.66 71.7 71.36 71.4 4968
1972-11-02 71.65 71.81 71.58 71.79 2240
1972-11-03 71.79 71.98 71.73 71.94 2614
1972-11-04 72.36 72.43 72.16 72.39 4499
1972-11-05 72.26 72.44 72.23 72.36 3193
1972-11-06 72.31 72.35 72.14 72.17 2277
1972-11-07 72.32 72.33 72.1 72.2 1865
1972-11-08 72.14 72.2 72.07 72.19 1866
1972-11-09 72.36 72.42 72.26 72.35 2086
1972-11-10 72.37 72.38 72.31 72.35 1669
1972-11-11 72.44 72.47 72.39 72.46 1658
1972-11-12 72.54 72.58 72.36 72.54 2425
1972-11-13 72.5 72.55 72.46 72.51 1253
1972-11-14 72.36 72.55 72.29 72.51 2034
1972-11-15 72.47 72.52 72.33 72.35 1711
1972-11-16 72.29 72.29 71.92 71.93 5266
1972-11-17 71.8 71.83 71.64 71.75 4587
1972-11-18 71.8 71.88 71.7 71.77 2243
1972-11-19 71.87 71.93 71.78 71.89 1769
1972-11-20 71.85 71.89 71.72 71.75 2847
1972-11-21 71.83 72.04 71.74 71.94 3697
1972-11-22 72 72.18 71.98 72.06 2676
1972-11-23 72.25 72.43 72.17 72.37 3673
1972-11-24 72.4 72.4 72.18 72.22 2106
1972-11-25 72.13 72.2 72.07 72.11 2099
1972-11-26 72.26 72.34 72.23 72.3 1955
1972-11-27 72.14 72.23 72.14 72.2 1612
1972-11-28 72.25 72.3 72.23 72.23 1656
1972-11-29 72.02 72.07 71.92 71.96 2999
1972-11-30 72.06 72.09 71.89 71.93 2889
1972-12-01 71.72 71.8 71.71 71.78 3798
1972-12-02 71.85 71.93 71.83 71.9 1387
1972-12-03 71.98 72.15 71.92 71.95 2665
1972-12-04 71.85 71.9 71.7 71.71 2070
1972-12-05 71.68 71.75 71.56 71.6 2940
1972-12-06 71.67 71.67 71.5 71.65 2952
1972-12-07 71.87 71.87 71.67 71.78 2349
1972-12-08 71.69 71.86 71.64 71.83 2474
1972-12-09 71.79 71.83 71.73 71.78 1950
1972-12-10 71.71 71.71 71.59 71.6 1897
1972-12-11 71.6 71.62 71.52 71.58 2151
1972-12-12 71.45 71.52 71.4 71.45 2903
1972-12-13 71.65 71.85 71.63 71.76 4389
1972-12-14 71.65 72.1 71.65 72.09 4588
1972-12-15 71.98 72.17 71.98 72.09 2397
1972-12-16 71.99 72.1 71.95 72.06 2315
1972-12-17 71.98 72.08 71.97 72.05 3001
1972-12-18 72.07 72.15 72.07 72.1 1811
1972-12-19 72.14 72.21 72.13 72.19 2338
1972-12-20 72.3 72.43 72.22 72.42 2066
1972-12-21 72.1 72.14 71.95 72.11 1972
1972-12-22 72.09 72.14 72 72.01 1725
1972-12-23 72.06 72.17 72.06 72.09 1377
1972-12-24 72.08 72.23 72.07 72.15 1045
1972-12-25 71.77 71.79 71.53 71.57 2778
1972-12-26 71.49 71.55 71.36 71.45 3533
1972-12-27 71.55 71.7 71.54 71.65 2041
1972-12-28 71.48 71.66 71.48 71.64 1740
1972-12-29 71.65 71.73 71.61 71.72 1420
1972-12-30 71.69 71.76 71.63 71.71 1393
1972-12-31 71.69 71.74 71.63 71.67 1173
1973-01-01 71.53 71.63 71.51 71.57 1380
1973-01-02 71.56 71.73 71.48 71.72 1817
1973-01-03 71.75 71.81 71.62 71.74 2092
1973-01-04 71.79 71.8 71.59 71.72 1378
1973-01-05 71.6 71.7 71.55 71.65 1409
1973-01-06 71.68 71.73 71.67 71.71 1286
1973-01-07 71.71 71.87 71.71 71.85 2013
1973-01-08 71.92 71.94 71.84 71.87 1662
1973-01-09 71.79 71.8 71.71 71.74 1539
1973-01-10 71.71 71.84 71.7 71.8 1371
1973-01-11 71.78 71.8 71.72 71.75 1269
1973-01-12 71.83 71.84 71.75 71.77 1232
1973-01-13 71.76 71.76 71.61 71.65 1434
1973-01-14 71.7 71.72 71.66 71.66 1475
1973-01-15 71.76 71.77 71.59 71.6 3801
1973-01-16 71.65 71.68 71.64 71.66 1230
1973-01-17 71.68 71.72 71.61 71.65 3397
1973-01-18 71.55 71.61 71.53 71.54 2129
1973-01-19 71.54 71.64 71.54 71.6 2842
1973-01-20 71.62 71.7 71.58 71.67 1946
1973-01-21 71.76 71.82 71.7 71.8 3291
1973-01-22 71.73 71.87 71.73 71.8 3401
1973-01-23 71.88 71.9 71.77 71.86 2550
1973-01-24 71.83 71.85 71.76 71.78 1534
1973-01-25 71.78 71.8 71.74 71.79 1169
1973-01-26 71.85 71.87 71.66 71.68 2294
1973-01-27 71.67 71.74 71.62 71.7 2206
1973-01-28 71.63 71.68 71.6 71.65 1434
1973-01-29 71.71 71.79 71.68 71.71 1480
1973-01-30 71.75 71.88 71.73 71.84 2281
1973-01-31 71.9 71.95 71.8 71.81 2046
1973-02-01 71.89 71.95 71.81 71.89 3166
1973-02-02 71.92 71.96 71.88 71.89 2814
1973-02-03 71.93 71.98 71.92 71.95 1978
1973-02-04 72.08 72.1 72.01 72.08 5923
1973-02-05 72.17 72.18 72.06 72.08 2658
1973-02-06 72.11 72.15 72.08 72.09 1577
1973-02-07 72.04 72.13 72.02 72.09 1719
1973-02-08 72.15 72.23 72.12 72.16 2131
1973-02-09 72.17 72.2 72.13 72.17 1274
1973-02-10 72.11 72.13 71.88 71.96 4598
1973-02-11 71.98 72.02 71.95 72.01 3286
1973-02-12 72.06 72.08 72.04 72.04 1473
1973-02-13 72.12 72.13 72.05 72.05 1514
1973-02-14 72.11 72.12 72.07 72.11 1614
1973-02-15 72.32 72.34 72.24 72.31 3018
1973-02-16 72.32 72.34 72.22 72.25 1990
1973-02-17 72.16 72.26 72.16 72.23 2594
1973-02-18 72.3 72.36 72.28 72.33 1963
1973-02-19 72.39 72.54 72.39 72.47 2690
1973-02-20 72.48 72.58 72.47 72.57 4217
1973-02-21 72.61 72.63 72.53 72.55 2513
1973-02-22 72.49 72.53 72.45 72.48 2220
1973-02-23 72.4 72.45 72.39 72.44 1225
1973-02-24 72.49 72.56 72.48 72.56 2076
1973-02-25 72.58 72.58 72.54 72.55 1020
1973-02-26 72.08 72.15 72.02 72.14 2463
1973-02-27 72.13 72.21 72.13 72.15 2032
1973-02-28 72.12 72.19 72.05 72.16 1483
1973-03-01 72.2 72.25 72.17 72.19 1330
1973-03-02 72.28 72.43 72.28 72.29 3686
1973-03-03 72.35 72.39 72.3 72.34 1719
1973-03-04 72.28 72.36 72.24 72.24 1742
1973-03-05 72.17 72.17 72.06 72.1 2813
1973-03-06 72.15 72.17 72.05 72.1 1897
1973-03-07 72.13 72.2 71.99 72.1 2978
1973-03-08 72.35 72.43 72.3 72.42 2671
1973-03-09 72.55 72.57 72.48 72.54 3120
1973-03-10 72.57 72.68 72.47 72.67 2804
1973-03-11 72.6 72.75 72.59 72.73 2508
1973-03-12 72.75 72.77 72.65 72.69 1940
1973-03-13 72.79 72.95 72.75 72.86 2590
1973-03-14 72.95 73 72.85 72.91 2808
1973-03-15 72.89 73.26 72.88 73.18 4373
1973-03-16 73.16 73.25 73.05 73.14 2645
1973-03-17 73.1 73.21 73.06 73.19 1367
1973-03-18 73.41 73.48 73.36 73.36 2569
1973-03-19 73.26 73.42 73.24 73.38 2540
1973-03-20 73.41 73.63 73.39 73.58 3555
1973-03-21 73.48 73.56 73.31 73.32 3190
1973-03-22 73.3 73.45 73.26 73.44 2689
1973-03-23 73.53 74 73.51 73.86 7009
1973-03-24 73.98 74.41 73.98 74.26 5997
1973-03-25 74.65 74.74 74.5 74.57 7010
1973-03-26 74.14 74.6 74.12 74.41 4173
1973-03-27 74.41 74.7 74.28 74.67 5525
1973-03-28 74.85 74.97 74.77 74.86 5164
1973-03-29 74.89 75.01 74.82 74.91 4899
1973-03-30 75.05 75.43 75.04 75.36 7253
1973-03-31 75.07 75.21 74.6 74.86 9555
1973-04-01 74.61 74.96 74.56 74.77 7467
1973-04-02 74.88 74.97 74.72 74.88 4085
1973-04-03 74.86 74.9 74.75 74.83 2869
1973-04-04 74.63 74.7 74.3 74.33 6767
1973-04-05 74.32 74.44 74.08 74.09 5061
1973-04-06 74.24 74.67 74.24 74.66 4996
1973-04-07 75 75.32 74.93 75.23 6016
1973-04-08 75.03 75.22 75 75.13 3518
1973-04-09 74.77 75.15 74.68 75.01 7584
1973-04-10 75.14 75.3 75.08 75.17 4309
1973-04-11 75.12 75.16 74.96 75.05 3553
1973-04-12 75.08 75.21 75.02 75.1 3322
1973-04-13 75.16 75.18 75.08 75.1 2601
1973-04-14 75.05 75.1 74.94 75.05 2622
1973-04-15 75 75.07 74.91 74.93 2319
1973-04-16 75.03 75.14 75.02 75.03 5469
1973-04-17 75.01 75.04 74.91 74.99 3129
1973-04-18 75.05 75.06 74.85 74.88 3502
1973-04-19 74.84 75 74.75 74.99 3149
1973-04-20 75.02 75.06 74.88 74.89 3688
1973-04-21 74.81 74.94 74.72 74.91 3831
1973-04-22 74.9 74.95 74.86 74.95 2611
1973-04-23 75.12 75.61 75.12 75.61 5046
1973-04-24 75.69 75.89 75.6 75.68 2865
1973-04-25 75.63 75.72 75.6 75.63 1415
1973-04-26 76 76.1 75.95 76.03 953
1973-04-27 75.93 76.17 75.85 76.12 7266
1973-04-28 76.03 76.15 75.9 75.98 5157
1973-04-29 75.83 75.96 75.83 75.93 2844
1973-04-30 76.2 76.42 76.19 76.39 6665
1973-05-01 76.35 76.5 76.25 76.41 4796
1973-05-02 76.58 76.65 76.3 76.42 6586
1973-05-03 76.38 76.38 76 76.22 6160
1973-05-04 76.1 76.45 76.02 76.29 5173
1973-05-05 76.5 76.62 76.43 76.57 4034
1973-05-06 76.61 76.63 76.3 76.36 9177
1973-05-07 76.11 76.64 76.1 76.56 6886
1973-05-08 76.27 76.41 76.12 76.24 8395
1973-05-09 76.25 76.5 76.24 76.3 4726
1973-05-10 76.49 76.51 76.26 76.34 3869
1973-05-11 76.3 76.44 76.26 76.34 2639
1973-05-12 76.39 76.6 76.37 76.56 5279
1973-05-13 76.41 76.43 76.31 76.42 4834
1973-05-14 76.62 76.79 76.52 76.55 8706
1973-05-15 76.8 76.81 76.51 76.62 7450
1973-05-16 76.74 76.78 76.65 76.7 2566
1973-05-17 75.97 76.12 75.65 75.69 14462
1973-05-18 75.75 75.77 75.3 75.57 8483
1973-05-19 75.55 75.89 75.39 75.84 5397
1973-05-20 75.94 76.02 75.66 75.77 4358
1973-05-21 75.35 75.57 75.33 75.35 5674
1973-05-22 74.9 75.12 74.86 74.9 6087
1973-05-23 74.97 75.15 74.66 74.72 5227
1973-05-24 75.01 75.03 74.53 74.62 4628
1973-05-25 74.36 74.8 74.29 74.71 5001
1973-05-26 74.68 74.68 74.58 74.68 4060
1973-05-27 74.87 74.93 74.68 74.72 3009
1973-05-28 74.64 74.8 74.57 74.63 3586
1973-05-29 74.73 74.85 74.47 74.52 3872
1973-05-30 74.5 74.55 74.12 74.17 5171
1973-05-31 74.3 74.62 74.22 74.6 5089
1973-06-01 74.75 74.83 74.55 74.59 4411
1973-06-02 74.77 74.88 74.73 74.84 4143
1973-06-03 74.81 74.97 74.75 74.82 3443
1973-06-04 74.95 74.98 74.69 74.8 2518
1973-06-05 74.74 74.84 74.66 74.77 3015
1973-06-06 74.67 74.67 74.5 74.54 3376
1973-06-07 74.63 74.73 74.6 74.69 2116
1973-06-08 74.78 74.78 74.52 74.53 3560
1973-06-09 74.52 74.67 74.48 74.6 2187
1973-06-10 74.61 74.61 74.48 74.54 2073
1973-06-11 74.19 74.33 74.05 74.07 5875
1973-06-12 74.14 74.22 74.05 74.16 4332
1973-06-13 74.18 74.26 74.1 74.18 2423
1973-06-14 74.35 74.45 74.25 74.36 3701
1973-06-15 74.24 74.33 74.04 74.32 3377
1973-06-16 74.34 74.45 74.27 74.38 2648
1973-06-17 74.65 74.72 74.54 74.67 3150
1973-06-18 74.72 74.79 74.66 74.67 2898
1973-06-19 74.51 74.57 74.38 74.42 2369
1973-06-20 74.37 74.5 74.37 74.4 2345
1973-06-21 74.6 74.65 74.41 74.44 2897
1973-06-22 74.31 74.43 74.31 74.39 2361
1973-06-23 74.39 74.5 74.32 74.47 2066
1973-06-24 74.39 74.56 74.38 74.56 2234
1973-06-25 74.6 74.68 74.57 74.6 1815
1973-06-26 74.43 74.56 74.43 74.54 2058
1973-06-27 74.62 74.69 74.57 74.59 2397
1973-06-28 74.54 74.59 74.52 74.59 1138
1973-06-29 74.26 74.39 74.23 74.36 2007
1973-06-30 74.35 74.39 74.3 74.35 1428
1973-07-01 74.33 74.35 74.25 74.35 1652
1973-07-02 74.43 74.49 74.38 74.41 2177
1973-07-03 74.62 74.89 74.62 74.87 8369
1973-07-04 74.75 74.85 74.73 74.83 5629
1973-07-05 74.77 74.85 74.73 74.79 3059
1973-07-06 74.93 75.05 74.91 75.02 6928
1973-07-07 74.95 75 74.81 74.85 4783
1973-07-08 74.76 74.82 74.68 74.78 5340
1973-07-09 74.83 74.99 74.83 74.92 3037
1973-07-10 75.02 75.05 74.94 74.97 1874
1973-07-11 74.98 75.02 74.85 74.92 2075
1973-07-12 75.1 75.2 75.02 75.18 3675
1973-07-13 75.32 75.38 75.26 75.36 5021
1973-07-14 75.36 75.37 75.15 75.26 4207
1973-07-15 75.26 75.43 75.18 75.35 3153
1973-07-16 75.48 75.51 75.42 75.47 2411
1973-07-17 75.51 75.59 75.48 75.57 2068
1973-07-18 75.6 75.7 75.52 75.53 4249
1973-07-19 75.48 75.48 75.23 75.35 4502
1973-07-20 75.43 75.5 75.37 75.47 2449
1973-07-21 75.63 75.7 75.58 75.64 2718
1973-07-22 75.6 75.68 75.55 75.64 4344
1973-07-23 75.35 75.55 75.32 75.48 2909
1973-07-24 75.49 75.58 75.43 75.45 2561
1973-07-25 75.35 75.38 74.74 74.82 11547
1973-07-26 74.81 74.88 74.44 74.55 5805
1973-07-27 74.75 74.79 74.43 74.67 3232
1973-07-28 74.93 74.94 74.74 74.83 3456
1973-07-29 74.86 74.87 74.69 74.78 1742
1973-07-30 74.8 74.94 74.75 74.81 1834
1973-07-31 75.01 75.18 74.92 75.11 3135
1973-08-01 75.14 75.41 75.08 75.38 4496
1973-08-02 75.37 75.38 75.2 75.31 3101
1973-08-03 75.27 75.32 75.22 75.28 1517
1973-08-04 75.4 75.48 75.32 75.35 2401
1973-08-05 75.32 75.32 75.18 75.25 1774
1973-08-06 75.23 75.24 75.04 75.1 2139
1973-08-07 75.08 75.15 74.96 75.04 2958
1973-08-08 74.92 74.95 74.82 74.92 2873
1973-08-09 74.98 75.14 74.95 75.13 2652
1973-08-10 74.98 75.09 74.85 75.06 3305
1973-08-11 75.07 75.08 74.95 75.01 1831
1973-08-12 74.97 75 74.9 74.93 2427
1973-08-13 74.98 75.05 74.96 75.02 1399
1973-08-14 75.32 75.41 75.19 75.29 4296
1973-08-15 75.35 75.49 75.25 75.45 3569
1973-08-16 75.36 75.8 75.34 75.75 6442
1973-08-17 75.77 75.86 75.52 75.59 5979
1973-08-18 75.58 75.72 75.45 75.69 3147
1973-08-19 75.8 75.96 75.74 75.88 3883
1973-08-20 75.61 75.85 75.59 75.79 3335
1973-08-21 75.78 75.85 75.6 75.66 2187
1973-08-22 75.77 75.87 75.75 75.86 2789
1973-08-23 76.03 76.08 75.94 76.04 2569
1973-08-24 75.99 76.12 75.9 76 4175
1973-08-25 76 76.17 75.97 76.12 3378
1973-08-26 76.18 76.2 76.03 76.04 3348
1973-08-27 75.58 75.82 75.46 75.55 3978
1973-08-28 75.5 75.77 75.5 75.7 2473
1973-08-29 75.7 75.9 75.7 75.78 3617
1973-08-30 75.61 75.8 75.61 75.8 2053
1973-08-31 75.61 75.78 75.57 75.68 2397
1973-09-01 75.63 75.65 75.5 75.61 1932
1973-09-02 75.75 75.77 75.63 75.66 2068
1973-09-03 75.82 75.9 75.74 75.79 2713
1973-09-04 75.76 75.81 75.67 75.74 1504
1973-09-05 75.54 75.65 75.51 75.58 2891
1973-09-06 75.5 75.66 75.35 75.37 3127
1973-09-07 75.48 75.84 75.45 75.79 3234
1973-09-08 75.83 76 75.75 75.99 4426
1973-09-09 75.92 76.14 75.85 76.12 3703
1973-09-10 76.13 76.18 75.94 76.04 2738
1973-09-11 75.98 76.22 75.94 76.06 3109
1973-09-12 76.26 76.35 76.14 76.24 3221
1973-09-13 76.35 76.36 76.01 76.11 3546
1973-09-14 76.25 76.25 76.1 76.19 2571
1973-09-15 76.33 76.53 76.27 76.46 3019
1973-09-16 76.37 76.5 76.22 76.36 3292
1973-09-17 76.38 76.52 76.3 76.32 2749
1973-09-18 76.34 76.36 76.12 76.28 2850
1973-09-19 76.3 76.5 76.27 76.28 1368
1973-09-20 76.44 76.46 76.34 76.44 1554
1973-09-21 76.38 76.46 76.28 76.35 2150
1973-09-22 76.75 76.96 76.67 76.86 4349
1973-09-23 76.89 76.97 76.86 76.91 3203
1973-09-24 77 77.15 76.98 77.04 3170
1973-09-25 76.37 76.37 75.28 75.68 12726
1973-09-26 76 76.08 75.8 75.88 8050
1973-09-27 76.02 76.02 75.67 75.72 2782
1973-09-28 75.86 76.12 75.75 76.05 3091
1973-09-29 75.96 76.04 75.82 75.95 3132
1973-09-30 75.81 75.86 75.68 75.76 2882
1973-10-01 75.78 75.85 75.6 75.79 2420
1973-10-02 75.84 75.9 75.7 75.77 2308
1973-10-03 75.78 75.96 75.68 75.9 3273
1973-10-04 76 76.1 75.9 75.95 2342
1973-10-05 75.77 75.8 75.2 75.38 5373
1973-10-06 75.36 75.46 75.29 75.31 2471
1973-10-07 75.15 75.27 74.87 75.21 6567
1973-10-08 75.62 75.75 75.58 75.59 3592
1973-10-09 75.8 75.8 75.53 75.65 2313
1973-10-10 75.72 75.8 75.42 75.7 2927
1973-10-11 75.76 75.98 75.75 75.83 3151
1973-10-12 75.7 75.84 75.6 75.7 1544
1973-10-13 75.72 75.81 75.67 75.73 1554
1973-10-14 75.91 75.93 75.74 75.77 1352
1973-10-15 75.83 75.87 75.77 75.82 1300
1973-10-16 75.9 76.15 75.85 76.08 4588
1973-10-17 76.15 76.28 76.15 76.22 2972
1973-10-18 76.26 76.29 75.95 76.1 2152
1973-10-19 76.19 76.26 76.08 76.11 1582
1973-10-20 75.98 76.14 75.87 76.1 2237
1973-10-21 76.32 76.34 76.22 76.3 2067
1973-10-22 76.45 76.48 76.26 76.31 2349
1973-10-23 76.21 76.23 76.06 76.13 2523
1973-10-24 76.06 76.13 76.04 76.07 2289
1973-10-25 76.06 76.25 76.04 76.22 1699
1973-10-26 76.32 76.33 76.16 76.21 1977
1973-10-27 76.21 76.26 76.17 76.2 1941
1973-10-28 76.32 76.39 76.32 76.38 1932
1973-10-29 76.4 76.55 76.39 76.53 2543
1973-10-30 76.55 76.63 76.52 76.6 1679
1973-10-31 76.7 76.7 76.4 76.54 1556
1973-11-01 76.45 76.48 76.35 76.44 1079
1973-11-02 76.43 76.49 76.26 76.28 1773
1973-11-03 76.15 76.35 76.04 76.33 2658
1973-11-04 76.4 76.53 76.32 76.48 1870
1973-11-05 76.39 76.48 76.3 76.32 1493
1973-11-06 76.35 76.37 76.25 76.34 1257
1973-11-07 76.45 76.5 76.41 76.46 1241
1973-11-08 76.42 76.45 76.3 76.37 1281
1973-11-09 76.37 76.45 76.29 76.44 1021
1973-11-10 76.57 76.7 76.2 76.45 2156
1973-11-11 76.43 76.54 76.42 76.47 1421
1973-11-12 76.48 76.67 76.36 76.66 1712
1973-11-13 76.75 76.82 76.72 76.79 2942
1973-11-14 76.76 76.98 76.67 76.91 3921
1973-11-15 76.89 77.37 76.83 77.29 7061
1973-11-16 77.25 77.48 77.18 77.32 5067
1973-11-17 77.39 77.56 77.39 77.51 4159
1973-11-18 77.6 77.7 77.54 77.57 3654
1973-11-19 77.38 77.44 77.28 77.43 4264
1973-11-20 77.62 77.74 77.5 77.59 3729
1973-11-21 77.3 77.52 77.2 77.46 3969
1973-11-22 77.17 77.4 77.07 77.3 3956
1973-11-23 77.4 77.67 77.38 77.52 3819
1973-11-24 77.46 77.63 77.43 77.48 2528
1973-11-25 77.53 77.63 77.5 77.58 2254
1973-11-26 77.62 77.9 77.62 77.77 5128
1973-11-27 77.85 78 77.74 77.96 3534
1973-11-28 77.92 78.02 77.83 77.93 3107
1973-11-29 77.98 78.12 77.94 78.09 3123
1973-11-30 78.01 78.03 77.84 77.92 3245
1973-12-01 78.01 78.13 77.95 78.08 2282
1973-12-02 78.1 78.2 78.1 78.14 2010
1973-12-03 78.2 78.28 78.15 78.25 2232
1973-12-04 78.27 78.36 78.06 78.32 4150
1973-12-05 78.25 78.34 78.17 78.25 3314
1973-12-06 78.14 78.38 78.1 78.35 3781
1973-12-07 78.46 78.68 78.46 78.66 4237
1973-12-08 78.55 78.85 78.55 78.71 4211
1973-12-09 78.89 78.98 78.82 78.88 3753
1973-12-10 78.79 78.9 78.77 78.79 2862
1973-12-11 78.71 78.75 78.48 78.64 4960
1973-12-12 78.89 79.06 78.8 79 3806
1973-12-13 78.92 79.14 78.92 78.96 3821
1973-12-14 78.58 78.8 78.5 78.75 4198
1973-12-15 78.69 78.94 78.69 78.88 3417
1973-12-16 78.75 78.79 78.62 78.73 3755
1973-12-17 78.53 78.74 78.43 78.44 7917
1973-12-18 78.46 78.51 78.33 78.44 4726
1973-12-19 78.6 78.84 78.46 78.83 5487
1973-12-20 78.85 79.06 78.84 78.97 4996
1973-12-21 78.89 79.1 78.85 79.05 3556
1973-12-22 79.18 79.25 78.97 79.04 3951
1973-12-23 79.03 79.45 79 79.39 5152
1973-12-24 79.41 79.58 79.4 79.44 4306
1973-12-25 79.59 79.61 79.47 79.5 3887
1973-12-26 79.68 79.77 79.62 79.71 4427
1973-12-27 79.71 79.73 79.48 79.69 5913
1973-12-28 79.68 79.78 79.54 79.78 4262
1973-12-29 79.75 79.85 79.65 79.72 3526
1973-12-30 79.7 79.77 79.69 79.74 6432
1973-12-31 79.44 79.6 79.38 79.54 2814
1974-01-01 79.56 79.7 79.48 79.53 1880
1974-01-02 79.57 79.6 79.4 79.52 1787
1974-01-03 79.27 79.5 79.22 79.41 4259
1974-01-04 79.6 79.67 79.5 79.66 4454
1974-01-05 79.68 79.8 79.67 79.76 4656
1974-01-06 79.76 79.77 79.69 79.73 2252
1974-01-07 79.78 79.84 79.59 79.73 4576
1974-01-08 79.8 79.94 79.8 79.93 3723
1974-01-09 79.98 80.16 79.97 80.12 4093
1974-01-10 80.12 80.25 79.96 80.21 5423
1974-01-11 80.18 80.22 80.07 80.2 3342
1974-01-12 80.25 80.59 80.25 80.54 5186
1974-01-13 80.62 80.66 80.52 80.63 3071
1974-01-14 80.62 80.65 80.47 80.63 3091
1974-01-15 80.73 80.82 80.63 80.65 2653
1974-01-16 80.74 80.75 80.5 80.59 3901
1974-01-17 80.2 80.49 80.17 80.34 5883
1974-01-18 80.42 80.43 80.25 80.33 4264
1974-01-19 80.24 80.25 79.79 79.85 8856
1974-01-20 79.97 80 79.76 79.92 5484
1974-01-21 80.28 80.55 80.28 80.44 5165
1974-01-22 80.53 80.68 80.53 80.63 4498
1974-01-23 80.75 80.76 80.41 80.55 6932
1974-01-24 80.58 80.73 80.45 80.63 4608
1974-01-25 80.95 81.02 80.81 80.87 5536
1974-01-26 81.04 81.04 80.88 81.01 6005
1974-01-27 80.97 81.07 80.78 81.06 5026
1974-01-28 81.07 81.28 81.01 81.1 6179
1974-01-29 81.1 81.19 80.63 80.74 7175
1974-01-30 80.8 80.96 80.77 80.95 3582
1974-01-31 81.02 81.09 80.95 81.01 2677
1974-02-01 81.2 81.3 81.13 81.2 3278
1974-02-02 81.24 81.3 81.14 81.22 3860
1974-02-03 81.22 81.26 80.86 81.09 5115
1974-02-04 81.27 81.27 81.14 81.17 3509
1974-02-05 81.22 81.22 80.92 80.98 5491
1974-02-06 80.83 80.95 80.71 80.75 4903
1974-02-07 80.62 80.83 80.59 80.78 5886
1974-02-08 80.89 80.96 80.85 80.89 4092
1974-02-09 80.93 81 80.62 80.7 6920
1974-02-10 80.65 80.67 80.42 80.64 8244
1974-02-11 80.68 80.74 80.57 80.6 4377
1974-02-12 80.72 81.13 80.72 81.12 11970
1974-02-13 81.13 81.27 81.07 81.13 10055
1974-02-14 81.08 81.1 80.91 80.97 4561
1974-02-15 81.08 81.14 80.9 80.94 5559
1974-02-16 80.72 80.86 80.65 80.77 5680
1974-02-17 80.55 80.58 80.1 80.21 14683
1974-02-18 80.41 80.43 80.25 80.34 5616
1974-02-19 80.42 80.48 80.35 80.46 3217
1974-02-20 80.34 80.44 80.3 80.39 1757
1974-02-21 80.49 80.52 80.42 80.46 3139
1974-02-22 80.34 80.44 80.28 80.38 2761
1974-02-23 80.8 80.86 80.71 80.8 4661
1974-02-24 80.61 80.69 80.53 80.65 4027
1974-02-25 80.8 81.15 80.72 81.08 7771
1974-02-26 81 81.22 81 81.21 6172
1974-02-27 81.09 81.24 80.93 81.21 6343
1974-02-28 81.27 81.33 81.06 81.12 4330
1974-03-01 81.15 81.18 81.02 81.14 4459
1974-03-02 81.15 81.28 81.12 81.22 4631
1974-03-03 81.85 81.86 81.7 81.79 3359
1974-03-04 81.82 82 81.82 81.94 4623
1974-03-05 82.15 82.15 81.9 81.97 2972
1974-03-06 81.83 81.95 81.8 81.95 1549
1974-03-07 81.7 81.92 81.58 81.81 5859
1974-03-08 81.65 82 81.65 81.92 5155
1974-03-09 81.96 82.15 81.85 82.08 5213
1974-03-10 82.05 82.15 82 82.11 3104
1974-03-11 82.32 82.52 82.25 82.49 4939
1974-03-12 82.57 82.6 82.44 82.56 8417
1974-03-13 82.22 82.4 82.18 82.3 6173
1974-03-14 82.6 82.88 82.56 82.84 7179
1974-03-15 82.75 82.95 82.51 82.9 8111
1974-03-16 82.05 82.6 82.01 82.51 8836
1974-03-17 82.78 82.8 82.25 82.57 9280
1974-03-18 82.09 82.24 81.8 81.97 12832
1974-03-19 82.1 82.5 82.01 82.15 7604
1974-03-20 81.77 81.95 81.6 81.65 5259
1974-03-21 82.15 82.2 82.04 82.19 5429
1974-03-22 82.5 82.69 82.41 82.67 7211
1974-03-23 82.74 82.83 82.51 82.57 5598
1974-03-24 82.73 82.77 82.26 82.45 6529
1974-03-25 82.62 82.75 82.5 82.61 4654
1974-03-26 82.65 82.67 82.3 82.32 5830
1974-03-27 82.58 82.68 82.45 82.6 4479
1974-03-28 82.61 82.67 82.44 82.5 3818
1974-03-29 82.56 82.6 82.25 82.36 4429
1974-03-30 82.4 82.67 82.34 82.66 5685
1974-03-31 83 83.29 82.89 83.21 10877
1974-04-01 83.45 83.52 83.3 83.31 6120
1974-04-02 83.5 83.58 83.22 83.32 6267
1974-04-03 83.44 83.47 83.07 83.13 4903
1974-04-04 82.76 82.93 81.85 81.91 17992
1974-04-05 82.25 82.65 81.98 82.59 13645
1974-04-06 82.28 82.83 82.25 82.79 6154
1974-04-07 82.63 82.65 82.45 82.55 5453
1974-04-08 82.44 82.59 82.36 82.42 4956
1974-04-09 82.5 82.77 82.48 82.65 3454
1974-04-10 82.84 82.84 82.66 82.74 3045
1974-04-11 82.86 83.17 82.8 83.04 6164
1974-04-12 82.86 82.96 82.72 82.82 4546
1974-04-13 82.8 82.9 82.67 82.79 3946
1974-04-14 82.5 82.55 82.38 82.44 5496
1974-04-15 82.4 82.45 82.03 82.13 7619
1974-04-16 81.7 81.71 81.18 81.23 16676
1974-04-17 81.62 81.88 81.45 81.82 12124
1974-04-18 81.73 81.94 81.65 81.75 5126
1974-04-19 81.76 81.84 81.53 81.62 4945
1974-04-20 81.75 81.85 81.3 81.37 7910
1974-04-21 81.12 81.26 80.98 81.12 6726
1974-04-22 81.22 81.36 81.11 81.24 4054
1974-04-23 81.64 81.7 81.36 81.37 4291
1974-04-24 81.23 81.38 81.13 81.35 3736
1974-04-25 81.1 81.27 81.09 81.17 2731
1974-04-26 81.23 81.34 80.96 80.99 4588
1974-04-27 81.02 81.1 80.77 80.8 5410
1974-04-28 80.83 80.88 80.62 80.63 3772
1974-04-29 80.72 80.72 80.55 80.59 3821
1974-04-30 80.62 80.85 80.58 80.83 4590
1974-05-01 80.73 80.73 80.51 80.65 3783
1974-05-02 80.7 80.87 80.67 80.83 3604
1974-05-03 80.76 80.87 80.73 80.86 3100
1974-05-04 81.02 81.07 80.9 80.96 3686
1974-05-05 80.68 80.75 80.61 80.69 3449
1974-05-06 80.64 80.7 80.55 80.57 2925
1974-05-07 80.69 80.82 80.56 80.61 4331
1974-05-08 80.7 80.77 80.66 80.76 2033
1974-05-09 80.82 81.51 80.79 81.44 3534
1974-05-10 81.63 81.86 81.43 81.65 2473
1974-05-11 81.71 81.82 81.61 81.72 2171
1974-05-12 81.77 81.82 81.71 81.78 1741
1974-05-13 81.83 82.05 81.83 81.96 1262
1974-05-14 81.58 81.65 81.44 81.62 5400
1974-05-15 81.64 81.94 81.63 81.84 4756
1974-05-16 81.67 81.72 81.58 81.61 4714
1974-05-17 81.6 81.63 81.36 81.44 4759
1974-05-18 81.41 81.59 81.38 81.56 2877
1974-05-19 81.68 81.84 81.66 81.67 3190
1974-05-20 81.59 81.65 81.46 81.52 3870
1974-05-21 81.64 81.88 81.64 81.73 5289
1974-05-22 81.9 82.03 81.71 81.92 5920
1974-05-23 82.15 82.37 82.06 82.34 7898
1974-05-24 82.27 82.5 82.27 82.49 5034
1974-05-25 82.57 82.61 82.2 82.36 6315
1974-05-26 82.34 82.39 82.15 82.27 4827
1974-05-27 82.35 82.55 82.34 82.44 5459
1974-05-28 82.5 82.6 82.35 82.41 2349
1974-05-29 82.51 82.58 82.12 82.27 7129
1974-05-30 82.06 82.4 81.91 82.25 5836
1974-05-31 82.31 82.53 82.28 82.45 3262
1974-06-01 82.61 82.79 82.61 82.74 6069
1974-06-02 82.63 82.83 82.61 82.8 4519
1974-06-03 82.9 83.12 82.9 83.02 10398
1974-06-04 82.95 83.2 82.92 83.11 10425
1974-06-05 83.17 83.24 83 83.06 4909
1974-06-06 83.04 83.18 82.87 83.17 7441
1974-06-07 83.35 83.4 83.15 83.18 4506
1974-06-08 82.97 83.2 82.91 83.06 5025
1974-06-09 82.98 83.24 82.97 83.11 3176
1974-06-10 83.1 83.11 82.75 82.79 7561
1974-06-11 82.83 82.9 82.72 82.85 5604
1974-06-12 81.85 81.89 81.44 81.45 17424
1974-06-13 81.42 81.48 81.04 81.12 17231
1974-06-14 81.44 81.49 81.13 81.37 10255
1974-06-15 81.45 81.69 81.41 81.64 6944
1974-06-16 81.58 81.78 81.32 81.39 6754
1974-06-17 80.6 80.84 80.54 80.72 9288
1974-06-18 80.8 80.88 80.69 80.77 4991
1974-06-19 80.86 81.14 80.74 80.95 7742
1974-06-20 81.42 81.62 81.26 81.6 5721
1974-06-21 81.7 81.8 81.6 81.66 3173
1974-06-22 81.28 81.37 81.02 81.07 4930
1974-06-23 80.92 81 80.76 80.88 5719
1974-06-24 81.01 81.39 80.93 81.15 6029
1974-06-25 81.07 81.17 80.86 81.05 5358
1974-06-26 80.94 81.16 80.87 81.03 4786
1974-06-27 82.03 82.68 82.03 82.66 10030
1974-06-28 83.38 83.45 82.97 83.2 12157
1974-06-29 83 83.47 82.91 83.34 11040
1974-06-30 83.83 83.91 83.71 83.75 5913
1974-07-01 83.65 83.85 83.58 83.81 7603
1974-07-02 84.16 84.24 84.03 84.22 8730
1974-07-03 84.25 84.33 84.08 84.18 6064
1974-07-04 84.08 84.3 83.96 84.29 5317
1974-07-05 84.38 84.4 84.2 84.23 3858
1974-07-06 84.15 84.22 83.83 83.84 5362
1974-07-07 83.62 83.7 83.01 83.29 14503
1974-07-08 83.65 83.96 83.65 83.76 6650
1974-07-09 83.8 83.9 83.4 83.61 5165
1974-07-10 83.2 83.56 83.1 83.46 4109
1974-07-11 83.35 83.42 83.17 83.23 2717
1974-07-12 83.18 83.48 83.1 83.31 2181
1974-07-13 83.24 83.25 82.8 82.92 2408
1974-07-14 82.84 83.12 82.77 83.12 1881
1974-07-15 83.28 83.52 83.2 83.26 1338
1974-07-16 83.06 83.13 82.85 82.94 5427
1974-07-17 83.03 83.2 82.98 83.15 3108
1974-07-18 83.22 83.4 83.18 83.37 3385
1974-07-19 83.42 83.42 83.22 83.34 1660
1974-07-20 83.37 83.41 83.13 83.16 1854
1974-07-21 83.35 83.55 83.27 83.5 5174
1974-07-22 83.56 83.7 83.54 83.69 2267
1974-07-23 83.59 83.68 83.5 83.62 2158
1974-07-24 83.89 83.98 83.7 83.72 5698
1974-07-25 83.58 83.69 83.51 83.64 4938
1974-07-26 83.88 84.04 83.68 83.72 6154
1974-07-27 83.68 83.79 83.25 83.3 7438
1974-07-28 83.29 83.5 83.1 83.14 7347
1974-07-29 83.21 83.26 82.82 82.84 8901
1974-07-30 82.96 83.25 82.94 83.09 5955
1974-07-31 83.29 83.48 83.16 83.29 6884
1974-08-01 83 83.38 83 83.31 5825
1974-08-02 83.23 83.42 83.12 83.24 3784
1974-08-03 83.33 83.44 83.21 83.27 3989
1974-08-04 83.34 83.79 83.32 83.76 10661
1974-08-05 83.77 84.07 83.72 83.97 8823
1974-08-06 84.05 84.23 83.68 83.86 8813
1974-08-07 83.87 84.01 83.8 83.97 3746
1974-08-08 84.12 84.24 83.99 84.21 6924
1974-08-09 84.39 84.4 84.12 84.22 8881
1974-08-10 84.3 84.46 84.05 84.1 7499
1974-08-11 84.19 84.37 83.92 84.36 10102
1974-08-12 84.25 84.55 84.25 84.44 5640
1974-08-13 84.4 84.44 84.19 84.25 4002
1974-08-14 84.24 84.28 83.8 83.91 11456
1974-08-15 83.93 84.05 83.76 83.85 6270
1974-08-16 83.7 84.4 83.55 84.32 10071
1974-08-17 84.37 84.45 84.25 84.38 4134
1974-08-18 84.45 84.52 84.33 84.42 4673
1974-08-19 84.29 84.3 84.12 84.24 4506
1974-08-20 84.45 84.47 84.3 84.31 5075
1974-08-21 84.4 84.45 84.02 84.26 5340
1974-08-22 84.25 84.28 84.08 84.18 3602
1974-08-23 84.37 84.46 84.31 84.38 5058
1974-08-24 84.44 84.76 84.4 84.62 9640
1974-08-25 84.44 84.53 84.05 84.16 11114
1974-08-26 83.85 84.05 83.76 83.94 7405
1974-08-27 83.89 83.99 83.7 83.74 6290
1974-08-28 83.41 83.6 83.27 83.31 11827
1974-08-29 83.45 83.67 83.45 83.53 9717
1974-08-30 83.32 83.49 83.28 83.41 7048
1974-08-31 83.17 83.22 83.02 83.08 7162
1974-09-01 83.37 83.39 83.2 83.31 10202
1974-09-02 83.52 83.63 83.2 83.43 6873
1974-09-03 83.53 83.81 83.52 83.7 5601
1974-09-04 83.78 83.79 83.5 83.62 4301
1974-09-05 83.9 83.94 83.7 83.78 3817
1974-09-06 83.54 83.55 83.32 83.41 4998
1974-09-07 83.24 83.44 83.16 83.21 5034
1974-09-08 83.25 83.35 83.21 83.35 2309
1974-09-09 83.51 83.55 83.35 83.39 3403
1974-09-10 83.46 83.55 83.43 83.43 2980
1974-09-11 83.12 83.38 83.1 83.34 4633
1974-09-12 83.31 83.43 83.23 83.28 4281
1974-09-13 83.2 83.23 83.13 83.2 2811
1974-09-14 83.32 83.33 83.09 83.28 3460
1974-09-15 83.32 83.42 83.28 83.31 2663
1974-09-16 83.33 83.71 83.33 83.7 8444
1974-09-17 83.73 83.9 83.63 83.86 9102
1974-09-18 83.84 83.88 83.7 83.78 4244
1974-09-19 83.6 83.61 83.4 83.44 4857
1974-09-20 83.48 83.54 83.3 83.31 4454
1974-09-21 83.41 83.45 83.25 83.37 3514
1974-09-22 83.42 83.55 83.3 83.4 3573
1974-09-23 83.43 83.55 83.41 83.48 2699
1974-09-24 83.65 83.78 83.6 83.65 4948
1974-09-25 83.85 83.93 83.77 83.91 6651
1974-09-26 83.72 83.8 83.65 83.71 5051
1974-09-27 83.49 83.52 83.28 83.4 5450
1974-09-28 83.6 83.61 83.42 83.5 5437
1974-09-29 83.8 83.84 83.68 83.75 3757
1974-09-30 83.79 83.82 83.71 83.73 2710
1974-10-01 83.78 83.85 83.7 83.74 2722
1974-10-02 83.9 83.97 83.81 83.93 3779
1974-10-03 83.83 84.11 83.78 84.09 5838
1974-10-04 84.04 84.11 84.02 84.09 4319
1974-10-05 83.95 84.13 83.95 83.99 4081
1974-10-06 83.95 84.03 83.9 83.97 2905
1974-10-07 84.18 84.19 84.07 84.11 2747
1974-10-08 84.07 84.08 83.92 83.95 3421
1974-10-09 83.92 83.93 83.67 83.7 6326
1974-10-10 83.76 83.89 83.59 83.79 4857
1974-10-11 83.69 83.82 83.63 83.74 4893
1974-10-12 83.2 83.65 83.11 83.56 12715
1974-10-13 83.94 84.35 83.86 84.06 14609
1974-10-14 84.01 84.03 83.94 84.02 3148
1974-10-15 84.19 84.4 84.15 84.36 8601
1974-10-16 84.33 84.38 84.17 84.21 7501
1974-10-17 84.23 84.29 84.02 84.22 3606
1974-10-18 84.1 84.3 84.09 84.2 2573
1974-10-19 84.21 84.23 84.07 84.2 2730
1974-10-20 84.06 84.08 83.95 83.99 4586
1974-10-21 84.2 84.22 84.13 84.18 2433
1974-10-22 84.1 84.1 83.99 84.04 2330
1974-10-23 83.95 84.19 83.91 83.97 3516
1974-10-24 83.56 83.85 83.56 83.79 5472
1974-10-25 83.93 84.01 83.86 83.94 5962
1974-10-26 83.77 83.82 83.61 83.76 5417
1974-10-27 83.6 83.7 83.53 83.64 3364
1974-10-28 83.76 83.9 83.72 83.79 2265
1974-10-29 83.26 83.46 83.05 83.07 8451
1974-10-30 83.34 83.37 83.08 83.13 10805
1974-10-31 83.17 83.26 82.48 82.56 13863
1974-11-01 82.65 82.72 82.33 82.56 10662
1974-11-02 82.9 83.01 82.75 82.92 7159
1974-11-03 82.68 82.84 82.5 82.68 7118
1974-11-04 82.85 82.92 82.66 82.71 5667
1974-11-05 82.69 82.85 82.68 82.74 3879
1974-11-06 82.85 83 82.65 82.91 5099
1974-11-07 83.08 83.33 83 83.15 6212
1974-11-08 83.08 83.29 83.03 83.23 4914
1974-11-09 83.31 83.55 83.3 83.43 5312
1974-11-10 83.44 83.52 83.38 83.47 4840
1974-11-11 83.55 83.57 83.13 83.19 7014
1974-11-12 83.15 83.26 83.01 83.21 3375
1974-11-13 83.18 83.35 83.14 83.31 2705
1974-11-14 83.4 83.5 83.24 83.33 2689
1974-11-15 83.19 83.62 83.1 83.44 2646
1974-11-16 83.42 83.55 83.4 83.5 2778
1974-11-17 83.52 83.55 83.46 83.5 1544
1974-11-18 82.85 82.85 82.67 82.77 3749
1974-11-19 82.87 83.3 82.87 83.26 13114
1974-11-20 83.26 83.59 83.24 83.53 7215
1974-11-21 83.52 83.55 83.1 83.26 6651
1974-11-22 83.16 83.3 83.15 83.27 2126
1974-11-23 83.21 83.28 83.2 83.22 1781
1974-11-24 83.18 83.22 83 83.03 2884
1974-11-25 83.13 83.23 83.08 83.19 2747
1974-11-26 83.16 83.18 82.82 83.08 3971
1974-11-27 83.41 83.58 83.38 83.46 4179
1974-11-28 83.46 83.5 83.37 83.44 2483
1974-11-29 83.44 83.64 83.43 83.52 3021
1974-11-30 83.69 83.73 83.55 83.6 3075
1974-12-01 83.4 83.64 83.36 83.45 6076
1974-12-02 83.58 83.66 83.48 83.53 2624
1974-12-03 83.56 83.58 83.24 83.35 4722
1974-12-04 83.43 83.5 83.34 83.41 2739
1974-12-05 83.5 83.58 83.45 83.52 1979
1974-12-06 83.5 83.58 83.45 83.54 2779
1974-12-07 83.63 83.69 83.61 83.66 2298
1974-12-08 83.8 83.84 83.68 83.74 3680
1974-12-09 83.77 83.8 83.68 83.76 2212
1974-12-10 83.72 83.72 83.65 83.7 1944
1974-12-11 83.78 83.81 83.74 83.78 2174
1974-12-12 83.86 84.07 83.83 84.06 6176
1974-12-13 84.17 84.2 84.09 84.13 5836
1974-12-14 84.06 84.2 83.92 84.15 5271
1974-12-15 84.25 84.34 84.21 84.28 3461
1974-12-16 84.39 84.75 84.34 84.57 6788
1974-12-17 84.75 84.78 84.57 84.61 3294
1974-12-18 84.71 84.99 84.71 84.86 5435
1974-12-19 84.94 84.94 84.45 84.55 4847
1974-12-20 84.72 84.89 84.67 84.85 4167
1974-12-21 85 85.03 84.93 85.01 3630
1974-12-22 85.15 85.15 85.02 85.11 3185
1974-12-23 84.8 85.14 84.76 85.11 4798
1974-12-24 84.98 85.08 84.68 84.84 6845
1974-12-25 84.75 84.83 84.35 84.42 6109
1974-12-26 84.39 84.55 84.28 84.52 6326
1974-12-27 84.53 84.68 84.51 84.64 2541
1974-12-28 84.49 84.52 84.23 84.38 4985
1974-12-29 84.57 84.75 84.55 84.7 3983
1974-12-30 84.8 84.98 84.79 84.87 3155
1974-12-31 85.03 85.11 84.93 84.99 5239
1975-01-01 84.9 84.9 84.75 84.77 3529
1975-01-02 84.75 84.95 84.7 84.94 2956
1975-01-03 84.94 85.15 84.93 85.04 4092
1975-01-04 84.89 85.26 84.82 85.19 7963
1975-01-05 85.25 85.3 84.8 84.89 6114
1975-01-06 85.04 85.04 84.7 84.75 7618
1975-01-07 84.8 85.01 84.48 84.61 5891
1975-01-08 84.68 84.73 84.43 84.51 7341
1975-01-09 84.37 84.62 84.36 84.58 4915
1975-01-10 84.7 84.71 84.54 84.62 4106
1975-01-11 84.36 84.42 84.1 84.21 11194
1975-01-12 84.25 84.33 83.95 84.1 7831
1975-01-13 84.12 84.22 84.03 84.05 6158
1975-01-14 84.17 84.24 83.98 84.08 3585
1975-01-15 84.34 84.45 84.23 84.37 2654
1975-01-16 84.48 84.52 84.23 84.29 3684
1975-01-17 84.22 84.56 84.05 84.35 3620
1975-01-18 84.35 84.55 84.32 84.45 2392
1975-01-19 83.81 83.86 83.7 83.83 3386
1975-01-20 83.86 83.93 83.81 83.84 4163
1975-01-21 83.78 83.92 83.68 83.89 2291
1975-01-22 84.02 84.12 83.96 84 4090
1975-01-23 84.43 84.43 84.28 84.4 7205
1975-01-24 84.48 84.71 84.42 84.46 10169
1975-01-25 84.46 84.46 84.14 84.35 7322
1975-01-26 84.12 84.23 84.06 84.13 4892
1975-01-27 84.37 84.43 84.26 84.37 3010
1975-01-28 84.36 84.41 84.34 84.36 2139
1975-01-29 84.58 84.62 84.4 84.51 3998
1975-01-30 84.55 84.65 84.52 84.61 4688
1975-01-31 84.7 84.73 84.45 84.46 7363
1975-02-01 84.31 84.65 84.3 84.58 5957
1975-02-02 84.56 84.76 84.5 84.67 2536
1975-02-03 84.7 84.81 84.41 84.44 6280
1975-02-04 84.5 84.65 84.45 84.62 4360
1975-02-05 84.64 84.72 84.48 84.6 3748
1975-02-06 84.62 84.72 84.53 84.68 2272
1975-02-07 84.62 84.62 84.41 84.46 6488
1975-02-08 84.54 84.65 84.51 84.54 3854
1975-02-09 84.73 84.75 84.63 84.69 4233
1975-02-10 84.73 84.78 84.59 84.65 3058
1975-02-11 84.68 84.77 84.63 84.72 2442
1975-02-12 84.79 85 84.79 84.98 7815
1975-02-13 84.99 85 84.8 84.89 4737
1975-02-14 84.87 84.9 84.52 84.64 10109
1975-02-15 84.65 84.69 84.5 84.58 4087
1975-02-16 84.55 84.7 84.48 84.65 2755
1975-02-17 84.68 84.8 84.65 84.79 2821
1975-02-18 84.83 84.85 84.74 84.78 2321
1975-02-19 84.68 84.8 84.62 84.76 3150
1975-02-20 84.94 85 84.77 84.84 3736
1975-02-21 84.9 84.95 84.76 84.9 2567
1975-02-22 85.02 85.09 84.96 85.07 5439
1975-02-23 85.06 85.12 85 85.06 3147
1975-02-24 85.17 85.19 85.1 85.13 3187
1975-02-25 85.32 85.36 85.25 85.32 4015
1975-02-26 85.29 85.3 85.11 85.21 3515
1975-02-27 85.28 85.37 85.25 85.25 2708
1975-02-28 85.19 85.21 85.04 85.16 5327
1975-03-01 85.11 85.12 84.86 85.1 5831
1975-03-02 85.12 85.25 85.09 85.23 2469
1975-03-03 85.3 85.33 85.18 85.26 2001
1975-03-04 85.16 85.18 85.11 85.13 2235
1975-03-05 85.23 85.25 85.13 85.21 3683
1975-03-06 85.24 85.35 85.2 85.34 2498
1975-03-07 85.51 85.55 85.47 85.52 2164
1975-03-08 85.44 85.58 85.42 85.53 3011
1975-03-09 85.56 85.66 85.52 85.62 2936
1975-03-10 85.65 85.84 85.65 85.7 3851
1975-03-11 85.52 85.67 85.5 85.67 3157
1975-03-12 85.7 85.81 85.68 85.8 3407
1975-03-13 85.8 85.92 85.8 85.87 3062
1975-03-14 85.91 86.07 85.9 86.03 4481
1975-03-15 85.93 86 85.87 85.98 3523
1975-03-16 85.89 86.09 85.86 86.08 3050
1975-03-17 86 86.04 85.84 85.84 8139
1975-03-18 85.83 86.04 85.75 85.95 5543
1975-03-19 86.1 86.25 86.08 86.24 3917
1975-03-20 85.99 86.13 85.87 86.08 6282
1975-03-21 86.1 86.24 86.1 86.21 4837
1975-03-22 86.14 86.18 86.12 86.16 1825
1975-03-23 85.43 85.45 85.3 85.34 1830
1975-03-24 85.29 85.39 85.24 85.36 2238
1975-03-25 85.44 85.46 85.37 85.43 1777
1975-03-26 85.51 85.66 85.51 85.52 1790
1975-03-27 85.53 85.57 85.42 85.46 2080
1975-03-28 85.56 85.73 85.5 85.69 2841
1975-03-29 85.63 85.82 85.6 85.79 2381
1975-03-30 85.64 85.7 85.57 85.61 2262
1975-03-31 85.63 85.63 85.43 85.49 2522
1975-04-01 85.42 85.61 85.32 85.56 5504
1975-04-02 85.4 85.52 85.37 85.45 3223
1975-04-03 85.44 85.64 85.44 85.55 3434
1975-04-04 85.52 85.6 85.52 85.54 2630
1975-04-05 85.45 85.55 85.4 85.54 2687
1975-04-06 85.65 85.74 85.63 85.72 3301
1975-04-07 85.76 85.86 85.73 85.83 4315
1975-04-08 85.88 85.95 85.82 85.83 3925
1975-04-09 85.77 85.78 85.23 85.27 10836
1975-04-10 85.27 85.38 85.13 85.36 7491
1975-04-11 85.35 85.4 85.26 85.28 4421
1975-04-12 84.93 84.98 84.6 84.77 17747
1975-04-13 84.43 84.43 83.83 83.98 16509
1975-04-14 84.19 84.23 83.98 84.18 5599
1975-04-15 84.47 84.47 83.71 83.79 7472
1975-04-16 83.85 83.92 83.35 83.65 11536
1975-04-17 83.14 83.4 83.14 83.19 5161
1975-04-18 83.63 83.77 83.41 83.58 4411
1975-04-19 83.29 83.77 83.28 83.59 3918
1975-04-20 83.55 83.97 83.46 83.76 5340
1975-04-21 83.81 83.9 83.57 83.76 3176
1975-04-22 83.72 83.76 83.61 83.69 2301
1975-04-23 83.65 83.8 83.6 83.77 2561
1975-04-24 83.71 83.86 83.68 83.75 2413
1975-04-25 83.55 83.56 83.18 83.27 5634
1975-04-26 82.98 83.25 82.96 83.2 4148
1975-04-27 83.37 83.52 82.86 82.97 7065
1975-04-28 82.81 82.95 82.77 82.9 3537
1975-04-29 82.96 83.06 82.82 82.88 3004
1975-04-30 82.7 82.75 82.46 82.54 4687
1975-05-01 82.52 82.85 82.47 82.76 5925
1975-05-02 82.77 83.3 82.72 82.96 5683
1975-05-03 82.98 83.1 82.81 82.97 3694
1975-05-04 83.03 83.22 82.85 83.14 3613
1975-05-05 83.4 83.55 83.31 83.37 5596
1975-05-06 83 83.37 82.95 83.22 4074
1975-05-07 83.27 83.53 83.16 83.41 3991
1975-05-08 83.47 83.68 83.34 83.47 5081
1975-05-09 83.71 83.76 83.48 83.59 5503
1975-05-10 83.9 83.93 83.66 83.72 5312
1975-05-11 83.69 83.72 83.53 83.72 4333
1975-05-12 83.71 83.95 83.71 83.93 2979
1975-05-13 84.09 84.22 84.08 84.13 9089
1975-05-14 84.12 84.45 84.12 84.41 4775
1975-05-15 84.54 84.8 84.5 84.77 10871
1975-05-16 84.74 84.9 84.6 84.62 4956
1975-05-17 84.61 84.78 84.61 84.72 3482
1975-05-18 84.86 84.97 84.84 84.91 1639
1975-05-19 85.21 85.21 85.09 85.16 2137
1975-05-20 84.75 84.91 84.56 84.64 4118
1975-05-21 84.65 84.79 84.53 84.58 2865
1975-05-22 84.46 84.5 84.4 84.45 1998
1975-05-23 83.8 83.96 83.7 83.89 5731
1975-05-24 83.92 84.09 83.84 83.91 4883
1975-05-25 84.08 84.18 84.03 84.13 1738
1975-05-26 84.08 84.16 84 84.03 2018
1975-05-27 84.07 84.15 84.03 84.11 1736
1975-05-28 84.13 84.42 84.08 84.41 4869
1975-05-29 84.52 84.6 84.46 84.58 4567
1975-05-30 84.55 84.74 84.55 84.73 2751
1975-05-31 84.73 84.92 84.7 84.91 3626
1975-06-01 84.74 84.85 84.7 84.76 3449
1975-06-02 84.59 84.75 84.57 84.7 2527
1975-06-03 84.98 85.1 84.95 85.02 2954
1975-06-04 85.24 85.36 85.21 85.27 6751
1975-06-05 85.17 85.45 85.15 85.44 7390
1975-06-06 85.31 85.37 85 85.14 5717
1975-06-07 85.1 85.37 84.92 85.36 4654
1975-06-08 85.06 85.1 84.83 84.89 4773
1975-06-09 84.75 85.2 84.71 85.16 5932
1975-06-10 85.17 85.45 85.14 85.29 4684
1975-06-11 85.36 85.47 85.27 85.32 2973
1975-06-12 85.3 85.4 85.26 85.32 2903
1975-06-13 85.49 85.64 85.48 85.51 5354
1975-06-14 85.52 85.7 85.5 85.62 6137
1975-06-15 85.51 85.58 85.41 85.54 4237
1975-06-16 85.57 85.64 85.45 85.52 3318
1975-06-17 85.33 85.44 85.3 85.37 4767
1975-06-18 85.29 85.39 85.16 85.26 5292
1975-06-19 85.3 85.37 85.26 85.32 4372
1975-06-20 85.1 85.19 85.08 85.13 5576
1975-06-21 85.2 85.25 85.13 85.18 4562
1975-06-22 85.29 85.55 85.24 85.51 6925
1975-06-23 85.59 85.63 85.45 85.51 3665
1975-06-24 85.49 85.54 85.42 85.47 3113
1975-06-25 85.3 85.32 85.19 85.29 6265
1975-06-26 85.28 85.4 84.92 84.98 8911
1975-06-27 84.71 84.75 84.3 84.58 19946
1975-06-28 84.58 84.74 84.45 84.48 9316
1975-06-29 84.37 84.7 84.16 84.52 10896
1975-06-30 84.7 84.73 84.52 84.63 4850
1975-07-01 84.8 84.9 84.55 84.69 7438
1975-07-02 84.5 84.65 84.27 84.38 5992
1975-07-03 84.48 84.65 84.27 84.56 6081
1975-07-04 84.28 84.32 83.38 84.01 18901
1975-07-05 83.99 84.22 83.91 84.04 10479
1975-07-06 84.08 84.25 83.95 84.07 5825
1975-07-07 84.13 84.31 84.1 84.18 2950
1975-07-08 84.42 84.55 84.3 84.44 5927
1975-07-09 84.54 84.76 84.47 84.75 7013
1975-07-10 84.88 85.2 84.86 85.12 11403
1975-07-11 85.05 85.16 84.92 84.99 6067
1975-07-12 84.84 85.06 84.69 84.97 5131
1975-07-13 84.83 84.96 84.75 84.81 3692
1975-07-14 85.1 85.35 85.06 85.29 7873
1975-07-15 85.37 85.56 85.31 85.41 7521
1975-07-16 85 85.17 84.95 85.07 6579
1975-07-17 85.41 85.44 85.22 85.32 4773
1975-07-18 85.19 85.32 85.16 85.19 4428
1975-07-19 85.27 85.31 85.19 85.29 3151
1975-07-20 85.27 85.47 85.24 85.34 2972
1975-07-21 85.22 85.43 85.2 85.39 4672
1975-07-22 85.32 85.38 85.32 85.34 2038
1975-07-23 84.05 84.14 83.99 84.08 3773
1975-07-24 84.25 84.3 84.17 84.2 4738
1975-07-25 84.06 84.06 83.88 83.93 5553
1975-07-26 83.96 84.03 83.55 83.8 9404
1975-07-27 83.55 84.02 83.53 83.94 8642
1975-07-28 84.2 84.38 84.14 84.33 8360
1975-07-29 84.35 84.57 84.33 84.55 5999
1975-07-30 84.41 84.65 84.4 84.59 6232
1975-07-31 84.7 85.1 84.7 85.09 13407
1975-08-01 85.08 85.27 84.93 85.16 7950
1975-08-02 85.07 85.2 85.01 85.16 5023
1975-08-03 85.13 85.22 85.03 85.1 3671
1975-08-04 85 85.26 84.98 85.24 4384
1975-08-05 85.54 85.54 85.4 85.43 4473
1975-08-06 85.62 85.69 85.51 85.57 4512
1975-08-07 85.42 85.49 85.26 85.42 3939
1975-08-08 85.22 85.7 85.16 85.61 6421
1975-08-09 85.58 85.68 85.54 85.65 3432
1975-08-10 85.45 85.58 85.4 85.51 4401
1975-08-11 85.72 85.91 85.65 85.87 4770
1975-08-12 86.03 86.08 85.82 85.84 5247
1975-08-13 85.87 86.05 85.78 86.01 5027
1975-08-14 85.98 86.01 85.62 85.71 5717
1975-08-15 85.8 85.86 85.62 85.81 4964
1975-08-16 85.72 85.84 85.69 85.78 2777
1975-08-17 85.85 86.19 85.85 86.12 6229
1975-08-18 86.2 86.25 86.03 86.12 3787
1975-08-19 86.11 86.22 86.07 86.17 2518
1975-08-20 86.18 86.23 85.98 86.16 3563
1975-08-21 86.11 86.24 85.99 86.2 6697
1975-08-22 86.22 86.22 86.07 86.17 4287
1975-08-23 86.05 86.31 85.99 86.24 5908
1975-08-24 86.27 86.36 86.09 86.28 3907
1975-08-25 86.52 86.56 86.36 86.43 3683
1975-08-26 86.54 86.54 86.34 86.4 4176
1975-08-27 86.45 86.66 86.37 86.58 5148
1975-08-28 86.67 86.72 86.61 86.69 3007
1975-08-29 86.58 86.75 86.54 86.72 3480
1975-08-30 86.76 86.97 86.76 86.95 3685
1975-08-31 87.06 87.1 86.96 86.99 4475
1975-09-01 86.92 86.96 86.56 86.61 8116
1975-09-02 86.78 87.1 86.78 87.05 5046
1975-09-03 87.05 87.17 87.05 87.16 2684
1975-09-04 87.22 87.49 87.21 87.41 7222
1975-09-05 87.65 87.8 87.6 87.72 5626
1975-09-06 87.94 88.28 87.84 88.22 5654
1975-09-07 88.02 88.22 87.62 87.79 7529
1975-09-08 87.97 87.97 87.2 87.27 5412
1975-09-09 87.5 87.54 87.23 87.28 5471
1975-09-10 87.6 87.7 87.32 87.45 4162
1975-09-11 86.93 87.17 86.84 86.93 8093
1975-09-12 86.5 86.5 86.12 86.14 9864
1975-09-13 86.4 86.41 85.85 86.08 7152
1975-09-14 86.55 86.77 86.46 86.61 5750
1975-09-15 86.7 86.72 86.15 86.4 7240
1975-09-16 85.75 85.99 85.6 85.8 9334
1975-09-17 85.78 85.78 85.29 85.54 7241
1975-09-18 85.53 86.1 85.52 86.01 4164
1975-09-19 86.07 86.07 85.79 85.93 4520
1975-09-20 85.62 86.15 85.49 86.14 4612
1975-09-21 85.82 86.01 85.72 85.79 3097
1975-09-22 86.3 86.48 86.28 86.4 1500
1975-09-23 85.4 85.56 85.3 85.35 4047
1975-09-24 85.42 85.65 85.32 85.59 5442
1975-09-25 85.7 85.79 85.52 85.74 4073
1975-09-26 85.7 85.94 85.66 85.86 6009
1975-09-27 86.03 86.26 85.98 86.09 5063
1975-09-28 86.25 86.31 86.06 86.07 5077
1975-09-29 85.62 85.95 85.6 85.77 5213
1975-09-30 85.72 85.92 85.6 85.77 5906
1975-10-01 85.98 85.98 85.64 85.72 3773
1975-10-02 86.09 86.09 85.9 85.93 4187
1975-10-03 85.93 85.98 85.84 85.93 2657
1975-10-04 85.99 86.14 85.95 86.04 4131
1975-10-05 86.28 86.33 86.2 86.23 6045
1975-10-06 86.18 86.25 85.83 85.95 6376
1975-10-07 86.18 86.2 86.1 86.19 1893
1975-10-08 86.24 86.24 86.17 86.21 4220
1975-10-09 86.21 86.36 86.18 86.35 4399
1975-10-10 86.17 86.62 86.04 86.58 8182
1975-10-11 86.63 86.73 86.48 86.58 6281
1975-10-12 85.96 86.18 85.96 86.02 5191
1975-10-13 85.55 86.04 85.51 85.86 11610
1975-10-14 85.27 85.45 84.88 84.91 12141
1975-10-15 84.68 84.92 84.11 84.78 14265
1975-10-16 85.07 85.15 84.5 84.56 9514
1975-10-17 84.81 84.82 84.34 84.37 9350
1975-10-18 84.62 84.87 84.47 84.77 6061
1975-10-19 84.88 85.1 84.85 84.96 4356
1975-10-20 85.12 85.23 84.97 85.16 5410
1975-10-21 85.25 85.43 85.22 85.3 5678
1975-10-22 85.42 85.48 85.36 85.43 2904
1975-10-23 85.19 85.25 85.12 85.18 5667
1975-10-24 84.92 85.24 84.88 85.21 5561
1975-10-25 85.06 85.44 85.06 85.42 6165
1975-10-26 85.4 85.51 85.31 85.42 4909
1975-10-27 85.8 86.04 85.67 85.81 8664
1975-10-28 85.86 85.87 85.55 85.6 4874
1975-10-29 85.52 85.71 85.09 85.16 8931
1975-10-30 85.18 85.3 84.98 85.1 5721
1975-10-31 85.08 85.27 85.05 85.24 4733
1975-11-01 85.4 85.5 85.4 85.49 2791
1975-11-02 85.38 85.51 85.34 85.38 5421
1975-11-03 85.45 85.63 85.45 85.62 4983
1975-11-04 85.69 85.78 85.61 85.68 5000
1975-11-05 85.68 85.78 85.52 85.66 5306
1975-11-06 85.69 85.75 85.64 85.66 3153
1975-11-07 85.88 85.97 85.82 85.93 4495
1975-11-08 86.15 86.2 86.01 86.1 6798
1975-11-09 85.93 86.02 85.85 85.95 3567
1975-11-10 85.8 85.8 85.63 85.68 7289
1975-11-11 85.46 85.68 85.44 85.63 3878
1975-11-12 85.79 85.85 85.51 85.71 4931
1975-11-13 85.5 85.73 85.45 85.68 5549
1975-11-14 85.63 85.69 85.56 85.62 3398
1975-11-15 85.68 85.9 85.66 85.83 5026
1975-11-16 85.93 85.93 85.8 85.88 3380
