"Index" "Open" "High" "Low" "Close" "Volume"
1972-09-28 3380 3390 3338 3390 115
1972-09-29 3370 3380 3370 3380 131
1972-09-30 3420 3460 3420 3460 104
1972-10-01 3480 3490 3400 3416 286
1972-10-02 3442 3450 3380 3390 83
1972-10-03 3340 3422 3340 3422 58
1972-10-04 3516 3554 3506 3542 975
1972-10-05 3520 3536 3490 3496 958
1972-10-06 3480 3640 3444 3578 2861
1972-10-07 3554 3566 3524 3546 1602
1972-10-08 3490 3518 3460 3486 1614
1972-10-09 3486 3562 3486 3550 1568
1972-10-10 3530 3578 3528 3552 900
1972-10-11 3544 3574 3522 3562 1348
1972-10-12 3536 3590 3536 3548 1757
1972-10-13 3490 3540 3484 3518 1284
1972-10-14 3492 3530 3436 3444 1358
1972-10-15 3486 3498 3382 3450 1607
1972-10-16 3530 3540 3496 3518 1105
1972-10-17 3530 3720 3526 3710 4078
1972-10-18 3718 3724 3640 3652 1896
1972-10-19 3610 3640 3570 3576 1152
1972-10-20 3596 3610 3564 3570 896
1972-10-21 3588 3594 3520 3526 1327
1972-10-22 3536 3564 3530 3560 1009
1972-10-23 3518 3552 3506 3522 1238
1972-10-24 3522 3530 3400 3426 2930
1972-10-25 3384 3430 3382 3418 994
1972-10-26 3360 3380 3340 3344 387
1972-10-27 3364 3400 3282 3392 465
1972-10-28 3316 3354 3316 3346 324
1972-10-29 3320 3360 3296 3358 197
1972-10-30 3350 3368 3328 3332 212
1972-10-31 3360 3396 3356 3390 201
1972-11-01 3384 3424 3384 3416 130
1972-11-02 3400 3420 3390 3410 138
1972-11-03 3422 3490 3422 3486 209
1972-11-04 3510 3522 3500 3500 153
1972-11-05 3490 3490 3470 3478 144
1972-11-06 3510 3614 3500 3606 158
1972-11-07 3590 3620 3590 3600 116
1972-11-08 3550 3590 3530 3576 86
1972-11-09 3600 3650 3592 3650 70
1972-11-10 3700 3700 3618 3636 78
1972-11-11 3604 3684 3560 3684 63
1972-11-12 3700 3700 3652 3652 66
1972-11-13 3748 3796 3746 3792 1625
1972-11-14 3810 3988 3800 3974 4453
1972-11-15 3976 4030 3948 4008 1454
1972-11-16 3952 3998 3940 3972 1561
1972-11-17 3930 3950 3900 3930 1011
1972-11-18 3920 3998 3916 3964 724
1972-11-19 3960 3998 3920 3932 916
1972-11-20 3940 4018 3940 3982 983
1972-11-21 4040 4064 4020 4042 1173
1972-11-22 4040 4044 3952 3974 1098
1972-11-23 3920 3938 3860 3884 1381
1972-11-24 3870 3910 3820 3838 1232
1972-11-25 3838 3850 3784 3802 1027
1972-11-26 3810 3820 3766 3778 1173
1972-11-27 3760 3812 3760 3772 919
1972-11-28 3796 3820 3786 3812 699
1972-11-29 3800 3806 3700 3736 1217
1972-11-30 3750 3760 3674 3722 2527
1972-12-01 3704 3742 3704 3740 1667
1972-12-02 3720 3760 3702 3702 687
1972-12-03 3712 3770 3712 3724 1019
1972-12-04 3736 3758 3730 3754 1178
1972-12-05 3730 3760 3720 3738 397
1972-12-06 3736 3744 3714 3720 449
1972-12-07 3728 3760 3720 3756 297
1972-12-08 3760 3790 3750 3754 226
1972-12-09 3774 3782 3760 3778 275
1972-12-10 3788 3838 3788 3838 279
1972-12-11 3840 3930 3840 3928 239
1972-12-12 3920 3950 3920 3920 165
1972-12-13 3940 3950 3916 3932 90
1972-12-14 4020 4098 4020 4098 134
1972-12-15 4140 4164 4094 4164 106
1972-12-16 4190 4204 4126 4126 128
1972-12-17 4180 4196 4144 4146 142
1972-12-18 4050 4160 4050 4160 70
1972-12-19 4108 4108 4108 4108 76
1972-12-20 4096 4096 4082 4082 92
1972-12-21 4066 4066 4062 4064 58
1972-12-22 4070 4190 4062 4190 88
1972-12-23 4270 4310 4270 4310 82
1972-12-24 4242 4242 4200 4200 68
1972-12-25 4230 4266 4202 4266 109
1972-12-26 4320 4340 4244 4256 1743
1972-12-27 4240 4276 4204 4256 3500
1972-12-28 4278 4334 4278 4304 2076
1972-12-29 4244 4254 4036 4042 4663
1972-12-30 4042 4066 3936 3980 4443
1972-12-31 3986 4036 3986 4000 1782
1973-01-01 3980 4048 3966 4026 1656
1973-01-02 4004 4020 3980 4000 2065
1973-01-03 4010 4092 4010 4046 2145
1973-01-04 3990 4030 3990 4022 1601
1973-01-05 4030 4064 3950 3966 2052
1973-01-06 3970 4148 3940 4094 2903
1973-01-07 4100 4136 4078 4104 1270
1973-01-08 4080 4092 4060 4070 691
1973-01-09 4024 4040 3984 4000 1018
1973-01-10 3990 3996 3934 3940 2140
1973-01-11 3950 3960 3824 3846 3574
1973-01-12 3872 3916 3872 3878 1894
1973-01-13 3900 3928 3856 3888 1037
1973-01-14 3900 3956 3894 3928 1186
1973-01-15 3940 3970 3936 3968 939
1973-01-16 3970 4028 3950 3990 2091
1973-01-17 3970 3986 3942 3982 1034
1973-01-18 3976 3990 3916 3924 1060
1973-01-19 3920 3930 3880 3902 1523
1973-01-20 3880 3928 3874 3918 1076
1973-01-21 3910 3946 3896 3928 1142
1973-01-22 3900 3950 3876 3904 1404
1973-01-23 3890 3918 3880 3890 820
1973-01-24 3866 3908 3852 3900 1629
1973-01-25 3912 3940 3886 3894 1426
1973-01-26 3880 3896 3830 3834 1701
1973-01-27 3834 3840 3742 3752 2890
1973-01-28 3760 3790 3750 3754 1286
1973-01-29 3764 3786 3760 3778 1072
1973-01-30 3806 3820 3792 3818 957
1973-01-31 3812 3848 3780 3800 1379
1973-02-01 3810 3830 3762 3774 918
1973-02-02 3790 3810 3776 3794 1240
1973-02-03 3764 3876 3760 3866 2903
1973-02-04 3852 3890 3840 3850 1437
1973-02-05 3840 3858 3810 3814 2477
1973-02-06 3812 3920 3792 3884 1421
1973-02-07 3870 3898 3810 3814 563
1973-02-08 3800 3830 3758 3762 510
1973-02-09 3750 3760 3710 3722 386
1973-02-10 3732 3756 3692 3694 142
1973-02-11 3650 3710 3650 3704 183
1973-02-12 3690 3710 3664 3694 558
1973-02-13 3660 3718 3660 3680 160
1973-02-14 3662 3704 3662 3694 110
1973-02-15 3650 3660 3620 3648 82
1973-02-16 3630 3658 3630 3632 104
1973-02-17 3640 3690 3638 3690 81
1973-02-18 3680 3710 3614 3614 65
1973-02-19 3600 3660 3600 3638 84
1973-02-20 3622 3626 3614 3614 68
1973-02-21 3580 3612 3580 3606 65
1973-02-22 3634 3634 3628 3628 56
1973-02-23 3660 3668 3660 3668 59
1973-02-24 3640 3640 3640 3640 56
1973-02-25 3664 3664 3616 3616 63
1973-02-26 3722 3736 3696 3732 931
1973-02-27 3732 3790 3726 3768 2089
1973-02-28 3762 3770 3706 3730 1978
1973-03-01 3740 3760 3730 3758 1141
1973-03-02 3758 3766 3732 3740 927
1973-03-03 3758 3784 3756 3772 1081
1973-03-04 3772 3784 3758 3778 431
1973-03-05 3780 3834 3780 3826 2596
1973-03-06 3812 3854 3794 3848 2687
1973-03-07 3846 3874 3830 3870 1375
1973-03-08 3846 3850 3772 3778 1980
1973-03-09 3778 3784 3700 3714 3149
1973-03-10 3696 3738 3690 3716 2260
1973-03-11 3716 3732 3712 3714 1018
1973-03-12 3710 3738 3706 3708 886
1973-03-13 3724 3732 3702 3712 981
1973-03-14 3722 3756 3722 3746 1274
1973-03-15 3764 3776 3762 3772 975
1973-03-16 3756 3780 3756 3762 919
1973-03-17 3770 3814 3770 3796 1919
1973-03-18 3836 3930 3836 3914 4198
1973-03-19 3900 3924 3872 3876 2844
1973-03-20 3866 3872 3808 3812 1639
1973-03-21 3832 3848 3730 3738 4096
1973-03-22 3712 3716 3620 3630 3842
1973-03-23 3620 3648 3574 3608 2537
1973-03-24 3614 3654 3614 3646 1221
1973-03-25 3664 3680 3644 3648 1436
1973-03-26 3668 3700 3662 3666 1362
1973-03-27 3596 3650 3596 3640 1258
1973-03-28 3600 3650 3600 3644 953
1973-03-29 3664 3692 3654 3676 1235
1973-03-30 3656 3666 3640 3646 1298
1973-03-31 3640 3668 3640 3656 1240
1973-04-01 3644 3682 3640 3678 1124
1973-04-02 3722 3768 3710 3750 2547
1973-04-03 3752 3764 3704 3712 1935
1973-04-04 3674 3688 3664 3670 1281
1973-04-05 3646 3660 3606 3610 2237
1973-04-06 3610 3640 3610 3630 669
1973-04-07 3654 3670 3634 3642 463
1973-04-08 3620 3640 3618 3620 628
1973-04-09 3614 3666 3594 3666 390
1973-04-10 3654 3710 3654 3700 259
1973-04-11 3700 3722 3658 3666 304
1973-04-12 3658 3670 3636 3636 132
1973-04-13 3642 3684 3640 3682 218
1973-04-14 3672 3700 3672 3700 198
1973-04-15 3710 3726 3706 3714 214
1973-04-16 3714 3750 3708 3708 94
1973-04-17 3696 3700 3676 3676 241
1973-04-18 3662 3702 3654 3702 151
1973-04-19 3686 3762 3680 3762 84
1973-04-20 3780 3808 3780 3808 64
1973-04-21 3794 3804 3762 3774 81
1973-04-22 3780 3800 3780 3796 58
1973-04-23 3810 3810 3782 3782 87
1973-04-24 3750 3758 3740 3758 59
1973-04-25 3700 3706 3700 3706 60
1973-04-26 3726 3760 3720 3760 64
1973-04-27 3828 3830 3812 3812 60
1973-04-28 3872 3892 3854 3878 1744
1973-04-29 3860 3930 3860 3886 3631
1973-04-30 3890 3914 3872 3888 1215
1973-05-01 3890 3892 3856 3872 1738
1973-05-02 3876 3890 3862 3874 811
1973-05-03 3874 3896 3840 3840 1737
1973-05-04 3850 3864 3752 3782 3715
1973-05-05 3800 3866 3796 3850 3215
1973-05-06 3860 3890 3826 3848 2007
1973-05-07 3830 3860 3822 3856 1109
1973-05-08 3850 3862 3836 3844 1138
1973-05-09 3842 3862 3836 3858 1483
1973-05-10 3860 3874 3836 3856 892
1973-05-11 3846 3872 3824 3868 875
1973-05-12 3844 3858 3834 3850 411
1973-05-13 3830 3832 3812 3820 688
1973-05-14 3822 3850 3822 3848 910
1973-05-15 3878 3888 3868 3876 1109
1973-05-16 3882 3884 3860 3868 1658
1973-05-17 3878 3900 3878 3894 1775
1973-05-18 3880 3916 3876 3912 2097
1973-05-19 3884 3968 3884 3946 719
1973-05-20 3930 3986 3930 3974 200
1973-05-21 3954 3960 3940 3956 117
1973-05-22 3920 3932 3906 3910 359
1973-05-23 3902 3960 3902 3960 159
1973-05-24 3966 3992 3964 3990 108
1973-05-25 3980 3990 3940 3940 219
1973-05-26 3930 3934 3916 3920 109
1973-05-27 3890 3890 3856 3856 135
1973-05-28 3888 3890 3854 3890 65
1973-05-29 3880 3910 3880 3910 68
1973-05-30 3880 3948 3880 3948 63
1973-05-31 3930 3934 3930 3934 56
1973-06-01 3920 3946 3910 3920 67
1973-06-02 3924 3926 3924 3926 60
1973-06-03 3906 3940 3906 3940 62
1973-06-04 3918 3944 3912 3942 81
1973-06-05 3940 4000 3940 4000 75
1973-06-06 3990 3990 3924 3924 66
1973-06-07 3950 3958 3918 3918 90
1973-06-08 3940 3974 3914 3958 3711
1973-06-09 3962 3990 3950 3956 1061
1973-06-10 3940 3952 3916 3948 1372
1973-06-11 3928 3936 3882 3894 3519
1973-06-12 3902 3910 3890 3896 1196
1973-06-13 3842 3878 3834 3874 2178
1973-06-14 3826 3836 3766 3770 3342
1973-06-15 3764 3768 3724 3726 2122
1973-06-16 3766 3772 3740 3742 1193
1973-06-17 3746 3768 3746 3762 1211
1973-06-18 3750 3780 3720 3726 1258
1973-06-19 3760 3788 3752 3758 1590
1973-06-20 3756 3762 3700 3712 1439
1973-06-21 3632 3660 3624 3636 1955
1973-06-22 3630 3670 3630 3656 1159
1973-06-23 3710 3716 3686 3698 1037
1973-06-24 3680 3716 3674 3712 988
1973-06-25 3702 3740 3700 3716 821
1973-06-26 3704 3760 3704 3758 1264
1973-06-27 3730 3740 3654 3666 1648
1973-06-28 3646 3698 3642 3684 1754
1973-06-29 3710 3752 3710 3736 2407
1973-06-30 3730 3800 3730 3766 651
1973-07-01 3770 3788 3760 3774 257
1973-07-02 3774 3796 3746 3792 305
1973-07-03 3836 3850 3814 3830 235
1973-07-04 3888 3892 3864 3872 173
1973-07-05 3900 3978 3900 3978 287
1973-07-06 3948 3990 3948 3974 299
1973-07-07 3966 4020 3966 4002 164
1973-07-08 3990 4002 3990 3994 92
1973-07-09 3990 3996 3970 3978 116
1973-07-10 3950 3950 3930 3946 140
1973-07-11 3996 4000 3996 4000 82
1973-07-12 3970 4036 3970 4034 118
1973-07-13 3990 4002 3980 4002 89
1973-07-14 3990 3990 3956 3956 94
1973-07-15 4030 4030 4030 4030 55
1973-07-16 4114 4114 4114 4114 60
1973-07-17 4184 4184 4150 4150 66
1973-07-18 4154 4154 4134 4134 56
1973-07-19 4140 4186 4140 4186 56
1973-07-20 4256 4256 4172 4172 57
1973-07-21 4170 4216 4150 4210 2049
1973-07-22 4200 4204 4166 4184 854
1973-07-23 4110 4132 4050 4060 3285
1973-07-24 4070 4070 4040 4052 1219
1973-07-25 4062 4080 4046 4052 864
1973-07-26 4058 4110 4058 4094 671
1973-07-27 4080 4080 4032 4062 1083
1973-07-28 3960 3970 3870 3902 3458
1973-07-29 3916 3928 3898 3920 997
1973-07-30 3906 3950 3860 3950 1957
1973-07-31 3936 3956 3922 3924 535
1973-08-01 3910 3910 3866 3894 528
1973-08-02 3812 3866 3810 3856 734
1973-08-03 3820 3908 3818 3894 1046
1973-08-04 3888 3896 3840 3852 1172
1973-08-05 3820 3830 3780 3798 1382
1973-08-06 3800 3806 3782 3788 539
1973-08-07 3794 3854 3794 3846 746
1973-08-08 3860 3884 3850 3852 837
1973-08-09 3830 3830 3760 3782 1259
1973-08-10 3784 3824 3778 3810 1173
1973-08-11 3800 3850 3800 3836 2106
1973-08-12 3856 3896 3856 3866 754
1973-08-13 3846 3850 3830 3844 381
1973-08-14 3822 3848 3822 3826 218
1973-08-15 3848 3876 3848 3862 268
1973-08-16 3890 3950 3890 3940 249
1973-08-17 3910 3956 3910 3932 285
1973-08-18 3910 4020 3910 4010 344
1973-08-19 4040 4040 3990 4000 196
1973-08-20 3968 3996 3960 3966 132
1973-08-21 3970 3980 3960 3966 99
1973-08-22 3944 3944 3870 3872 157
1973-08-23 3844 3884 3844 3884 128
1973-08-24 3898 3904 3890 3902 127
1973-08-25 3906 3906 3870 3898 108
1973-08-26 3844 3844 3800 3812 92
1973-08-27 3770 3780 3680 3680 110
1973-08-28 3720 3752 3702 3702 75
1973-08-29 3720 3748 3718 3740 59
1973-08-30 3698 3800 3698 3800 68
1973-08-31 3774 3774 3716 3716 58
1973-09-01 3760 3844 3744 3808 2401
1973-09-02 3824 3846 3812 3814 969
1973-09-03 3810 3850 3790 3824 961
1973-09-04 3828 3910 3828 3906 3173
1973-09-05 3892 3930 3870 3898 3083
1973-09-06 3904 3910 3862 3868 1659
1973-09-07 3866 3900 3842 3880 1524
1973-09-08 3866 3880 3850 3868 782
1973-09-09 3846 3856 3814 3818 1284
1973-09-10 3794 3810 3704 3708 3077
1973-09-11 3660 3670 3620 3646 3245
1973-09-12 3630 3686 3630 3658 1634
1973-09-13 3680 3694 3648 3664 1953
1973-09-14 3660 3692 3636 3654 1279
1973-09-15 3642 3650 3596 3626 2430
1973-09-16 3600 3680 3600 3676 1751
1973-09-17 3680 3712 3674 3684 2154
1973-09-18 3690 3696 3646 3670 1479
1973-09-19 3644 3672 3620 3622 1107
1973-09-20 3590 3632 3578 3602 1754
1973-09-21 3602 3650 3602 3604 932
1973-09-22 3596 3610 3570 3590 1560
1973-09-23 3590 3604 3574 3578 633
1973-09-24 3630 3646 3600 3616 1109
1973-09-25 3580 3654 3580 3650 2672
1973-09-26 3674 3710 3656 3670 2849
1973-09-27 3650 3660 3616 3626 1733
1973-09-28 3628 3660 3612 3648 1305
1973-09-29 3660 3682 3634 3640 1826
1973-09-30 3620 3650 3620 3634 1397
1973-10-01 3640 3682 3640 3678 1863
1973-10-02 3694 3716 3636 3654 1971
1973-10-03 3670 3680 3606 3614 2145
1973-10-04 3614 3670 3600 3664 2204
1973-10-05 3640 3648 3614 3638 1991
1973-10-06 3636 3674 3590 3598 2628
1973-10-07 3600 3628 3568 3624 2379
1973-10-08 3648 3670 3630 3642 3127
1973-10-09 3656 3670 3638 3668 1740
1973-10-10 3690 3780 3690 3768 4090
1973-10-11 3778 3810 3764 3770 3014
1973-10-12 3734 3746 3670 3676 2640
1973-10-13 3630 3672 3610 3616 1105
1973-10-14 3570 3606 3550 3556 602
1973-10-15 3590 3590 3560 3572 323
1973-10-16 3598 3640 3598 3636 357
1973-10-17 3620 3636 3620 3630 226
1973-10-18 3650 3666 3610 3640 241
1973-10-19 3660 3720 3640 3716 291
1973-10-20 3754 3760 3740 3754 248
1973-10-21 3730 3760 3710 3720 156
1973-10-22 3710 3730 3710 3730 108
1973-10-23 3710 3710 3696 3710 92
1973-10-24 3660 3660 3600 3614 158
1973-10-25 3624 3680 3600 3642 179
1973-10-26 3786 3796 3784 3784 207
1973-10-27 3500 3500 3478 3496 98
1973-10-28 3520 3520 3464 3472 62
1973-10-29 3456 3470 3440 3470 86
1973-10-30 3502 3502 3502 3502 72
1973-10-31 3550 3550 3516 3516 89
1973-11-01 3486 3486 3486 3486 63
1973-11-02 3472 3472 3472 3472 152
1973-11-03 3526 3560 3526 3556 1304
1973-11-04 3550 3576 3532 3568 1391
1973-11-05 3588 3600 3556 3582 1536
1973-11-06 3580 3618 3580 3616 1660
1973-11-07 3652 3676 3634 3668 2130
1973-11-08 3670 3692 3536 3544 4024
1973-11-09 3576 3580 3560 3574 462
1973-11-10 3602 3610 3584 3594 883
1973-11-11 3580 3592 3572 3582 619
1973-11-12 3592 3618 3592 3614 874
1973-11-13 3636 3652 3614 3628 1153
1973-11-14 3616 3720 3612 3680 3601
1973-11-15 3750 3798 3742 3768 5753
1973-11-16 3762 3808 3758 3786 2183
1973-11-17 3774 3780 3742 3752 1733
1973-11-18 3770 3800 3766 3784 1765
1973-11-19 3800 3836 3774 3782 2572
1973-11-20 3800 3804 3766 3776 1513
1973-11-21 3774 3796 3766 3788 1716
1973-11-22 3784 3794 3690 3732 2285
1973-11-23 3736 3790 3732 3766 2070
1973-11-24 3810 3814 3792 3804 947
1973-11-25 3798 3846 3798 3832 2578
1973-11-26 3836 3860 3822 3854 2144
1973-11-27 3836 3900 3832 3884 2799
1973-11-28 3870 3878 3816 3844 1661
1973-11-29 3802 3806 3732 3736 2423
1973-11-30 3742 3744 3706 3712 1697
1973-12-01 3644 3666 3590 3606 4169
1973-12-02 3590 3616 3532 3558 3142
1973-12-03 3546 3568 3516 3520 1845
1973-12-04 3492 3518 3478 3490 2044
1973-12-05 3494 3546 3494 3508 1154
1973-12-06 3496 3510 3454 3460 1589
1973-12-07 3436 3452 3380 3406 2641
1973-12-08 3444 3460 3410 3438 1733
1973-12-09 3456 3466 3408 3418 1047
1973-12-10 3396 3404 3362 3390 1898
1973-12-11 3412 3450 3386 3408 1439
1973-12-12 3410 3446 3408 3440 1362
1973-12-13 3420 3428 3354 3356 2877
1973-12-14 3354 3388 3316 3320 1114
1973-12-15 3316 3346 3308 3336 389
1973-12-16 3310 3370 3304 3362 364
1973-12-17 3336 3380 3332 3358 197
1973-12-18 3370 3398 3360 3372 172
1973-12-19 3368 3368 3290 3304 255
1973-12-20 3280 3280 3240 3258 173
1973-12-21 3256 3298 3256 3296 95
1973-12-22 3300 3300 3210 3218 139
1973-12-23 3206 3212 3160 3168 76
1973-12-24 3180 3196 3154 3196 94
1973-12-25 3200 3200 3120 3126 120
1973-12-26 3120 3120 3110 3110 86
1973-12-27 3156 3168 3150 3166 123
1973-12-28 3188 3188 3160 3166 90
1973-12-29 3154 3200 3154 3200 87
1973-12-30 3170 3170 3112 3112 57
1973-12-31 3100 3138 3100 3138 64
1974-01-01 3150 3150 3146 3146 67
1974-01-02 3010 3014 3010 3014 60
1974-01-03 3000 3094 3000 3092 57
1974-01-04 3004 3004 3004 3004 55
1974-01-05 3094 3126 3074 3104 1652
1974-01-06 3090 3118 3070 3108 2431
1974-01-07 3122 3130 3094 3122 1042
1974-01-08 3096 3158 3080 3144 1823
1974-01-09 3154 3186 3142 3184 1630
1974-01-10 3198 3222 3182 3210 2390
1974-01-11 3194 3238 3194 3220 1640
1974-01-12 3214 3220 3122 3146 3036
1974-01-13 3136 3202 3136 3176 1741
1974-01-14 3156 3210 3156 3192 1141
1974-01-15 3190 3210 3134 3140 2659
1974-01-16 3156 3174 3150 3150 1416
1974-01-17 3110 3120 3082 3092 1650
1974-01-18 3062 3154 3062 3124 1974
1974-01-19 3118 3122 3070 3082 1040
1974-01-20 3072 3106 3072 3086 840
1974-01-21 3078 3090 3062 3078 802
1974-01-22 3040 3048 3018 3024 2172
1974-01-23 3024 3054 3016 3022 1867
1974-01-24 3050 3060 3020 3026 2528
1974-01-25 3060 3064 3004 3010 3337
1974-01-26 3010 3044 3010 3014 947
1974-01-27 3048 3080 3042 3074 774
1974-01-28 3114 3120 3080 3086 450
1974-01-29 3080 3086 3032 3044 320
1974-01-30 3034 3070 3014 3066 168
1974-01-31 3070 3130 3070 3126 466
1974-02-01 3126 3150 3126 3146 136
1974-02-02 3130 3130 3106 3124 232
1974-02-03 3124 3164 3124 3162 91
1974-02-04 3160 3170 3158 3170 67
1974-02-05 3150 3150 3140 3144 67
1974-02-06 3160 3170 3160 3170 58
1974-02-07 3190 3200 3180 3182 68
1974-02-08 3152 3152 3152 3152 58
1974-02-09 3186 3186 3186 3186 55
1974-02-10 3220 3220 3220 3220 77
1974-02-11 3200 3220 3200 3210 67
1974-02-12 3180 3180 3120 3136 61
1974-02-13 3110 3110 3110 3110 58
1974-02-14 3130 3168 3120 3168 66
1974-02-15 3204 3214 3194 3204 1440
1974-02-16 3188 3250 3186 3238 2608
1974-02-17 3234 3338 3234 3330 6959
1974-02-18 3346 3386 3342 3364 4240
1974-02-19 3344 3370 3334 3358 3145
1974-02-20 3354 3366 3326 3350 1885
1974-02-21 3324 3428 3324 3420 2867
1974-02-22 3432 3464 3362 3370 3882
1974-02-23 3334 3350 3162 3192 7216
1974-02-24 3210 3254 3190 3198 2741
1974-02-25 3220 3260 3210 3238 1780
1974-02-26 3222 3240 3214 3222 1315
1974-02-27 3176 3206 3150 3192 1953
1974-02-28 3174 3222 3164 3170 1494
1974-03-01 3170 3196 3152 3166 1336
1974-03-02 3164 3184 3146 3154 1509
1974-03-03 3134 3146 3094 3098 2440
1974-03-04 3078 3096 3062 3090 2036
1974-03-05 3110 3118 3056 3072 1754
1974-03-06 3072 3128 3072 3124 1214
1974-03-07 3100 3124 3096 3112 1088
1974-03-08 3112 3144 3112 3140 1593
1974-03-09 3120 3120 2960 2982 4116
1974-03-10 3000 3034 2990 3030 645
1974-03-11 3040 3054 2952 2960 457
1974-03-12 3010 3030 2990 3024 230
1974-03-13 3040 3058 3030 3046 313
1974-03-14 3036 3050 3024 3048 277
1974-03-15 3100 3112 3048 3054 199
1974-03-16 3040 3040 2980 3006 227
1974-03-17 3050 3084 3026 3080 213
1974-03-18 3090 3096 3050 3072 234
1974-03-19 3090 3146 3090 3140 92
1974-03-20 3140 3158 3064 3140 127
1974-03-21 3120 3160 3120 3160 77
1974-03-22 3150 3220 3150 3220 87
1974-03-23 3300 3300 3262 3262 90
1974-03-24 3300 3300 3160 3190 75
1974-03-25 3210 3210 3160 3186 93
1974-03-26 3274 3280 3274 3278 68
1974-03-27 3270 3280 3260 3260 77
1974-03-28 3270 3300 3188 3188 57
1974-03-29 3156 3170 3060 3118 5869
1974-03-30 3064 3136 3064 3104 1759
1974-03-31 3072 3120 3050 3110 2084
1974-04-01 3120 3166 3114 3160 305
1974-04-02 3164 3178 3090 3110 2529
1974-04-03 3112 3124 3054 3074 3323
1974-04-04 3074 3096 3054 3082 1983
1974-04-05 3062 3070 2950 2960 5162
1974-04-06 2976 3028 2952 3006 2907
1974-04-07 3040 3068 3010 3018 1771
1974-04-08 3006 3014 2920 2936 1675
1974-04-09 2950 2960 2912 2934 1087
1974-04-10 2950 2976 2930 2944 1038
1974-04-11 2960 2996 2952 2958 878
1974-04-12 3000 3028 2980 2996 1896
1974-04-13 3000 3008 2936 2986 1635
1974-04-14 3030 3034 2998 3026 1651
1974-04-15 3006 3030 2948 2950 1409
1974-04-16 2918 2930 2834 2846 3112
1974-04-17 2836 2846 2770 2808 1392
1974-04-18 2780 2782 2728 2746 1429
1974-04-19 2722 2740 2652 2654 1793
1974-04-20 2690 2696 2650 2672 2433
1974-04-21 2670 2686 2658 2662 3078
1974-04-22 2680 2712 2680 2704 834
1974-04-23 2604 2660 2604 2642 571
1974-04-24 2600 2658 2600 2646 221
1974-04-25 2640 2672 2640 2670 224
1974-04-26 2660 2692 2654 2672 188
1974-04-27 2640 2640 2604 2606 175
1974-04-28 2500 2548 2500 2532 153
1974-04-29 2532 2536 2516 2536 118
1974-04-30 2538 2560 2522 2560 367
1974-05-01 2560 2560 2440 2440 463
1974-05-02 2384 2410 2374 2374 111
1974-05-03 2320 2404 2320 2404 121
1974-05-04 2380 2386 2380 2386 70
1974-05-05 2400 2400 2340 2346 103
1974-05-06 2406 2444 2406 2438 145
1974-05-07 2392 2392 2392 2392 87
1974-05-08 2440 2440 2416 2440 109
1974-05-09 2474 2474 2430 2430 175
1974-05-10 2416 2440 2416 2428 72
1974-05-11 2380 2380 2338 2338 70
1974-05-12 2382 2390 2330 2346 3551
1974-05-13 2350 2374 2342 2368 1123
1974-05-14 2364 2412 2364 2406 2389
1974-05-15 2390 2478 2390 2470 2975
1974-05-16 2474 2480 2396 2432 3104
1974-05-17 2392 2404 2336 2338 3483
1974-05-18 2306 2316 2230 2248 3637
1974-05-19 2270 2284 2230 2266 1878
1974-05-20 2252 2280 2220 2254 2080
1974-05-21 2210 2250 2210 2232 1628
1974-05-22 2224 2270 2224 2264 1749
1974-05-23 2206 2296 2206 2264 1871
1974-05-24 2278 2340 2278 2334 2228
1974-05-25 2346 2470 2336 2456 5365
1974-05-26 2464 2520 2412 2478 5359
1974-05-27 2500 2560 2484 2556 3967
1974-05-28 2580 2608 2556 2580 3683
1974-05-29 2546 2554 2416 2432 4660
1974-05-30 2410 2496 2410 2490 2115
1974-05-31 2540 2556 2422 2450 3418
1974-06-01 2466 2576 2446 2566 3845
1974-06-02 2550 2658 2550 2636 4452
1974-06-03 2600 2712 2530 2682 5275
1974-06-04 2702 2716 2618 2648 3123
1974-06-05 2730 2736 2640 2660 2907
1974-06-06 2650 2692 2626 2686 1501
1974-06-07 2732 2768 2720 2764 2924
1974-06-08 2726 2734 2630 2632 2747
1974-06-09 2610 2670 2572 2628 3118
1974-06-10 2586 2640 2576 2580 2367
1974-06-11 2582 2710 2558 2650 2789
1974-06-12 2664 2706 2610 2618 1591
1974-06-13 2678 2700 2620 2668 1484
1974-06-14 2670 2748 2664 2744 3022
1974-06-15 2710 2748 2602 2618 3577
1974-06-16 2670 2824 2670 2806 6832
1974-06-17 2812 2846 2760 2790 2443
1974-06-18 2790 2810 2774 2800 2139
1974-06-19 2856 2878 2804 2846 2302
1974-06-20 2792 2846 2768 2816 1927
1974-06-21 2870 2878 2832 2838 2344
1974-06-22 2800 2820 2770 2774 4056
1974-06-23 2760 2770 2676 2694 1668
1974-06-24 2728 2812 2728 2784 788
1974-06-25 2804 2812 2754 2780 445
1974-06-26 2760 2770 2716 2764 332
1974-06-27 2780 2850 2780 2850 412
1974-06-28 2880 2910 2872 2878 433
1974-06-29 2870 2920 2850 2912 361
1974-06-30 2920 2920 2878 2894 267
1974-07-01 2870 2912 2862 2874 110
1974-07-02 2850 2860 2800 2860 116
1974-07-03 2850 2850 2820 2838 122
1974-07-04 2826 2842 2806 2842 111
1974-07-05 2870 2880 2842 2880 118
1974-07-06 2900 2900 2826 2834 108
1974-07-07 2800 2844 2770 2838 176
1974-07-08 2820 2846 2820 2822 250
1974-07-09 2800 2802 2750 2764 167
1974-07-10 2770 2770 2700 2730 135
1974-07-11 2720 2720 2690 2700 217
1974-07-12 2700 2710 2698 2698 97
1974-07-13 2782 2818 2744 2750 3705
1974-07-14 2752 2836 2752 2832 2491
1974-07-15 2836 2886 2834 2884 2711
1974-07-16 2876 3056 2862 3048 7502
1974-07-17 3022 3072 3006 3032 5294
1974-07-18 3020 3036 2970 3000 2694
1974-07-19 3028 3050 3010 3046 890
1974-07-20 3050 3062 3004 3010 1965
1974-07-21 2976 2990 2950 2966 1971
1974-07-22 2990 3006 2980 2988 1266
1974-07-23 3002 3012 2986 3000 814
1974-07-24 3100 3110 3030 3078 3866
1974-07-25 3044 3056 3014 3026 2603
1974-07-26 2954 2964 2860 2866 5294
1974-07-27 2844 2850 2804 2826 4144
1974-07-28 2810 2858 2810 2850 3289
1974-07-29 2770 2780 2700 2704 6307
1974-07-30 2710 2736 2678 2682 3335
1974-07-31 2632 2724 2624 2718 4720
1974-08-01 2686 2742 2686 2700 3019
1974-08-02 2680 2696 2650 2654 3385
1974-08-03 2680 2688 2618 2628 2847
1974-08-04 2630 2712 2602 2702 4047
1974-08-05 2696 2782 2688 2734 4218
1974-08-06 2784 2940 2770 2922 6104
1974-08-07 2890 2990 2890 2976 4867
1974-08-08 2984 2990 2924 2972 3042
1974-08-09 2942 2950 2880 2920 2907
1974-08-10 2900 2936 2898 2916 1969
1974-08-11 2944 3012 2922 2972 3671
1974-08-12 2976 2996 2884 2912 3586
1974-08-13 2872 2906 2856 2892 2828
1974-08-14 2866 3020 2866 2968 4416
1974-08-15 2996 3036 2964 2990 2659
1974-08-16 2998 3022 2970 3014 4101
1974-08-17 2968 3062 2968 3060 3037
1974-08-18 3070 3088 2960 3018 3629
1974-08-19 3036 3060 2970 2992 1910
1974-08-20 3004 3060 2974 3042 1730
1974-08-21 3030 3136 3022 3048 3038
1974-08-22 3070 3080 3000 3014 3904
1974-08-23 3040 3310 3020 3306 1901
1974-08-24 3280 3328 3260 3310 898
1974-08-25 3280 3284 3226 3270 396
1974-08-26 3244 3340 3230 3306 610
1974-08-27 3280 3290 3180 3226 436
1974-08-28 3214 3230 3180 3208 402
1974-08-29 3200 3300 3200 3254 281
1974-08-30 3250 3300 3240 3284 308
1974-08-31 3250 3280 3212 3214 286
1974-09-01 3222 3224 3180 3208 166
1974-09-02 3160 3182 3110 3118 452
1974-09-03 3130 3140 3050 3062 377
1974-09-04 3110 3110 3060 3070 261
1974-09-05 3110 3116 3048 3050 184
1974-09-06 3030 3060 3020 3060 112
1974-09-07 3100 3128 3100 3118 126
1974-09-08 3144 3150 3070 3082 277
1974-09-09 3120 3120 3050 3050 195
1974-09-10 3050 3050 3020 3050 166
1974-09-11 3080 3170 3080 3150 223
1974-09-12 3160 3166 3040 3116 173
1974-09-13 2930 2948 2916 2938 2969
1974-09-14 2924 3000 2900 2932 4393
1974-09-15 2870 2884 2824 2848 3071
1974-09-16 2794 2888 2788 2870 3085
1974-09-17 2880 2946 2880 2916 3054
1974-09-18 2884 2900 2850 2854 2034
1974-09-19 2850 2866 2824 2834 896
1974-09-20 2846 2866 2816 2834 1710
1974-09-21 2840 2866 2800 2826 1638
1974-09-22 2844 2876 2816 2834 3773
1974-09-23 2830 2870 2816 2862 1558
1974-09-24 2856 2886 2794 2798 2807
1974-09-25 2800 2830 2760 2764 4257
1974-09-26 2700 2746 2662 2670 4491
1974-09-27 2650 2660 2570 2600 4465
1974-09-28 2604 2628 2560 2584 6062
1974-09-29 2600 2678 2600 2674 2578
1974-09-30 2654 2700 2652 2656 2223
1974-10-01 2590 2598 2520 2544 3089
1974-10-02 2570 2624 2570 2594 2202
1974-10-03 2520 2690 2504 2604 3186
1974-10-04 2620 2656 2606 2646 1399
1974-10-05 2656 2728 2620 2716 1461
1974-10-06 2664 2692 2648 2654 1722
1974-10-07 2670 2700 2610 2690 479
1974-10-08 2660 2690 2614 2646 318
1974-10-09 2640 2660 2620 2626 263
1974-10-10 2654 2654 2636 2640 147
1974-10-11 2600 2600 2550 2550 367
1974-10-12 2540 2542 2444 2446 650
1974-10-13 2450 2490 2434 2486 227
1974-10-14 2450 2550 2450 2500 115
1974-10-15 2490 2564 2490 2554 182
1974-10-16 2524 2534 2524 2534 133
1974-10-17 2450 2462 2430 2450 105
1974-10-18 2448 2460 2436 2458 141
1974-10-19 2424 2430 2420 2420 79
1974-10-20 2398 2470 2398 2460 143
1974-10-21 2450 2470 2450 2458 104
1974-10-22 2450 2466 2450 2466 118
1974-10-23 2460 2500 2460 2500 117
1974-10-24 2460 2490 2460 2486 88
1974-10-25 2294 2310 2266 2274 2423
1974-10-26 2250 2376 2250 2334 4039
1974-10-27 2300 2368 2300 2330 2994
1974-10-28 2370 2500 2366 2488 5654
1974-10-29 2476 2526 2466 2520 3845
1974-10-30 2508 2520 2448 2494 2333
1974-10-31 2500 2512 2430 2470 2029
1974-11-01 2550 2560 2502 2506 2695
1974-11-02 2536 2548 2436 2440 2773
1974-11-03 2336 2378 2240 2282 5215
1974-11-04 2284 2298 2252 2256 2134
1974-11-05 2256 2310 2256 2278 2475
1974-11-06 2304 2338 2304 2316 2191
1974-11-07 2300 2310 2266 2280 923
1974-11-08 2270 2374 2270 2322 1458
1974-11-09 2350 2356 2250 2270 1175
1974-11-10 2350 2386 2334 2378 1916
1974-11-11 2344 2384 2332 2354 1135
1974-11-12 2310 2344 2286 2336 1178
1974-11-13 2336 2366 2308 2324 1996
1974-11-14 2340 2360 2282 2294 2511
1974-11-15 2274 2306 2254 2302 2791
1974-11-16 2280 2306 2234 2238 3541
1974-11-17 2240 2282 2224 2240 1192
1974-11-18 2260 2294 2256 2266 386
1974-11-19 2270 2298 2266 2270 336
1974-11-20 2290 2366 2288 2350 904
1974-11-21 2362 2424 2350 2418 553
1974-11-22 2420 2460 2406 2440 239
1974-11-23 2440 2458 2430 2448 101
1974-11-24 2420 2442 2418 2418 109
1974-11-25 2410 2434 2404 2404 97
1974-11-26 2390 2420 2362 2420 122
1974-11-27 2448 2448 2440 2440 109
1974-11-28 2410 2424 2410 2420 81
1974-11-29 2430 2446 2430 2446 98
1974-11-30 2450 2454 2426 2428 210
1974-12-01 2430 2450 2430 2436 168
1974-12-02 2416 2432 2408 2408 96
1974-12-03 2470 2500 2470 2500 55
1974-12-04 2500 2540 2500 2540 72
1974-12-05 2604 2670 2594 2654 7105
1974-12-06 2650 2660 2604 2630 2991
1974-12-07 2608 2630 2596 2600 1480
1974-12-08 2586 2636 2580 2616 1930
1974-12-09 2626 2644 2586 2598 2286
1974-12-10 2576 2608 2530 2548 3261
1974-12-11 2566 2606 2550 2600 1825
1974-12-12 2596 2628 2580 2586 1876
1974-12-13 2574 2580 2540 2572 1425
1974-12-14 2574 2596 2552 2580 1004
1974-12-15 2578 2578 2530 2534 1406
1974-12-16 2512 2538 2484 2514 4390
1974-12-17 2656 2684 2630 2654 3177
1974-12-18 2624 2642 2610 2628 1235
1974-12-19 2650 2664 2632 2636 3294
1974-12-20 2584 2606 2576 2588 1544
1974-12-21 2600 2610 2580 2600 1757
1974-12-22 2560 2598 2556 2590 1817
1974-12-23 2594 2618 2580 2616 1759
1974-12-24 2564 2584 2532 2556 2363
1974-12-25 2534 2540 2500 2536 1347
1974-12-26 2504 2510 2452 2470 4301
1974-12-27 2430 2444 2404 2414 2706
1974-12-28 2390 2398 2342 2360 2824
1974-12-29 2350 2374 2304 2308 843
1974-12-30 2272 2280 2200 2216 632
1974-12-31 2200 2272 2200 2240 238
1975-01-01 2266 2290 2244 2260 405
1975-01-02 2210 2240 2210 2226 150
1975-01-03 2234 2240 2124 2132 298
1975-01-04 2136 2148 2136 2140 108
1975-01-05 2154 2220 2154 2208 199
1975-01-06 2248 2268 2240 2268 184
1975-01-07 2284 2300 2280 2286 134
1975-01-08 2280 2280 2240 2246 135
1975-01-09 2190 2190 2090 2090 193
1975-01-10 2120 2160 2102 2102 72
1975-01-11 2140 2154 2140 2154 64
1975-01-12 2140 2164 2120 2144 128
1975-01-13 2180 2180 2180 2180 68
1975-01-14 2200 2206 2200 2206 64
1975-01-15 2220 2220 2152 2174 77
1975-01-16 2210 2228 2210 2228 57
1975-01-17 2196 2210 2150 2204 2537
1975-01-18 2122 2130 2062 2070 3947
1975-01-19 2090 2106 2084 2094 1472
1975-01-20 2110 2124 2096 2102 1394
1975-01-21 2110 2188 2110 2176 3475
1975-01-22 2126 2130 2100 2108 1905
1975-01-23 2136 2148 2120 2134 1206
1975-01-24 2156 2194 2154 2174 1793
1975-01-25 2162 2198 2162 2170 1434
1975-01-26 2146 2150 2090 2122 2548
1975-01-27 2062 2090 2048 2080 2848
1975-01-28 2000 2030 1990 2016 3206
1975-01-29 2058 2064 1998 2004 2332
1975-01-30 1992 2044 1992 2032 3152
1975-01-31 2046 2056 2022 2034 1702
1975-02-01 2050 2070 2004 2010 2607
1975-02-02 2024 2034 1996 2008 1371
1975-02-03 2010 2014 1972 1986 2115
1975-02-04 1950 1986 1950 1970 1507
1975-02-05 1954 1980 1954 1962 1413
1975-02-06 1974 2002 1972 1994 1020
1975-02-07 1974 1990 1964 1972 868
1975-02-08 1980 2016 1980 2004 1802
1975-02-09 2030 2040 2020 2036 1628
1975-02-10 2040 2052 1982 1988 2565
1975-02-11 1984 2012 1976 1988 1057
1975-02-12 2002 2060 2000 2054 1637
1975-02-13 2044 2076 1998 2028 3096
1975-02-14 2038 2044 1990 1998 1611
1975-02-15 1970 1976 1912 1922 4360
1975-02-16 1924 1950 1918 1946 1399
1975-02-17 1948 1966 1938 1946 935
1975-02-18 1938 1966 1938 1954 1116
1975-02-19 1930 1952 1926 1948 2021
1975-02-20 1930 1946 1906 1930 1095
1975-02-21 1956 1960 1920 1928 4551
1975-02-22 1946 1946 1926 1928 977
1975-02-23 1922 1946 1922 1930 1811
1975-02-24 1940 1996 1940 1994 1987
1975-02-25 1988 2004 1972 1992 2133
1975-02-26 1978 2018 1976 1998 2173
1975-02-27 1994 2000 1960 1962 3360
1975-02-28 1924 1930 1880 1882 4777
1975-03-01 1876 1898 1866 1874 1152
1975-03-02 1876 1884 1858 1860 625
1975-03-03 1842 1856 1840 1846 403
1975-03-04 1854 1876 1832 1866 1037
1975-03-05 1860 1896 1850 1876 333
1975-03-06 1880 1880 1836 1836 168
1975-03-07 1800 1824 1800 1812 230
1975-03-08 1814 1814 1780 1798 134
1975-03-09 1788 1836 1788 1836 154
1975-03-10 1826 1880 1824 1874 294
1975-03-11 1864 1884 1864 1872 267
1975-03-12 1910 1916 1866 1866 161
1975-03-13 1900 1900 1882 1882 201
1975-03-14 1890 1920 1890 1906 179
1975-03-15 1920 1930 1916 1930 251
1975-03-16 1940 2000 1940 1964 499
1975-03-17 1948 1968 1946 1948 84
1975-03-18 1970 1970 1890 1930 104
1975-03-19 1910 1976 1882 1882 133
1975-03-20 1820 1832 1792 1796 4637
1975-03-21 1802 1816 1794 1806 1553
1975-03-22 1816 1830 1794 1798 1425
1975-03-23 1802 1840 1802 1830 2091
1975-03-24 1822 1840 1814 1836 1862
1975-03-25 1836 1846 1828 1844 1449
1975-03-26 1834 1848 1834 1844 488
1975-03-27 1838 1850 1830 1848 438
1975-03-28 1840 1850 1838 1840 678
1975-03-29 1832 1842 1822 1826 896
1975-03-30 1840 1856 1820 1850 864
1975-03-31 1850 1876 1848 1858 2102
1975-04-01 1860 1874 1810 1824 2590
1975-04-02 1824 1884 1818 1880 4262
1975-04-03 1872 1904 1868 1898 3320
1975-04-04 1906 1914 1876 1880 2293
1975-04-05 1874 1918 1874 1914 3640
1975-04-06 1920 1940 1918 1934 3255
1975-04-07 1936 2020 1936 2012 6965
1975-04-08 2020 2024 1970 1974 5111
1975-04-09 1978 1994 1950 1954 2348
1975-04-10 1930 1938 1902 1916 3568
1975-04-11 1918 1956 1912 1944 2437
1975-04-12 1940 1946 1872 1874 4724
1975-04-13 1850 1878 1850 1864 2853
1975-04-14 1864 1910 1856 1908 1412
1975-04-15 1934 1960 1902 1906 2599
1975-04-16 1924 1956 1920 1942 1132
1975-04-17 1954 1992 1954 1984 3263
1975-04-18 1998 2002 1924 1936 2440
1975-04-19 1952 1970 1944 1952 1685
1975-04-20 1942 1950 1916 1924 1913
1975-04-21 1922 1940 1912 1922 1400
1975-04-22 1920 1934 1908 1924 5249
1975-04-23 1924 1958 1924 1948 2368
1975-04-24 1954 1966 1926 1930 2298
1975-04-25 1900 1910 1880 1884 3087
1975-04-26 1872 1912 1872 1904 2193
1975-04-27 1902 1950 1902 1946 3048
1975-04-28 1946 1960 1928 1948 3025
1975-04-29 1922 1936 1906 1912 5126
1975-04-30 1912 1962 1912 1960 1881
1975-05-01 1952 1990 1952 1962 970
1975-05-02 1958 2000 1958 1994 720
1975-05-03 1994 2050 1994 2030 879
1975-05-04 2030 2106 2030 2092 969
1975-05-05 2082 2102 2066 2092 290
1975-05-06 2100 2120 2080 2118 178
1975-05-07 2088 2114 2084 2086 314
1975-05-08 2060 2096 2054 2096 181
1975-05-09 2150 2168 2142 2142 261
1975-05-10 2150 2150 2120 2146 207
1975-05-11 2220 2250 2196 2246 266
1975-05-12 2210 2220 2194 2208 154
1975-05-13 2204 2232 2188 2232 127
1975-05-14 2184 2210 2184 2190 336
1975-05-15 2180 2250 2180 2250 163
1975-05-16 2206 2210 2194 2200 181
1975-05-17 2180 2184 2160 2164 218
1975-05-18 2250 2250 2208 2226 159
1975-05-19 2238 2238 2150 2160 315
1975-05-20 2110 2140 2110 2130 145
1975-05-21 2140 2172 2100 2108 4180
1975-05-22 2050 2080 2050 2060 4451
1975-05-23 2068 2080 2022 2046 6444
1975-05-24 2050 2094 2050 2068 2636
1975-05-25 2240 2260 2186 2194 4821
1975-05-26 2224 2246 2196 2234 2516
1975-05-27 2296 2340 2286 2328 4838
1975-05-28 2308 2388 2300 2380 4943
1975-05-29 2400 2408 2358 2366 2838
1975-05-30 2316 2350 2310 2326 2334
1975-05-31 2374 2460 2374 2430 4250
1975-06-01 2456 2486 2442 2470 3792
1975-06-02 2560 2570 2506 2528 4484
1975-06-03 2520 2568 2494 2562 5679
1975-06-04 2556 2560 2494 2506 4588
1975-06-05 2460 2668 2454 2658 3706
1975-06-06 2632 2728 2604 2618 5578
1975-06-07 2598 2680 2592 2630 6396
1975-06-08 2612 2620 2590 2604 3800
1975-06-09 2560 2590 2512 2518 1866
1975-06-10 2492 2572 2492 2546 797
1975-06-11 2590 2650 2590 2632 700
1975-06-12 2658 2688 2626 2630 314
1975-06-13 2620 2640 2590 2612 213
1975-06-14 2584 2588 2512 2576 220
1975-06-15 2524 2540 2490 2496 402
1975-06-16 2500 2550 2498 2498 205
1975-06-17 2534 2534 2484 2506 186
1975-06-18 2520 2556 2520 2556 167
1975-06-19 2600 2610 2580 2600 286
1975-06-20 2600 2600 2564 2576 238
1975-06-21 2576 2584 2560 2580 204
1975-06-22 2610 2610 2500 2522 110
1975-06-23 2538 2566 2530 2566 77
1975-06-24 2590 2590 2430 2430 165
1975-06-25 2440 2546 2440 2546 72
1975-06-26 2570 2620 2570 2602 128
1975-06-27 2626 2626 2566 2580 72
1975-06-28 2708 2780 2690 2778 120
1975-06-29 2760 2760 2750 2750 59
1975-06-30 2950 2970 2852 2866 5688
1975-07-01 2890 2904 2836 2894 4920
1975-07-02 2840 2986 2826 2954 4721
1975-07-03 2960 2970 2866 2892 4095
1975-07-04 2856 3004 2856 2982 5266
1975-07-05 2952 2964 2902 2932 3347
1975-07-06 2950 3020 2950 2986 3254
1975-07-07 3032 3050 2920 2928 5347
1975-07-08 2964 2994 2822 2848 7334
1975-07-09 2856 2924 2852 2880 3751
1975-07-10 2784 2850 2766 2830 5515
1975-07-11 2820 2838 2660 2694 11312
1975-07-12 2634 2646 2566 2634 5133
1975-07-13 2550 2716 2550 2702 4097
1975-07-14 2660 2690 2612 2626 2707
1975-07-15 2578 2664 2578 2622 2789
1975-07-16 2578 2596 2464 2470 4405
1975-07-17 2480 2508 2350 2362 3580
1975-07-18 2430 2450 2410 2436 2568
1975-07-19 2470 2498 2418 2444 2685
1975-07-20 2434 2448 2370 2382 2465
1975-07-21 2368 2432 2322 2412 3827
1975-07-22 2416 2448 2400 2444 1326
1975-07-23 2430 2468 2422 2428 588
1975-07-24 2398 2484 2394 2462 350
1975-07-25 2462 2510 2360 2370 369
1975-07-26 2390 2398 2326 2344 363
1975-07-27 2330 2360 2324 2360 133
1975-07-28 2380 2452 2380 2452 326
1975-07-29 2496 2496 2444 2444 178
1975-07-30 2410 2450 2410 2424 218
1975-07-31 2450 2450 2428 2442 113
1975-08-01 2460 2572 2460 2568 100
1975-08-02 2570 2610 2544 2604 181
1975-08-03 2600 2600 2524 2540 130
1975-08-04 2540 2580 2540 2578 115
1975-08-05 2530 2530 2530 2530 64
1975-08-06 2510 2510 2416 2432 66
1975-08-07 2360 2364 2340 2360 140
1975-08-08 2410 2456 2400 2456 77
1975-08-09 2516 2516 2414 2414 71
1975-08-10 2460 2470 2450 2452 166
1975-08-11 2520 2536 2444 2450 3305
1975-08-12 2456 2496 2426 2488 2956
1975-08-13 2470 2498 2450 2474 2040
1975-08-14 2470 2490 2458 2484 944
1975-08-15 2488 2538 2460 2518 2496
1975-08-16 2520 2580 2404 2536 11955
1975-08-17 2486 2556 2486 2534 2376
1975-08-18 2538 2568 2520 2550 2543
1975-08-19 2602 2614 2572 2582 3069
1975-08-20 2552 2558 2512 2532 2607
1975-08-21 2538 2542 2488 2496 2438
1975-08-22 2478 2496 2444 2448 2929
1975-08-23 2426 2460 2416 2424 2768
1975-08-24 2362 2384 2330 2352 7198
1975-08-25 2382 2390 2256 2268 4503
1975-08-26 2300 2308 2248 2274 1810
1975-08-27 2274 2290 2236 2258 1424
1975-08-28 2228 2268 2228 2240 1776
1975-08-29 2256 2306 2254 2282 1870
1975-08-30 2158 2180 2120 2126 2984
1975-08-31 2140 2170 2140 2148 2994
1975-09-01 2180 2184 2156 2168 5254
1975-09-02 2144 2162 2130 2146 3301
1975-09-03 2120 2230 2120 2228 1416
1975-09-04 2216 2266 2216 2238 415
1975-09-05 2230 2284 2222 2280 469
1975-09-06 2320 2350 2300 2346 203
1975-09-07 2362 2670 2362 2660 490
1975-09-08 2670 2676 2610 2624 234
1975-09-09 2530 2556 2440 2474 86
1975-09-10 2480 2490 2402 2412 79
1975-09-11 2470 2542 2460 2542 109
1975-09-12 2600 2600 2548 2548 65
1975-09-13 2540 2580 2520 2580 109
1975-09-14 2580 2580 2500 2500 60
1975-09-15 2554 2554 2554 2554 57
1975-09-16 2460 2460 2420 2460 62
1975-09-17 2470 2470 2470 2470 67
1975-09-18 2434 2460 2428 2428 66
1975-09-19 2440 2504 2416 2504 81
1975-09-20 2504 2540 2504 2528 80
1975-09-21 2636 2642 2564 2604 4477
1975-09-22 2624 2672 2614 2652 3450
1975-09-23 2646 2652 2570 2582 4021
1975-09-24 2530 2546 2510 2522 3310
1975-09-25 2522 2554 2494 2508 3344
1975-09-26 2518 2546 2502 2520 1850
1975-09-27 2598 2610 2574 2590 2034
1975-09-28 2596 2604 2554 2576 2782
1975-09-29 2556 2570 2542 2548 2041
1975-09-30 2520 2636 2520 2614 3768
1975-10-01 2594 2610 2552 2562 2496
1975-10-02 2570 2574 2472 2480 4714
1975-10-03 2472 2534 2446 2520 5068
1975-10-04 2502 2530 2466 2490 2834
1975-10-05 2488 2548 2488 2534 2672
1975-10-06 2534 2554 2470 2482 4564
1975-10-07 2502 2526 2484 2502 1522
1975-10-08 2492 2500 2424 2428 3976
1975-10-09 2416 2440 2400 2404 2669
1975-10-10 2406 2442 2396 2406 2900
1975-10-11 2426 2456 2422 2442 3884
1975-10-12 2390 2402 2328 2336 5197
1975-10-13 2340 2360 2292 2304 5750
1975-10-14 2306 2368 2306 2350 2742
1975-10-15 2360 2366 2302 2326 2922
1975-10-16 2286 2404 2286 2398 4114
1975-10-17 2390 2422 2340 2368 2896
1975-10-18 2372 2408 2356 2370 1909
1975-10-19 2410 2460 2406 2454 2975
1975-10-20 2460 2478 2412 2428 2974
1975-10-21 2438 2450 2422 2436 1273
1975-10-22 2408 2424 2344 2348 2425
1975-10-23 2318 2334 2290 2296 3435
1975-10-24 2250 2312 2250 2306 2791
1975-10-25 2324 2344 2306 2322 1974
1975-10-26 2340 2358 2290 2294 5845
1975-10-27 2310 2326 2276 2284 2105
1975-10-28 2274 2330 2272 2302 2292
1975-10-29 2320 2348 2306 2316 2659
1975-10-30 2330 2374 2330 2344 2598
1975-10-31 2370 2376 2326 2330 2003
1975-11-01 2324 2334 2308 2320 2448
1975-11-02 2344 2358 2328 2332 3310
1975-11-03 2342 2372 2320 2358 5283
1975-11-04 2360 2506 2360 2486 2403
1975-11-05 2470 2640 2460 2624 969
1975-11-06 2630 2662 2570 2584 636
1975-11-07 2612 2626 2594 2616 340
1975-11-08 2626 2650 2560 2626 308
1975-11-09 2600 2626 2590 2620 164
1975-11-10 2660 2660 2548 2560 228
1975-11-11 2554 2586 2554 2568 95
1975-11-12 2550 2550 2486 2504 456
1975-11-13 2560 2574 2462 2490 129
1975-11-14 2490 2494 2428 2434 138
1975-11-15 2432 2452 2376 2394 110
1975-11-16 2390 2400 2376 2394 96
