"Index" "Open" "High" "Low" "Close" "Volume"
1972-09-28 446.3 447.3 443.8 445.5 18767
1972-09-29 446 448.8 444.9 445.5 14637
1972-09-30 447 447.4 444.9 445.5 12671
1972-10-01 444.5 445.5 442.5 445.1 18272
1972-10-02 444 444.2 443 443.1 11423
1972-10-03 443 443.5 442.5 443.4 10312
1972-10-04 443.5 444.4 443 443.8 7352
1972-10-05 443 443.3 440 440.7 20692
1972-10-06 439 440.1 437.7 439.8 23037
1972-10-07 439.4 440 439.2 439.8 11499
1972-10-08 439.9 443.4 439.8 442.6 22221
1972-10-09 441.1 443.4 441.1 442.4 12348
1972-10-10 441.5 442.7 441.3 441.8 13751
1972-10-11 442.3 444.7 442 442.5 23672
1972-10-12 442.7 444 442 443.6 16785
1972-10-13 443.4 444.5 443 444.1 6599
1972-10-14 444.2 444.2 441.5 442.4 4161
1972-10-15 443.1 443.5 441.7 442.3 1517
1972-10-16 442 442.3 440.8 441.7 2090
1972-10-17 441.9 442.6 441.2 441.3 1334
1972-10-18 442.5 442.5 441.5 441.5 2280
1972-10-19 441.5 452 441.5 451.1 2758
1972-10-20 450 450.5 447.7 448.1 1489
1972-10-21 448.1 451.2 447.5 448.6 1243
1972-10-22 449 450.2 446 446.7 441
1972-10-23 447 448.3 445.9 445.9 221
1972-10-24 445.9 446.2 434.5 434.8 701
1972-10-25 434.8 437.5 434.8 436.7 444
1972-10-26 438.8 439.2 437.9 437.9 678
1972-10-27 437.5 439.6 436 438.5 427
1972-10-28 438.5 440.7 438.5 440.4 209
1972-10-29 440.2 441.3 440.2 441 179
1972-10-30 441 443.4 441 442.9 149
1972-10-31 444.4 445.3 443.7 445 657
1972-11-01 445.5 445.5 444.5 444.6 135
1972-11-02 446.9 447.5 445.1 446.9 10005
1972-11-03 448.5 450 446.6 447.7 20334
1972-11-04 448.2 448.2 444.5 445.8 12597
1972-11-05 445 445.4 443.3 444.9 12128
1972-11-06 445.5 446.8 445.1 445.9 8001
1972-11-07 449.2 452 448.3 451.2 30427
1972-11-08 451.5 451.8 448.3 449.6 17090
1972-11-09 448.7 449.3 447.7 448.6 11339
1972-11-10 449.5 449.9 447.5 447.8 9421
1972-11-11 446.9 447.4 446 446.4 10076
1972-11-12 449.7 450.1 447.7 448.7 10498
1972-11-13 448 448.9 447.5 448.7 7986
1972-11-14 448.3 457 448.2 456.5 34244
1972-11-15 455.5 456.3 454.2 455.6 26233
1972-11-16 455.8 455.8 453.1 453.7 13437
1972-11-17 451.2 451.7 444.5 449 36515
1972-11-18 448.6 450.6 448.3 449.3 11856
1972-11-19 449.5 450.4 448.1 448.2 10286
1972-11-20 452.7 456.3 452.7 455.1 23749
1972-11-21 453.8 454 451.6 452.2 18780
1972-11-22 452.2 453 451.5 452 13215
1972-11-23 459.5 465 457.8 462.7 5983
1972-11-24 460.7 464.5 457.5 460.8 1636
1972-11-25 459.8 461.5 458.7 460.3 739
1972-11-26 459 462.5 458 459.3 916
1972-11-27 462.5 463.5 460 460.8 551
1972-11-28 462.2 463.2 461.9 462.6 946
1972-11-29 470 477 467.5 475.6 2061
1972-11-30 491 497 487 491.4 1181
1972-12-01 483.5 487 483.5 485.4 449
1972-12-02 491.5 491.5 483 484.8 873
1972-12-03 483 487.1 483 487.1 310
1972-12-04 487 487 481.5 483.5 491
1972-12-05 477.8 479.5 475 476.4 482
1972-12-06 474.8 479 473 474.8 205
1972-12-07 478 480.4 477.2 478.9 224
1972-12-08 482 484.6 481 484.6 237
1972-12-09 487 487 473 473.9 297
1972-12-10 476.8 481 476.8 480.7 177
1972-12-11 479.7 482 478 480.1 282
1972-12-12 477 482 477 480.9 488
1972-12-13 486 489.7 485.3 488.3 1114
1972-12-14 491 492.5 483.5 489.5 3136
1972-12-15 495.6 510 493.5 507.6 3285
1972-12-16 509 511 505 506.4 2494
1972-12-17 504.5 519 503 511.6 1945
1972-12-18 520 527 517 524.3 3339
1972-12-19 519.7 521.2 509 512.5 2100
1972-12-20 513 514.5 509.4 510.5 1352
1972-12-21 514.3 521.8 502.5 505.8 3388
1972-12-22 507 510 500 509 3221
1972-12-23 520 527 512.5 517.5 1712
1972-12-24 511.5 518.5 511.5 518.3 1613
1972-12-25 521 521 514 516.2 957
1972-12-26 516.5 517.5 512.8 514.9 1782
1972-12-27 516.5 521.5 516 518.6 1056
1972-12-28 529 537 529 536.9 1098
1972-12-29 540 541.5 533.5 541.1 1247
1972-12-30 534 538 531 531.9 1111
1972-12-31 533.5 535 531.8 531.9 1576
1973-01-01 529 535 528.5 534.7 1812
1973-01-02 532.3 533.8 526 527.3 2311
1973-01-03 530 530 518.5 522.9 3757
1973-01-04 522 526 522 525.7 1201
1973-01-05 524.6 525.9 523.4 525.2 816
1973-01-06 527 537.5 527 537.2 905
1973-01-07 558.6 558.6 531.5 533.7 510
1973-01-08 538.8 540 538.2 539 147
1973-01-09 538 541.1 536 541.1 685
1973-01-10 538.5 543 537 538.8 435
1973-01-11 537.5 537.5 525 529.5 405
1973-01-12 531 532 531 531 113
1973-01-13 533 533.8 532.6 533.8 93
1973-01-14 530 530 526.5 527.2 220
1973-01-15 522.8 526 521 525.6 257
1973-01-16 525 525 524.4 524.4 278
1973-01-17 520 522 516.5 519.3 442
1973-01-18 522 527 522 526.1 142
1973-01-19 525 525.6 524 525.2 94
1973-01-20 527.5 528 524 526.1 331
1973-01-21 524.4 525 515 515.1 266
1973-01-22 511.5 513 507.5 507.5 277
1973-01-23 510.2 511.6 507.5 508.1 426
1973-01-24 511.5 512.7 510.3 511.8 230
1973-01-25 506 506 503 505.3 368
1973-01-26 506.5 510.9 505.2 509.9 38932
1973-01-27 501 507.3 500 505.5 34721
1973-01-28 505 509.5 504.8 506.8 28207
1973-01-29 510 512.9 509.7 511.1 27399
1973-01-30 509.5 509.9 506 508.5 27096
1973-01-31 507.5 513.2 507.4 512.4 24687
1973-02-01 510 512.6 510 510.6 18413
1973-02-02 512 513.8 504.5 507.5 28009
1973-02-03 508 509.8 505.8 509.3 23065
1973-02-04 508.5 509.7 506.5 509.4 21517
1973-02-05 510 510.8 507.2 509.5 21059
1973-02-06 511 511.5 498 498.8 35885
1973-02-07 496.5 496.5 487.5 489.3 50234
1973-02-08 491 494.8 489.7 494.5 32086
1973-02-09 493.8 495.1 486.4 488.5 30365
1973-02-10 488.2 492.5 487.5 491.7 27203
1973-02-11 491.3 492.3 476.5 479.3 46991
1973-02-12 480.5 483.4 479.8 482.4 25947
1973-02-13 481.5 486.2 479.3 485.6 34569
1973-02-14 482.3 484.5 480.3 483.1 23258
1973-02-15 499 500 488.8 493.8 3631
1973-02-16 492 492.7 487.2 489.3 2081
1973-02-17 487 495 485.6 492.2 1753
1973-02-18 491.3 491.6 483 488.4 1179
1973-02-19 489 490.5 487.5 489.5 491
1973-02-20 490.5 490.9 487 490.3 554
1973-02-21 489.1 489.1 485.5 487 208
1973-02-22 487.3 493 487 489.8 561
1973-02-23 488 490.8 488 490.6 197
1973-02-24 490.8 493.5 490 492.8 431
1973-02-25 495 496.4 494 495.5 454
1973-02-26 494.5 495 492 493.2 211
1973-02-27 493.5 494 491.5 492.2 342
1973-02-28 492 495 491.5 494.8 543
1973-03-01 495.5 495.5 491.5 492.9 375
1973-03-02 498 498 493 493.1 1455
1973-03-03 493.5 493.5 488.5 488.7 314
1973-03-04 490 490.5 489 490.2 335
1973-03-05 491.5 492 488.5 489.3 666
1973-03-06 491.5 492.8 490.8 492.4 13671
1973-03-07 493.8 508 493.6 506.9 33928
1973-03-08 503 505.5 500.1 505 28559
1973-03-09 505.4 506.7 501.8 502.2 33755
1973-03-10 500.8 504.7 500.2 504.3 29553
1973-03-11 505.4 506.2 502.3 503.9 29708
1973-03-12 503.5 508 499 507.5 42114
1973-03-13 511.5 514 509.6 510.2 36769
1973-03-14 511.2 512.7 509.9 512.3 21722
1973-03-15 517 522 516 519.2 58459
1973-03-16 515 518.3 514.2 517 33882
1973-03-17 515 518.3 514.7 517.3 23488
1973-03-18 524.5 525 521.6 523.3 25637
1973-03-19 519 519.2 505 508.2 51295
1973-03-20 508.2 509.6 506.6 508.8 25605
1973-03-21 511 512.2 508.3 508.9 24607
1973-03-22 506 506 500.4 505.3 31555
1973-03-23 505.9 512.9 505.5 511.3 30101
1973-03-24 510.3 515.8 509.5 515.7 29498
1973-03-25 517 517 507 510.6 38111
1973-03-26 510.3 513 508.6 512.6 11121
1973-03-27 500 506 497 505.1 4243
1973-03-28 505.5 508 501 501.1 1917
1973-03-29 499.5 504.5 499 503.6 1374
1973-03-30 503.8 505.7 502 502.7 847
1973-03-31 502.7 506 498 504.8 972
1973-04-01 502.5 504.5 502 504.1 510
1973-04-02 504.3 506.3 502 503.9 357
1973-04-03 503 504.5 502 503 316
1973-04-04 502.8 503.5 501 502.4 234
1973-04-05 503 503 495 495.3 613
1973-04-06 496 498.5 496 497.8 420
1973-04-07 496.8 497.5 491 492.1 1125
1973-04-08 492.5 493.5 489 492.7 575
1973-04-09 493.2 501 493 500.2 359
1973-04-10 498 507 498 506.2 172
1973-04-11 504.5 505 502 502.2 352
1973-04-12 501.4 503 499.8 502.4 827
1973-04-13 508.5 509 503 503.1 513
1973-04-14 506 509.3 503.2 508.5 26704
1973-04-15 508 509.2 506.3 507.4 21896
1973-04-16 506.6 507.4 504.8 505.6 13326
1973-04-17 505.5 509.3 505.3 509.1 16979
1973-04-18 509 512.8 507.3 512.2 33267
1973-04-19 512.5 514.4 508.7 508.8 41117
1973-04-20 508.5 509.7 506.9 507.8 21999
1973-04-21 506.5 508 505.1 506.5 21197
1973-04-22 506.5 509 505.9 508.3 24369
1973-04-23 508.3 509.8 508 508.3 16322
1973-04-24 509.8 511.8 508.3 509.9 28715
1973-04-25 510.2 510.7 503 505 37548
1973-04-26 506 507.8 505.8 506.6 15569
1973-04-27 507.5 508 503.2 506.8 29395
1973-04-28 506.8 507.2 504.3 506 19146
1973-04-29 506 506.3 504.6 506.1 12718
1973-04-30 505.8 506.7 504.8 506.3 10929
1973-05-01 507 511.2 506.9 510.8 28789
1973-05-02 511 514.5 508.6 514.1 35359
1973-05-03 515 516.2 512.8 513.3 32921
1973-05-04 511.8 512.5 510.9 511.7 16393
1973-05-05 516 524 515.7 522.7 20253
1973-05-06 523.8 525 520.5 521.1 10446
1973-05-07 521 522.5 517.5 518 3094
1973-05-08 517.6 520.3 516.8 518 2008
1973-05-09 518.7 522.2 515.4 518 1908
1973-05-10 518 519.7 515 519.7 605
1973-05-11 520.3 523 518 518.5 520
1973-05-12 520.5 522.5 518.5 522.2 469
1973-05-13 519.8 523.5 519 520.2 482
1973-05-14 521 535 521 532.8 1587
1973-05-15 536 536.5 531.3 533 524
1973-05-16 535.5 538 534.3 537.1 332
1973-05-17 541 552 541 550.9 571
1973-05-18 545.5 545.5 543 543.1 1121
1973-05-19 541 545 538 544.1 497
1973-05-20 543.1 554.5 543.1 553.6 323
1973-05-21 552 552.5 544.5 547.6 204
1973-05-22 547 549.8 545 549.4 223
1973-05-23 553 563.5 550.5 560.4 211
1973-05-24 566.5 570 562 562.9 425
1973-05-25 577 578.5 543.5 543.5 423
1973-05-26 553 553.2 546 552.2 229
1973-05-27 552.5 555.5 549.2 553.5 32851
1973-05-28 554 557.8 551.3 556.5 37751
1973-05-29 555.5 561.2 555 559.5 32483
1973-05-30 560.5 566.8 559.3 565.2 22196
1973-05-31 565 567 556 560.8 32073
1973-06-01 557.5 561.7 556.5 560.8 18594
1973-06-02 556 561.7 555.5 559.6 34051
1973-06-03 557 558.4 554.5 556.7 30671
1973-06-04 556 558 554 557.7 31016
1973-06-05 561 564.8 559.3 561.5 36517
1973-06-06 562 566 559 560 39867
1973-06-07 563.3 566 561.5 565.6 28219
1973-06-08 569.5 576.6 567.2 576.2 62969
1973-06-09 575.5 577.8 568.5 572.8 46077
1973-06-10 572.5 578.8 569.5 578.3 42324
1973-06-11 581 581.5 571.7 573.3 65477
1973-06-12 571 572.8 568.7 570.3 35618
1973-06-13 572.5 572.8 562 564.6 45668
1973-06-14 558.5 558.5 545.5 551.8 58383
1973-06-15 549 551.4 546.2 548.5 38919
1973-06-16 552.2 556.4 551.5 553.4 37078
1973-06-17 551.3 552.6 548.8 550.2 9082
1973-06-18 545 547 541.5 546.2 4575
1973-06-19 548.5 560 548.5 556.2 2182
1973-06-20 552.5 554 550 550.2 2021
1973-06-21 550 555 550 553.1 1000
1973-06-22 553.5 555 553 553.8 415
1973-06-23 552.8 558.6 549.5 549.5 850
1973-06-24 553.5 558.3 552.3 557.9 848
1973-06-25 558.5 558.5 552.5 556.6 783
1973-06-26 556.5 564.5 556.5 563.7 491
1973-06-27 553.5 558 553.5 554.6 436
1973-06-28 548 552.8 548 552.6 189
1973-06-29 553.5 553.5 547.5 547.9 166
1973-06-30 548.5 553 547.5 547.8 262
1973-07-01 552 552.2 550.8 550.9 236
1973-07-02 550.8 550.8 545 545 172
1973-07-03 543 543 534 537.4 380
1973-07-04 539.5 541.5 538 540.4 272
1973-07-05 543 543.2 540.5 543.2 141
1973-07-06 540 541.5 539.5 540.8 268
1973-07-07 542.8 548 542.8 547.1 342
1973-07-08 548 553.4 547.5 549.4 27802
1973-07-09 549.5 552.5 547.5 552.2 25657
1973-07-10 551.5 553.5 547.8 549.4 31848
1973-07-11 550.2 551 548 548.8 16497
1973-07-12 544.5 550.8 543.8 550.3 27627
1973-07-13 547.2 548.2 542.5 546.1 33911
1973-07-14 543.5 550.3 543 546.8 29943
1973-07-15 546.5 548.3 544.5 546.8 22207
1973-07-16 547 549 545.3 546 18489
1973-07-17 546.5 549.7 545.2 548.6 23180
1973-07-18 549.7 551 547.5 549.5 27287
1973-07-19 549.5 556.7 548.6 555.3 44386
1973-07-20 554.3 555.8 553 555.4 22460
1973-07-21 553.5 553.7 548.5 549.3 30550
1973-07-22 551.6 553.2 550.8 552.3 18825
1973-07-23 553.5 554.4 552 553.7 19920
1973-07-24 554.8 557.2 553.3 555.7 31497
1973-07-25 555.1 556 554.3 555.7 21357
1973-07-26 555 555.3 553.5 554.5 16333
1973-07-27 554 554.7 552.1 554.2 19841
1973-07-28 555.2 558.7 554.3 557 44678
1973-07-29 558 560 557.2 557.6 30158
1973-07-30 557.2 562.5 556.5 562.2 21181
1973-07-31 564 564.8 561 564.1 5934
1973-08-01 575 578 571.5 577.1 2830
1973-08-02 575 579 572.2 577.6 1626
1973-08-03 570.6 571 566.2 566.8 722
1973-08-04 568 569.4 566.6 568 537
1973-08-05 561 564.6 553.5 554.6 774
1973-08-06 560.5 562.2 558.3 560.4 1283
1973-08-07 562.5 564.4 560 564.2 1113
1973-08-08 561.8 564.5 561.8 563.2 613
1973-08-09 562 563.3 558 558.4 487
1973-08-10 560.5 561.3 548 552 319
1973-08-11 553.5 555 552.7 554 335
1973-08-12 555.7 559 555.7 558.6 303
1973-08-13 556.5 558.7 555 558.3 261
1973-08-14 557.5 557.5 552.5 553.3 280
1973-08-15 552.9 557.3 552.8 556.9 165
1973-08-16 556 561.5 556 560.7 566
1973-08-17 558 558.5 556.8 557 214
1973-08-18 556.8 559 556.8 557.3 312
1973-08-19 559.5 559.5 554.5 555.4 178
1973-08-20 558.2 558.2 554 555.8 2311
1973-08-21 556 559 553.2 553.2 2276
1973-08-22 555 558.4 553.8 557.3 1957
1973-08-23 562 568 561 567.8 4070
1973-08-24 566.5 569.5 564.2 566.1 2717
1973-08-25 566.5 567.8 563.8 565.1 1809
1973-08-26 560 561.9 557.5 559.8 2220
1973-08-27 559.8 560.3 557.2 558.9 2091
1973-08-28 562 567 561.3 564.9 3652
1973-08-29 561 565 557 558.4 6357
1973-08-30 555 558.8 555 558 3690
1973-08-31 560 560.7 558.8 560 2494
1973-09-01 560.2 560.8 557 559.2 1033
1973-09-02 559.5 562.4 559.4 560.9 3865
1973-09-03 562.3 563.8 559 559.2 1503
1973-09-04 557.5 564.5 557.5 563.2 2189
1973-09-05 562.4 563.8 561.2 562.7 2400
1973-09-06 561.5 564 560.8 562.6 2077
1973-09-07 562.7 565 562 562.4 1637
1973-09-08 561.4 562.1 560 560.3 2293
1973-09-09 560.5 562.2 559 560 3967
1973-09-10 558 559.9 557.3 558 5240
1973-09-11 559.5 559.5 552.2 552.7 2188
1973-09-12 553.5 555 553 554 825
1973-09-13 554 555 552.8 554.5 269
1973-09-14 555 557.3 555 557.3 242
1973-09-15 558 558.8 557 557.2 189
1973-09-16 558.5 559.3 557.7 558.1 1771
1973-09-17 558 562 558 561.4 231
1973-09-18 562.7 562.7 560.8 561.9 124
1973-09-19 561.8 561.8 561.5 561.7 178
1973-09-20 558.8 559.7 558.8 559.1 94
1973-09-21 560.5 561.4 559 560.8 190
1973-09-22 562.2 568.5 562.2 562.9 274
1973-09-23 565.5 571.6 565 571.6 164
1973-09-24 586 591.5 578 581.7 141
1973-09-25 570 570 553 563.2 419
1973-09-26 566.8 568.5 565.5 568.1 714
1973-09-27 570 575.5 569.8 569.8 158
1973-09-28 571 575 569.5 573.4 406
1973-09-29 579.5 579.5 575 576.2 205
1973-09-30 572 577 572 575.7 744
1973-10-01 578 578 577.5 577.5 323
1973-10-02 572.5 575.7 564 568.7 53076
1973-10-03 569 571.5 567.5 571.2 26612
1973-10-04 572.3 573.5 569.7 572.5 22804
1973-10-05 571.8 576 563.5 570.6 59407
1973-10-06 569.2 569.8 566 568.2 33092
1973-10-07 562.2 562.2 556 559.2 53998
1973-10-08 560 563.4 559.1 562.1 31242
1973-10-09 564.5 566 563.1 563.3 21660
1973-10-10 561.2 563.8 557.8 562.4 34821
1973-10-11 562 563.7 561.6 563.1 16388
1973-10-12 563.8 565.5 562.5 564.7 27807
1973-10-13 565.5 567.5 564.5 565.6 22046
1973-10-14 561.8 565 561.5 564.3 18675
1973-10-15 565 566.2 564.8 565.8 15140
1973-10-16 564.6 565.1 563.3 564.8 14165
1973-10-17 566.3 566.5 565.2 565.8 12600
1973-10-18 566.7 570.9 564 570.3 36485
1973-10-19 569 577.7 568.8 576 50130
1973-10-20 575.8 578.2 573.4 575.4 39719
1973-10-21 576 578.3 575 576.9 47582
1973-10-22 596.5 597 590.5 591 5847
1973-10-23 588 593.2 586.5 590.4 2557
1973-10-24 591.5 592.8 588 588.1 1975
1973-10-25 588.5 592.5 587 588.8 2343
1973-10-26 587.8 589 580 582.9 2028
1973-10-27 581.8 582.5 580.2 581.5 729
1973-10-28 583.5 585 583.5 583.5 2594
1973-10-29 585.8 586.2 584 584.5 574
1973-10-30 585 592.5 585 592.3 635
1973-10-31 598 598 592 597.1 486
1973-11-01 601 602.3 595.5 595.5 668
1973-11-02 593.5 594.2 580 582.7 1072
1973-11-03 586.5 587 584.2 585.3 523
1973-11-04 585 585.5 575 585.1 493
1973-11-05 584.5 584.5 579 579.8 263
1973-11-06 580 580 578.9 579.6 250
1973-11-07 582.5 584.3 582.5 583.9 197
1973-11-08 580.5 583 580.5 582.9 1759
1973-11-09 585 586.1 585 586.1 140
1973-11-10 589.8 591 587.7 587.7 247
1973-11-11 589.7 589.7 585 586.1 470
1973-11-12 588 588 584.6 585.5 14490
1973-11-13 590 591.5 585.8 588.9 10044
1973-11-14 584 584.5 579.5 580.5 29332
1973-11-15 579 585.4 576.6 583.2 44239
1973-11-16 580.5 587.4 580 585.3 33132
1973-11-17 585.2 586 582.8 583.1 23118
1973-11-18 582.5 585.7 581.8 585.5 20285
1973-11-19 586.4 586.8 583.1 583.6 18340
1973-11-20 582.5 583.9 580 582.3 22715
1973-11-21 582.5 584.4 581.5 581.6 18243
1973-11-22 581.8 588.5 581.2 588.2 30199
1973-11-23 586.2 586.7 574 574.5 49922
1973-11-24 576.5 577.3 575.2 576.8 25379
1973-11-25 577.3 578.8 576.4 578.2 19323
1973-11-26 578.2 578.9 575 576.8 26586
1973-11-27 576.3 579 575.8 578.8 25100
1973-11-28 577.7 578.5 576 577.8 21956
1973-11-29 576.5 576.9 568.2 569.5 38533
1973-11-30 569 570.9 567.1 569.3 32026
1973-12-01 568.2 570.5 563.5 567 33342
1973-12-02 566 567.1 565.2 566.5 20268
1973-12-03 561.2 562 550 554.2 5647
1973-12-04 554.8 555.5 550 554.1 5221
1973-12-05 556.2 557.5 553.7 553.9 1702
1973-12-06 544 545.8 537.5 538.7 1541
1973-12-07 541 545 540.5 544.4 1234
1973-12-08 544.8 545 536.5 539.4 551
1973-12-09 542.5 543 540.4 540.4 820
1973-12-10 538.2 542 537 541.6 1040
1973-12-11 542.9 544 540.2 540.6 900
1973-12-12 540.5 541 539.6 540 480
1973-12-13 538 546 538 545.3 230
1973-12-14 544 545 544 544.2 183
1973-12-15 546.5 547 545 546 302
1973-12-16 547.3 547.5 542.9 542.9 616
1973-12-17 543.1 547 543.1 545.1 111
1973-12-18 545 547.2 544.9 544.9 283
1973-12-19 544.5 544.5 541 541.8 197
1973-12-20 535.5 537 531.9 531.9 484
1973-12-21 535 535 529 533.2 340
1973-12-22 534.5 534.9 530.2 531.1 27348
1973-12-23 527 532.3 525.1 531.9 43018
1973-12-24 530.5 533 525.9 532.4 42526
1973-12-25 531.8 533.3 528.5 532.2 35070
1973-12-26 529.5 533 528.3 529.1 29027
1973-12-27 531.3 540.5 531.2 538.8 58792
1973-12-28 536.5 538.9 536.2 538.6 21634
1973-12-29 537.5 540.5 536.4 536.6 28769
1973-12-30 537 538.8 536.8 537.5 16950
1973-12-31 544 544.8 541.5 544.5 47865
1974-01-01 545.2 545.5 541.2 542.6 30933
1974-01-02 542.8 543.5 541.7 543.1 18953
1974-01-03 543.6 548.3 542.8 547.5 26323
1974-01-04 548.5 549.2 546.3 546.5 29064
1974-01-05 547 547.5 542.1 544.9 40941
1974-01-06 544 546.2 543.4 545.2 20513
1974-01-07 546.5 552.9 546.4 550.2 44784
1974-01-08 549.5 551.2 547.6 549.6 28900
1974-01-09 550.2 554 549 552 37296
1974-01-10 556.5 557.4 551.3 554.3 44857
1974-01-11 552.5 554.2 550.9 553.3 22319
1974-01-12 554.5 556.2 553.1 555.9 23720
1974-01-13 555 557.8 554.5 555.6 37903
1974-01-14 554.5 558.8 552.9 557.8 22355
1974-01-15 558.5 560 554 554.4 5330
1974-01-16 557.3 560 556 556.7 2116
1974-01-17 554.3 555.5 552 553.4 1021
1974-01-18 551 551.5 548 549 1021
1974-01-19 548 551.7 546 550.8 1365
1974-01-20 550.3 552.8 550 551.6 1331
1974-01-21 549 553.8 548.3 552.8 555
1974-01-22 553 553 550.4 550.9 1891
1974-01-23 550 551 546.8 547 514
1974-01-24 547 555 547 554 1053
1974-01-25 558 559 555.9 555.9 503
1974-01-26 562 562 559 559.4 463
1974-01-27 558 558.5 557.3 558.4 291
1974-01-28 565 565 557 557 287
1974-01-29 555.8 556.5 555 555.4 346
1974-01-30 552.5 552.5 549.5 550.9 1039
1974-01-31 551.5 551.9 548.9 548.9 642
1974-02-01 551 551 547.5 549.8 677
1974-02-02 550.5 553.2 549.5 552.3 843
1974-02-03 554.2 554.8 552.5 552.6 15921
1974-02-04 552.2 553.4 550.8 552.6 19887
1974-02-05 549.5 549.5 546 547.2 35822
1974-02-06 546.6 548.7 545 545.1 25182
1974-02-07 544.2 546.9 544.2 546.6 18357
1974-02-08 546.8 548 545.8 547 18055
1974-02-09 546.8 549 543.6 545.3 33096
1974-02-10 545.8 549.2 545.5 548.8 17681
1974-02-11 549 552.7 548 551.6 31006
1974-02-12 551.2 552.4 549.7 551.2 32939
1974-02-13 550.7 554.8 549.8 553.3 30363
1974-02-14 553 554.2 550.8 553.7 35532
1974-02-15 555.7 558.3 555 556 37074
1974-02-16 556 558.5 553.6 556.4 54357
1974-02-17 556 558.6 555.5 558.1 27192
1974-02-18 562 562.3 558 558.2 43518
1974-02-19 558.2 559.2 556.5 558.7 24457
1974-02-20 561.5 563 559 562.8 40466
1974-02-21 560.5 562.4 558.7 561.1 51663
1974-02-22 555.2 556.6 553.8 554.8 37164
1974-02-23 554.6 555.6 552.3 554.1 33321
1974-02-24 553.3 555.8 550.2 550.8 15345
1974-02-25 553.5 556.2 553.5 555 4996
1974-02-26 557.5 559 555.6 557.6 2132
1974-02-27 556 568.5 553 567 2663
1974-02-28 566 569.5 564 564.8 1761
1974-03-01 564.4 565.8 562.5 562.9 678
1974-03-02 563.1 565.5 560 560 1337
1974-03-03 558 559.7 556.1 556.1 589
1974-03-04 555.5 559 555.1 557.1 1028
1974-03-05 559 559 548 549.1 1229
1974-03-06 550.3 550.3 548.5 549.6 562
1974-03-07 550 552 547 550.6 644
1974-03-08 551 554.3 551 551.9 261
1974-03-09 553 555 549.5 550 322
1974-03-10 550.3 555.8 550 554.5 251
1974-03-11 554 554.2 550.1 550.7 119
1974-03-12 552 553.5 551 551.8 149
1974-03-13 548.4 549.5 547.6 549.5 677
1974-03-14 546.5 549.5 546.5 547.7 192
1974-03-15 546.5 546.5 542 543 332
1974-03-16 543 543.7 542 543 293
1974-03-17 544.5 544.5 537.5 537.5 347
1974-03-18 537.3 539.2 532.3 538.3 49827
1974-03-19 539.5 539.9 535.2 537.7 28972
1974-03-20 538.5 540.4 536.1 539.6 21845
1974-03-21 539.5 540.6 537.6 540.3 20130
1974-03-22 540 541.1 538.5 540.7 19166
1974-03-23 541.8 543.7 540 541.1 32264
1974-03-24 540.6 542.2 539.5 541 26139
1974-03-25 541.3 541.4 535.7 536.4 34632
1974-03-26 535.5 538.8 534.2 538.7 29566
1974-03-27 537.8 543 535.3 541.8 44934
1974-03-28 541.5 543.7 539.7 539.9 32510
1974-03-29 540 543.5 538.5 541.3 34464
1974-03-30 536.5 540.2 535.1 538.8 36137
1974-03-31 538.8 549 537 547.5 55435
1974-04-01 546.5 547.8 545 545.7 34812
1974-04-02 545.2 548.8 542 542.7 47287
1974-04-03 543.5 544.3 542.2 542.9 22015
1974-04-04 541.8 542 524 526.6 64150
1974-04-05 529 534.3 528.7 531.7 49188
1974-04-06 530.9 534.1 530.6 533.5 34753
1974-04-07 531 534.3 529.8 532.5 36031
1974-04-08 533 537.6 533 536.1 8194
1974-04-09 536.8 537.2 532.7 534.4 1777
1974-04-10 533.5 534 531.2 531.5 1112
1974-04-11 531.5 534.7 531.3 533.3 975
1974-04-12 532.4 534 532.2 533.4 1531
1974-04-13 532 533.8 531.4 532.3 1110
1974-04-14 532 533.1 530.1 530.4 816
1974-04-15 529 529.5 522 527.4 788
1974-04-16 528.3 529.5 526.5 529.2 482
1974-04-17 529.8 530.3 527.9 529.3 1071
1974-04-18 529.2 535.1 529.2 531.3 302
1974-04-19 530.7 533 530.4 533 135
1974-04-20 535.5 535.5 528.5 528.9 185
1974-04-21 528.9 531.5 528.9 531 289
1974-04-22 531.2 532.3 531.2 532.3 108
1974-04-23 532.8 532.8 531.7 531.7 436
1974-04-24 530.7 534 530.7 533.6 465
1974-04-25 533.7 534 532.2 532.2 315
1974-04-26 533 536 533 534.9 1093
1974-04-27 537 537 532.8 532.8 486
1974-04-28 533.5 534.5 531.5 532.1 244
1974-04-29 535 536.3 532.1 532.9 949
1974-04-30 532.5 532.5 530 531.9 544
1974-05-01 530 534.8 529.4 534.1 2634
1974-05-02 533.8 534 532.6 532.9 821
1974-05-03 533 533 527.5 531.8 1548
1974-05-04 531.3 532.4 529 529.2 1047
1974-05-05 529 531 528.5 530.2 1173
1974-05-06 530 531 530 530.8 656
1974-05-07 531 532 522 523.1 5223
1974-05-08 520 523 519.8 522.8 3046
1974-05-09 522.5 524.2 521.5 522.9 1013
1974-05-10 524.2 525 521.3 522.7 1666
1974-05-11 522.5 522.5 516.8 519.8 1429
1974-05-12 517 517.5 510 512.9 2312
1974-05-13 509 510.8 508 510.2 650
1974-05-14 511 511.9 502.3 506.2 2980
1974-05-15 500.5 503.3 497 499.2 1152
1974-05-16 495 500.4 495 500 1678
1974-05-17 500 501.8 494 494.8 1386
1974-05-18 493.5 496.5 492 495.8 1859
1974-05-19 497 498.5 494.5 497.9 1641
1974-05-20 497.8 498.8 495 498.7 1361
1974-05-21 499 499.5 495.8 496.8 2540
1974-05-22 498.2 498.2 491.8 494.4 804
1974-05-23 494.7 499.5 493.3 497.5 233
1974-05-24 497.8 499.3 497 498.1 334
1974-05-25 498.1 501 495 500.8 256
1974-05-26 503.8 504.2 502.8 503.8 184
1974-05-27 502 504.5 502 503.2 122
1974-05-28 508 509 506.7 508.6 241
1974-05-29 508.5 508.5 504.4 504.4 297
1974-05-30 505.5 509 505.5 508.4 601
1974-05-31 508.5 508.6 505.8 506.9 214
1974-06-01 507.9 510.4 507.9 509.1 186
1974-06-02 514.3 514.3 512 512.2 86
1974-06-03 512.6 512.6 511.8 511.8 96
1974-06-04 511.2 513.3 510.3 511.4 167
1974-06-05 512 512.8 511.9 512.2 102
1974-06-06 512 512 508.4 508.4 132
1974-06-07 504.8 506 504.8 505.8 112
1974-06-08 507 508 506.4 506.4 435
1974-06-09 507.4 508.3 507.4 508.3 118
1974-06-10 507.4 507.9 507.4 507.6 91
1974-06-11 509.8 519 509.7 514.9 42990
1974-06-12 515.1 515.6 513.1 515.1 20490
1974-06-13 513.7 514.7 512.6 514 19372
1974-06-14 515.5 525.2 515.4 524.2 69989
1974-06-15 525 527.2 522.4 523.7 41627
1974-06-16 522.4 524.5 519.8 523.5 33274
1974-06-17 523 525 522.3 524.7 15093
1974-06-18 523.7 524.3 519.5 521.2 28706
1974-06-19 521.2 525.5 520.3 524.7 38757
1974-06-20 523.8 524.2 520.1 520.5 38398
1974-06-21 522.2 523.3 519.8 523.1 31162
1974-06-22 521.6 526.8 520.9 525.2 39011
1974-06-23 525.1 528.2 524.8 525.6 32017
1974-06-24 526 528.9 524.5 525.6 50464
1974-06-25 525 525.7 520.9 521.1 37693
1974-06-26 521.5 521.7 516.8 518.1 43194
1974-06-27 517.8 518.6 516 516.5 27775
1974-06-28 518.3 521.1 517.7 518.1 39703
1974-06-29 518.3 520.7 518.1 520.1 25246
1974-06-30 524.5 526 522 523.3 47568
1974-07-01 523 524.7 521.3 521.9 25707
1974-07-02 521.2 525.5 520.7 524.8 11457
1974-07-03 525 526.5 523 523.9 4361
1974-07-04 525 533.5 523.7 531.7 4920
1974-07-05 531.3 532 528.9 529.3 1523
1974-07-06 529.5 529.5 525.7 527.5 1666
1974-07-07 525 525 521 522.8 2174
1974-07-08 523.2 524.2 521.8 521.8 1178
1974-07-09 520.3 523 519 522.9 893
1974-07-10 521.5 521.5 519.2 520.1 817
1974-07-11 520.6 521.2 519.5 519.8 718
1974-07-12 519.4 522 518.8 521.5 862
1974-07-13 521.7 521.7 512 512.9 1383
1974-07-14 512 515.2 512 514 694
1974-07-15 514 515 512.8 514.4 285
1974-07-16 513 515 513 514 252
1974-07-17 515.5 516.5 515 515.3 436
1974-07-18 515.8 518.5 515.8 518 252
1974-07-19 517.5 519 516.2 518.5 187
1974-07-20 518.9 519.5 518 518 297
1974-07-21 515.5 516 513 513.9 358
1974-07-22 513.5 513.8 509.5 510.5 32055
1974-07-23 512.7 515.8 510.5 512.3 13177
1974-07-24 516.1 516.3 512.3 513.4 28473
1974-07-25 513.5 513.5 509 511 41576
1974-07-26 510 510.7 509.2 510.1 21234
1974-07-27 509.6 510.2 506.4 508.1 36152
1974-07-28 504.5 506.8 503.7 506.7 30492
1974-07-29 507 507.6 504.6 505.6 19112
1974-07-30 505.3 506.4 504 505.2 26703
1974-07-31 506 506.7 504 505.8 30533
1974-08-01 504.7 508.8 502.3 503.5 46355
1974-08-02 502.8 503.8 502.3 503.3 14826
1974-08-03 503.5 504.3 503.3 504 16161
1974-08-04 503.8 505.2 501.5 503.3 40622
1974-08-05 503.3 505.8 502.9 504.5 27813
1974-08-06 505.4 509.5 505.3 509.3 38543
1974-08-07 509 509.8 508 508.5 20184
1974-08-08 509.8 511.2 506 506.3 32503
1974-08-09 506 506.7 504.6 506.4 23776
1974-08-10 506.7 507.8 502.8 503.2 42219
1974-08-11 502.7 503.7 494.5 496.1 48720
1974-08-12 494.5 495.8 494.2 495.3 16756
1974-08-13 495.1 496.2 489.5 491.6 7479
1974-08-14 492.3 496.2 491.9 493.7 3049
1974-08-15 493.1 493.2 491.8 492.3 2206
1974-08-16 491 493.4 488.8 493.1 2700
1974-08-17 492.5 494.3 488.8 494 1095
1974-08-18 494.2 494.3 492.3 492.3 650
1974-08-19 491.8 496.5 491.8 496.2 773
1974-08-20 497 498 494.9 494.9 868
1974-08-21 495.8 496.5 488.2 488.8 776
1974-08-22 487.6 487.6 485 486.2 1387
1974-08-23 486 487.5 484.6 485.4 489
1974-08-24 482.3 484.8 481.1 484.6 416
1974-08-25 484.5 485.5 482.8 483.6 227
1974-08-26 480 484 480 480.8 271
1974-08-27 484.3 488 483 485.9 298
1974-08-28 486.8 488 486 486.9 473
1974-08-29 489.5 492.5 489.5 491 315
1974-08-30 490.5 492 489 491.1 1066
1974-08-31 494.6 495.2 489.1 489.8 28826
1974-09-01 490 491 489.7 490.4 16107
1974-09-02 488.2 489.1 486.4 487.1 32714
1974-09-03 486.5 487.8 485.8 486.6 21686
1974-09-04 489.5 490.3 488.5 489.3 21359
1974-09-05 491.3 491.5 488.2 490.5 23721
1974-09-06 489 496 488.5 495.7 54677
1974-09-07 495.9 498.8 494.3 495.4 45107
1974-09-08 495.5 498.1 494.1 497.3 37608
1974-09-09 500 500.2 494.7 496.5 49929
1974-09-10 495.2 497 494.7 496.4 23863
1974-09-11 497.5 500 496.5 498.1 32913
1974-09-12 497 497.8 493 493.8 37901
1974-09-13 493 493.7 489.8 491.3 38143
1974-09-14 491.5 497 491.2 495 46103
1974-09-15 497.5 499 496.8 497.4 28511
1974-09-16 496.5 497 494.2 495.6 29052
1974-09-17 495 496.4 494.4 495.1 21780
1974-09-18 496.6 497.6 491.7 493.4 37845
1974-09-19 492.5 492.5 489.5 491.6 22972
1974-09-20 492 492.3 483.2 483.5 55706
1974-09-21 483.8 485.3 482.1 483.5 40931
1974-09-22 484.7 486.4 481.5 482.2 13472
1974-09-23 483.5 485.8 483.5 485.1 5709
1974-09-24 486 487 483.8 486.2 6037
1974-09-25 487.2 487.7 484.8 486.1 2518
1974-09-26 485 485.2 483 483.8 1018
1974-09-27 484.5 485.2 483.7 484 663
1974-09-28 484.8 484.8 481.5 483.4 760
1974-09-29 481.4 488.5 481 486 1110
1974-09-30 485.5 486.3 485.3 485.8 411
1974-10-01 485.4 489.5 485 488.2 904
1974-10-02 489.3 493 489.3 490.3 768
1974-10-03 488.5 489.5 484.8 486 541
1974-10-04 486 486.2 486 486.2 250
1974-10-05 485 485.2 483 483.5 211
1974-10-06 484 485.2 483 483.4 275
1974-10-07 484.8 485.6 482.8 485.6 290
1974-10-08 485.5 485.5 484 484.9 319
1974-10-09 483.6 488.2 483.6 487.7 266
1974-10-10 486.3 486.8 485.7 485.7 289
1974-10-11 486.2 486.2 484.8 485.3 666
1974-10-12 487.8 488.4 486 486.1 25394
1974-10-13 482 483.5 479.6 480.5 50841
1974-10-14 477.8 481.9 477.5 480.7 25207
1974-10-15 480.5 481.2 479.1 480.1 20831
1974-10-16 479.5 482.9 479.5 480.4 34729
1974-10-17 480.5 481.8 479.3 479.6 14863
1974-10-18 479.5 479.8 477 479.3 31379
1974-10-19 479.5 481.4 476.5 478.4 31732
1974-10-20 477.8 480.5 476.9 480.3 27428
1974-10-21 480.7 481.2 478.6 479 28991
1974-10-22 479.9 483 479.2 482.1 42473
1974-10-23 481.8 482.1 477.9 478.9 39488
1974-10-24 476.5 476.9 475.2 476.5 27833
1974-10-25 477 477.4 475.5 476.2 19034
1974-10-26 476 476 471.7 473.9 36731
1974-10-27 472.2 473.5 469.5 470.3 36534
1974-10-28 468.9 469 466.3 466.6 33756
1974-10-29 462 464.6 460.6 463.7 37023
1974-10-30 465.5 467.5 463.8 464.3 37008
1974-10-31 464.2 465.5 463.5 464.7 26990
1974-11-01 465.5 467.9 465.2 467.2 30610
1974-11-02 468.5 469.7 464.8 465.9 31110
1974-11-03 464.2 466.8 463.7 465.7 20898
1974-11-04 465.4 466.1 463 463.3 6961
1974-11-05 462.9 464.3 462.1 464.1 4437
1974-11-06 464.8 469.2 462.5 468.6 3984
1974-11-07 468.8 469 467 467.5 2413
1974-11-08 467 481 466.3 479.9 4399
1974-11-09 479.5 480.2 474.5 476.1 3559
1974-11-10 475.5 475.8 473 473.5 1229
1974-11-11 471 472 458 458.1 990
1974-11-12 459.5 463 459.5 461.9 384
1974-11-13 461.5 464.4 459 463.1 262
1974-11-14 462.7 464 462 463.8 516
1974-11-15 462 469.5 460.5 467 605
1974-11-16 467.5 467.5 464 465.1 391
1974-11-17 465.9 468 465.9 467.1 141
1974-11-18 467.9 467.9 465.9 466.3 316
1974-11-19 467 472.4 467 472.4 101
1974-11-20 472.2 472.2 471 471 87
1974-11-21 472.5 478.5 471.6 478.5 134
1974-11-22 478 478 475.1 475.1 194
1974-11-23 476 477.8 476 476.6 179
1974-11-24 474.8 476.6 474.8 476.5 585
1974-11-25 479 483 473.1 473.9 44128
1974-11-26 475.8 479.5 473.7 477.3 26999
1974-11-27 482.3 490.8 481.5 488.4 52997
1974-11-28 487.5 490.3 486.9 488.6 39048
1974-11-29 487 489.7 484.4 485.7 41783
1974-11-30 487.2 487.9 485.1 486.6 23051
1974-12-01 485 485 481.8 483.3 34036
1974-12-02 483 483.7 479 480.4 22599
1974-12-03 480.2 480.4 477.2 478.5 28161
1974-12-04 477.3 477.5 470.8 472.2 52756
1974-12-05 472.6 474.1 472.1 472.2 21127
1974-12-06 471.5 474.9 471 473.8 27043
1974-12-07 473 473.6 469 469.3 30815
1974-12-08 470.2 475 469.7 472.2 31566
1974-12-09 474 475 471 473 22825
1974-12-10 473 474.8 472.1 473.9 17427
1974-12-11 474 474.8 472.2 474.1 19889
1974-12-12 473.3 476.4 473.2 475 30580
1974-12-13 475.5 476.3 473.5 473.7 23287
1974-12-14 473 473 465.8 467 44037
1974-12-15 467.5 471 467.5 470.5 5997
1974-12-16 470 471.3 468.4 470.8 3470
1974-12-17 470.8 470.8 469.4 470.1 1058
1974-12-18 469.8 475 469.2 473.7 2259
1974-12-19 471.9 472 467 467.8 832
1974-12-20 467.8 467.8 465 465.9 1004
1974-12-21 467.1 467.4 465.5 466.2 435
1974-12-22 465.2 467.2 464.8 466.9 817
1974-12-23 466.5 467.5 466.5 467.3 748
1974-12-24 464 465.5 462 465.2 423
1974-12-25 465 467.8 464.7 467.1 224
1974-12-26 467 470.7 467 470.7 333
1974-12-27 470.5 470.8 468.2 468.2 319
1974-12-28 466.5 469.5 466 468.3 152
1974-12-29 468.1 468.3 468.1 468.1 204
1974-12-30 468 468.4 468 468.4 345
1974-12-31 468.5 468.6 467.9 467.9 293
1975-01-01 467.8 468.5 465.5 465.8 122
1975-01-02 464.7 465 463.5 464.5 208
1975-01-03 461 462.1 460.7 460.7 137
1975-01-04 461.5 461.8 460 460 205
1975-01-05 460.5 466 460.5 463.6 124
1975-01-06 464 465 463.1 463.8 749
1975-01-07 462.3 463.2 461 461.7 1385
1975-01-08 461.2 462.5 460.3 462.4 864
1975-01-09 460.5 462 460.5 461.4 558
1975-01-10 462.2 463.8 462.2 463.7 769
1975-01-11 462.1 462.7 461.4 462.3 422
1975-01-12 462.6 462.7 459.6 461.3 2185
1975-01-13 461.6 461.7 460 460.9 1250
1975-01-14 461.5 461.9 460.5 461.1 1032
1975-01-15 461.3 461.4 460.2 461.3 1059
1975-01-16 462.5 464.7 461 461.8 1091
1975-01-17 461.3 466 457.2 465.2 1637
1975-01-18 462.8 464 461.3 462.8 702
1975-01-19 462.8 463.5 462.2 462.2 1235
1975-01-20 462.4 469.6 462.4 465.7 1558
1975-01-21 464.8 466.5 464.5 466.3 1433
1975-01-22 467 469 466.3 466.7 633
1975-01-23 469.5 470.8 468.8 470.3 834
1975-01-24 469 470.8 468.6 468.9 886
1975-01-25 470.3 472.5 466.5 467.9 1497
1975-01-26 467.1 468.7 467 468.1 1206
1975-01-27 469 469.2 466.5 467.2 943
1975-01-28 466 467.6 466 467.6 270
1975-01-29 466.3 467.2 466.3 466.9 232
1975-01-30 466.8 467.3 466.7 467 169
1975-01-31 466 466 462.8 463.4 366
1975-02-01 463.7 463.7 463.7 463.7 221
1975-02-02 463.2 463.2 462.8 463.1 168
1975-02-03 462.5 462.5 461 461 214
1975-02-04 461 462.3 461 462 356
1975-02-05 463 463.5 463 463.4 179
1975-02-06 464.3 464.3 463.2 463.3 128
1975-02-07 471 471 467.1 467.3 397
1975-02-08 466.8 467.4 466.8 467.4 163
1975-02-09 468.4 468.7 468.4 468.7 278
1975-02-10 467.1 467.1 467.1 467.1 73
1975-02-11 467.3 467.3 467.3 467.3 75
1975-02-12 467 467.3 467 467 157
1975-02-13 467.5 470.2 467.2 470.2 115
1975-02-14 470.2 470.2 469 469.1 417
1975-02-15 469.3 472.5 469.3 472.5 121
1975-02-16 475.5 478.3 474.7 478.3 235
1975-02-17 482 482.3 480 480.8 33610
1975-02-18 480 480.3 476.8 477.6 28174
1975-02-19 477.7 478.1 475.7 476.9 31415
1975-02-20 477 484.8 476.8 482.9 43425
1975-02-21 482.5 486 479.6 481 66890
1975-02-22 482.3 484.4 481.2 483.8 32825
1975-02-23 488 488.9 486.8 488.4 40301
1975-02-24 489 491.1 485.5 490.8 51291
1975-02-25 490.6 491.4 488.4 489 35715
1975-02-26 489.3 489.5 486.3 488.6 36416
1975-02-27 492 493.8 491.6 492.7 36547
1975-02-28 493.5 495 490 494.9 62251
1975-03-01 492.5 493.7 489.3 492.8 43164
1975-03-02 490.1 495.7 489.6 492.7 54464
1975-03-03 494 496 492.2 495.8 40051
1975-03-04 496.3 500 495.6 499.3 39639
1975-03-05 500.2 506.2 498.6 504.4 56456
1975-03-06 509.7 511.8 507 511.6 61064
1975-03-07 516.3 516.3 513 514.1 46754
1975-03-08 509.5 515.7 509 513.5 46612
1975-03-09 509.1 513.5 508.2 509.5 26173
1975-03-10 506 512.9 506 511.6 5798
1975-03-11 513 515.5 512.1 513.6 1579
1975-03-12 509 510 501.1 501.1 2146
1975-03-13 501.5 505.5 501.5 503.5 971
1975-03-14 503 505.5 501.5 504.9 606
1975-03-15 506.5 510.5 503 510 471
1975-03-16 507.2 515 506.7 511.8 1069
1975-03-17 514 518 513.5 516.8 219
1975-03-18 515.8 518.7 515.3 517.9 153
1975-03-19 516.5 516.8 508.1 508.1 543
1975-03-20 507 509 504.5 508.3 346
1975-03-21 512 514.8 512 513.9 143
1975-03-22 509.5 512.5 506.5 511.8 232
1975-03-23 512 514.2 511.5 511.9 275
1975-03-24 512 514.8 512 513.6 554
1975-03-25 514 514 511.6 511.9 231
1975-03-26 513.5 513.5 512.9 513.2 118
1975-03-27 512.8 513 505 506.8 418
1975-03-28 509 510 498.5 500.8 424
1975-03-29 503 505.1 500.1 501.4 39992
1975-03-30 503.2 506.8 502.6 505.2 20820
1975-03-31 500.6 504.6 500.2 502.1 35447
1975-04-01 498 499 494.5 496.4 49813
1975-04-02 497.6 501.1 497.1 500.8 44298
1975-04-03 504.2 509.5 502.5 508.5 47878
1975-04-04 506 507.6 504.7 505 27452
1975-04-05 504.6 506.3 504.3 506.2 20570
1975-04-06 508.2 515.3 508.1 514.2 61749
1975-04-07 514.8 515.8 513.2 515.6 38525
1975-04-08 517 519.8 514 514.7 74054
1975-04-09 517.2 518.5 512.6 515.1 44021
1975-04-10 513.7 515.9 509 512.2 54511
1975-04-11 511.7 513.9 510.1 513.7 35731
1975-04-12 514.8 516.4 510.9 511.2 45749
1975-04-13 510.8 512.8 509 510.9 34630
1975-04-14 507.8 509.3 504.7 508 46274
1975-04-15 517.3 525 515.5 517.7 81559
1975-04-16 516 518.3 513.3 516.3 45677
1975-04-17 519.6 521.3 517 520.3 46056
1975-04-18 521.5 522 516.5 519.2 43637
1975-04-19 518.7 521.5 516.8 518.1 20878
1975-04-20 514.5 516.5 511.8 512.4 4936
1975-04-21 513 518.3 513 518 2007
1975-04-22 518.5 519 516.3 518.2 1189
1975-04-23 519.3 525 519.3 522.4 1003
1975-04-24 522 522 520.6 521.3 476
1975-04-25 520 525 517.2 518.1 1021
1975-04-26 518 519.2 516.2 518.7 188
1975-04-27 517.2 517.3 515.9 516.1 213
1975-04-28 515.7 521 515.7 519.2 271
1975-04-29 520.2 520.5 517.5 517.6 375
1975-04-30 516 516.8 514.5 516.7 774
1975-05-01 517.6 517.6 512 512.4 677
1975-05-02 513.8 517.5 513.8 517.1 301
1975-05-03 519.5 520 518 519.9 203
1975-05-04 521 521.9 518 518 665
1975-05-05 517.9 518.5 515.3 515.7 480
1975-05-06 515.5 517.4 515 515 501
1975-05-07 513 513 505.7 508.6 612
1975-05-08 511.8 512.5 509.7 511 26388
1975-05-09 512 512.3 507.5 508.9 34760
1975-05-10 509.2 510.4 507.8 509 28540
1975-05-11 508.2 508.7 504 505.6 47398
1975-05-12 506 507.5 505 506.6 20754
1975-05-13 506.9 508.3 505.7 506.1 19822
1975-05-14 504.2 504.5 500.8 502.3 36853
1975-05-15 502.6 503.9 501.8 501.9 22215
1975-05-16 499.5 501.8 499 501.6 27886
1975-05-17 502.2 503.6 500.2 501.1 25452
1975-05-18 498 501.2 496.7 500.7 46367
1975-05-19 500 501.5 498.8 499.5 24101
1975-05-20 499.2 501.8 498.5 499.6 39120
1975-05-21 500.1 502.6 500.1 500.9 24680
1975-05-22 502.7 504.2 501.6 501.9 27863
1975-05-23 502 502.7 492.5 493.3 59853
1975-05-24 491.3 493.9 490.9 492.5 28457
1975-05-25 473 474 462.5 466.2 71513
1975-05-26 468.3 470.5 467.7 469.1 31679
1975-05-27 473 473.5 468 469.1 33719
1975-05-28 470.6 472.8 470 470.8 20130
1975-05-29 470.8 471.5 466.5 470.2 4941
1975-05-30 467.2 470.2 467.1 469.8 1636
1975-05-31 478 478.5 474.3 475.3 1940
1975-06-01 475 477.5 473.5 477.1 756
1975-06-02 477.2 478.7 473.5 474.8 845
1975-06-03 478.3 481.1 477 480.7 344
1975-06-04 476.9 477.5 475.3 476 217
1975-06-05 474.5 475.5 472.4 475 551
1975-06-06 473.5 474.8 473.5 474.3 349
1975-06-07 474.9 475.9 474.9 475.9 159
1975-06-08 473 475.2 473 475.2 97
1975-06-09 474 475.8 473.8 475.2 415
1975-06-10 476.5 476.5 474.8 476.1 123
1975-06-11 477 477.7 476.2 477.3 108
1975-06-12 476 477 474.8 476.6 125
1975-06-13 475.8 479 475.8 478.9 248
1975-06-14 478.5 478.5 475 475.9 124
1975-06-15 471 471.5 470 470.7 160
1975-06-16 472 472.8 470.5 470.5 98
1975-06-17 474.2 474.9 472.6 474 12829
1975-06-18 470.2 472 467.7 471.4 27882
1975-06-19 472.4 474.2 470.4 472.7 25919
1975-06-20 472.4 472.9 471.1 472 12068
1975-06-21 471.1 475 471.1 473.7 18652
1975-06-22 473.2 474.6 472.6 473.1 17863
1975-06-23 473.8 474.7 473.5 474 8818
1975-06-24 474.2 475.2 470.5 472 21371
1975-06-25 471.7 474 468.6 473.7 36015
1975-06-26 473 474.3 470.8 471.9 28351
1975-06-27 469 471.2 468.5 470.5 26851
1975-06-28 469.6 472 469.6 469.9 24497
1975-06-29 467 474 466.7 472.3 46062
1975-06-30 471 471.7 469.3 470.3 15686
1975-07-01 470.4 471.4 469.7 470.6 17164
1975-07-02 471 476.7 470.4 475.6 37160
1975-07-03 474.5 475.2 473.4 474.1 17685
1975-07-04 473.5 477.6 473.5 476.4 46151
1975-07-05 461 465.8 461 464.6 77747
1975-07-06 467 467.8 466.1 466.9 22199
1975-07-07 467.5 469.1 467.1 468.4 17768
1975-07-08 469 469.5 466.6 467.4 26227
1975-07-09 466.1 467.4 463 464.1 24800
1975-07-10 463.5 464.6 462.7 464.3 4444
1975-07-11 463.5 464.7 458 459.2 4491
1975-07-12 457 459 455.5 458.6 2802
1975-07-13 458.5 460.7 458.1 459.8 775
1975-07-14 460.7 461.2 456.7 457.4 331
1975-07-15 454 455.2 452.1 454.6 588
1975-07-16 454.6 455.7 453.3 455.7 489
1975-07-17 455.8 458.8 455.8 456.4 201
1975-07-18 456.2 457.2 455.7 455.7 273
1975-07-19 453.4 453.5 450.5 452 650
1975-07-20 446 447 446 446.8 401
1975-07-21 448 449.5 447.4 449.5 111
1975-07-22 450.4 450.4 449.3 449.3 124
1975-07-23 449.8 449.8 448.2 449.1 117
1975-07-24 447.8 452 447.5 450.5 223
1975-07-25 450.8 450.9 449.8 450.7 120
1975-07-26 448 451.2 448 450.4 206
1975-07-27 455 455 453.7 453.8 131
1975-07-28 451 451 449.6 450.4 253
1975-07-29 450.6 451.5 450.5 451.4 345
1975-07-30 454.1 455.8 453.7 454.1 19274
1975-07-31 455.3 461 454.5 459.9 34900
1975-08-01 459.5 461.3 459.5 460.8 16560
1975-08-02 460.5 465.5 460 464.1 35963
1975-08-03 462.1 464 461.4 463.3 19460
1975-08-04 463.3 464.7 462.7 462.9 12607
1975-08-05 462.7 463.6 458.5 459.9 31237
1975-08-06 455 457.4 454.1 457.1 31497
1975-08-07 455.7 456.7 455.2 455.6 15823
1975-08-08 454.3 460.5 452 459.5 51592
1975-08-09 460.7 469 460.2 465.7 54392
1975-08-10 463.7 465.1 463.2 464.5 18501
1975-08-11 462.5 464.2 461.6 463 22512
1975-08-12 461.1 463.9 460.5 462.5 23352
1975-08-13 462.5 464.4 462 462.1 19602
1975-08-14 461.6 463.5 461.5 462 11041
1975-08-15 465.8 471.5 465.8 469.7 49358
1975-08-16 470 471 467.3 468.4 31331
1975-08-17 470 475.5 470 472.4 41305
1975-08-18 471 471.5 468.4 469.6 23402
1975-08-19 469.2 470.8 465.8 468 33370
1975-08-20 468 468.6 466.8 467.8 24019
1975-08-21 472 473.3 468.5 470 5919
1975-08-22 470.2 475.3 470.1 473.3 1980
1975-08-23 486.5 486.5 476.8 476.8 1105
1975-08-24 475.2 482.3 473 477.4 576
1975-08-25 482.5 484.7 481.6 484.7 722
1975-08-26 484.7 485.5 480 484.5 498
1975-08-27 485 486.5 481.5 483.2 874
1975-08-28 483.8 486.1 483 485.8 296
1975-08-29 488.3 497 488.3 496.9 388
1975-08-30 504 515 501 504.8 168
1975-08-31 501 505 497.5 502.6 747
1975-09-01 501 509.2 500.5 509.2 207
1975-09-02 510.5 510.8 508 509.6 107
1975-09-03 510.5 510.5 508 510.1 108
1975-09-04 512 512 506.5 507.4 104
1975-09-05 509.2 511 508.5 511 328
1975-09-06 513 513 511.5 512 163
1975-09-07 512 515.5 512 515 142
1975-09-08 502 504.4 488 488.3 142
1975-09-09 492.5 492.5 480 485 120
1975-09-10 489.5 490.5 484.5 487.9 2516
1975-09-11 487.5 492.5 487 489 2504
1975-09-12 489.2 491.3 482.6 484.6 1531
1975-09-13 485.5 486.7 482.3 486 1055
1975-09-14 484.4 491 484.4 488.5 712
1975-09-15 489.3 492 488.8 491.7 1146
1975-09-16 489 491.6 484 491.4 1109
1975-09-17 485 486.6 477 480.3 1343
1975-09-18 479 484.7 478.2 482 1887
1975-09-19 482.1 485 481.5 483.5 978
1975-09-20 483 485.8 482.5 484.2 193
1975-09-21 488 489.5 485.3 486.4 1903
1975-09-22 488.8 490.9 488.2 490.6 3204
1975-09-23 486 489.8 485.7 488.7 1133
1975-09-24 486.5 487.7 485.6 486.8 807
1975-09-25 487.5 489.8 486.4 489.7 785
1975-09-26 489.5 494.2 488 489.9 1147
1975-09-27 492 504.2 492 503.5 2806
1975-09-28 505.3 507 499.8 502.8 2456
1975-09-29 500.5 509 499.3 507 3160
1975-09-30 500 506.3 500 505 2218
1975-10-01 504.7 508.2 502.5 502.5 651
1975-10-02 497 499.8 486.5 486.6 630
1975-10-03 487.5 489.1 485.7 489.1 423
1975-10-04 488.5 494 488.5 493.9 609
1975-10-05 497 497 492.3 492.3 110
1975-10-06 494.3 496 493.6 493.6 95
1975-10-07 492 494.9 492 494.9 85
1975-10-08 496.4 496.4 487 489.7 181
1975-10-09 492 492 486.5 488.1 828
1975-10-10 485 491 485 489.7 91
1975-10-11 488 488 487 487.5 79
1975-10-12 482.5 482.5 473.5 475 222
1975-10-13 473 473 460.5 462 143
1975-10-14 464 466.7 464 466.7 646
1975-10-15 466.2 470.1 466.2 470.1 175
1975-10-16 472 472.8 472 472.8 75
1975-10-17 466.5 469.6 466.5 469.6 79
1975-10-18 471 471.2 471 471.2 96
1975-10-19 471 473.5 471 473.5 326
1975-10-20 474.1 475.8 474.1 475.8 179
1975-10-21 472.5 472.5 470.3 470.9 90
1975-10-22 473 476.5 472.9 475.8 21734
1975-10-23 475.5 482.3 474.3 481.7 39419
1975-10-24 483 484.3 478.3 481.3 30762
1975-10-25 483 485.8 481.6 483.1 25454
1975-10-26 481.6 482 476.1 478 25892
1975-10-27 478.3 483.3 477.8 481.1 25986
1975-10-28 482 488.6 479.6 488.1 39107
1975-10-29 485.8 491.5 485.5 487.9 44028
1975-10-30 488 489 485.3 488.9 27541
1975-10-31 487.3 488 483.3 486.3 25553
1975-11-01 483 484.5 481.6 483.3 19076
1975-11-02 484 487.5 483.8 487 19621
1975-11-03 484.8 486.4 477 478.5 39027
1975-11-04 479.3 481.1 478.5 480 21946
1975-11-05 480.6 481.5 476 479.8 31095
1975-11-06 478.2 484 477.3 482.3 30679
1975-11-07 480 481 476.3 478.5 24452
1975-11-08 478.2 481.5 476.7 479.8 22054
1975-11-09 487 488.7 486.5 486.7 24239
1975-11-10 483 487 482.8 485.8 23655
1975-11-11 484.5 486.7 484.3 485.7 25418
1975-11-12 485.7 490.2 485.1 488.9 19863
1975-11-13 485 487.5 480.5 483.3 6263
1975-11-14 483 483.9 476 476.6 2263
1975-11-15 478 480.3 477.3 478.9 1756
1975-11-16 479.8 480.5 472 474.2 1140
