"Index" "Open" "High" "Low" "Close" "Volume"
1972-09-28 115.5 118 115.5 116.7 15789
1972-09-29 117.7 118.2 116.9 117.4 10518
1972-09-30 117.5 118 116.14 117 8998
1972-10-01 117.8 118.7 116.74 117.3 11775
1972-10-02 117.5 117.7 116.24 117.1 9564
1972-10-03 117.5 117.64 115.4 115.7 8280
1972-10-04 112.7 113.8 112.7 113.1 9522
1972-10-05 113.2 115.1 112.7 113.3 8913
1972-10-06 113.5 113.84 111.94 112.04 8151
1972-10-07 112.1 112.2 109.04 109.04 9689
1972-10-08 109 110.4 108.1 110.3 9838
1972-10-09 110.34 111.6 110.14 111.2 5870
1972-10-10 111 111.3 108.2 108.54 9034
1972-10-11 109 111.44 109 110.44 8042
1972-10-12 110.9 110.9 109.3 109.64 5775
1972-10-13 109.6 109.7 106.8 108.14 7810
1972-10-14 107.7 107.9 105.4 105.7 5349
1972-10-15 105.8 106.5 104.84 105.1 5602
1972-10-16 105.44 106.64 105.1 105.8 3763
1972-10-17 106.5 108.34 106.5 108.14 5126
1972-10-18 108.4 109.8 108.3 109.34 3818
1972-10-19 110 110.44 107.5 107.54 3439
1972-10-20 107.7 108.7 107 107.3 1836
1972-10-21 106.7 106.8 105.5 106.1 2081
1972-10-22 106.4 107.5 106.1 107.24 2431
1972-10-23 107.8 109.14 107.6 108.74 2091
1972-10-24 109.6 109.6 107.3 107.94 1508
1972-10-25 108.7 110.84 108.1 110.6 2538
1972-10-26 110.8 112.3 109.8 111.14 1833
1972-10-27 111.6 112.7 110.7 112.04 1462
1972-10-28 112.4 114.2 112.4 113.94 666
1972-10-29 109.84 110.34 109.14 109.84 9268
1972-10-30 112.84 112.84 112.84 112.84 1123
1972-10-31 115.84 115.84 115 115.84 6845
1972-11-01 114.8 115.8 114.2 115.1 11539
1972-11-02 115.2 116.94 113.7 114.2 13284
1972-11-03 113.5 114.2 111.2 113.4 12508
1972-11-04 112.8 114.3 111.64 114.14 9890
1972-11-05 113.5 115.9 113.24 115.04 10568
1972-11-06 115.1 117 114.8 115.64 9160
1972-11-07 115.5 115.5 112.64 112.64 9919
1972-11-08 112.3 114.2 111.14 113.34 10325
1972-11-09 113.6 113.6 111.4 112.84 9289
1972-11-10 111.6 112.1 110.2 110.3 11072
1972-11-11 110.3 110.8 109.4 110.54 8996
1972-11-12 113.44 115.8 112.6 113.84 12086
1972-11-13 114.5 114.8 111 111.1 10272
1972-11-14 114.1 114.1 112.6 114.1 7164
1972-11-15 116.2 116.3 114.9 115.94 11069
1972-11-16 116.5 116.84 115.04 116.7 10770
1972-11-17 116.7 118.5 116.7 117.3 9494
1972-11-18 117 117 115.34 116.14 7913
1972-11-19 115.94 117 115.64 116.7 4468
1972-11-20 119.7 119.7 118.7 119.7 6736
1972-11-21 118.34 118.8 117.3 117.7 7712
1972-11-22 116.9 117.1 114.7 114.7 5643
1972-11-23 114.5 115.7 113.7 115.6 6980
1972-11-24 116.2 117.4 115.7 117.2 4098
1972-11-25 118.3 118.4 117 117.3 4342
1972-11-26 118 119.7 117.3 118.04 6772
1972-11-27 118.5 118.8 116.54 117.2 5007
1972-11-28 118.3 119.8 118.2 119.5 3484
1972-11-29 119.6 119.8 118.6 119.7 2226
1972-11-30 121 121.6 120.5 121.34 3343
1972-12-01 121.3 122.8 120.54 122.3 3553
1972-12-02 122 122 120.5 121.2 3726
1972-12-03 121.8 122.34 121.4 121.64 1932
1972-12-04 121.94 123.2 121.5 122.9 1777
1972-12-05 121.74 122.7 121.5 122.34 2023
1972-12-06 122.3 122.3 121 121.44 2290
1972-12-07 120.9 121.4 120.3 120.8 1220
1972-12-08 117.4 119 116.8 118.2 11192
1972-12-09 117.3 118.1 117.04 117.3 6587
1972-12-10 117.5 118.44 117.3 118.1 6809
1972-12-11 118.4 119.8 117.64 119.7 11064
1972-12-12 119.7 121.5 119.7 120.9 11787
1972-12-13 121.44 122 120.34 121.94 12538
1972-12-14 121.9 123.7 121.74 123.54 11958
1972-12-15 123.7 124.6 122.9 123.04 8828
1972-12-16 122.6 124.9 122.6 124.54 10564
1972-12-17 124.4 124.9 123.34 124.74 9229
1972-12-18 124.5 125.2 123.7 124.84 8094
1972-12-19 124.3 124.9 123.6 123.9 7519
1972-12-20 124 125.3 122.94 125 10588
1972-12-21 124.9 125.2 123.6 123.84 7282
1972-12-22 123 123.94 122.04 122.94 11863
1972-12-23 122.6 122.8 121.7 121.74 6926
1972-12-24 121.5 123 121.04 122.94 5885
1972-12-25 122 123.8 121.8 123.24 10889
1972-12-26 123.2 124.74 123.2 124.3 7442
1972-12-27 124.2 124.6 123.34 123.84 6438
1972-12-28 123.6 123.9 123.3 123.5 4752
1972-12-29 122.6 122.6 120.5 120.5 7482
1972-12-30 120.4 121.8 119.14 121.2 9560
1972-12-31 120.9 121.1 118.2 119.1 9800
1973-01-01 119.6 119.8 118.14 119.34 9535
1973-01-02 119.6 120.9 119.1 120.4 7435
1973-01-03 121.1 122.14 121.1 121.74 5532
1973-01-04 121.5 121.6 119.6 119.84 6661
1973-01-05 120.8 120.8 118.84 120.54 7395
1973-01-06 120.8 121.3 117.6 118.14 6451
1973-01-07 118 119 117.4 118.9 4575
1973-01-08 118.5 119.6 118.1 119.14 3134
1973-01-09 120.5 121.4 120.14 121.1 3566
1973-01-10 121.7 121.8 120.64 120.74 3854
1973-01-11 121.4 123.04 121.2 122.8 3402
1973-01-12 123.14 124.34 122.64 123.84 2590
1973-01-13 123.84 125.4 123.64 125.1 1967
1973-01-14 124.8 125 124 124.24 2599
1973-01-15 124.4 125.94 124.24 125.34 2833
1973-01-16 125.8 125.9 125.04 125.54 1732
1973-01-17 125.7 125.7 124.7 125.34 1287
1973-01-18 125.4 125.7 125.04 125.24 1637
1973-01-19 115.54 115.94 114.14 114.5 10987
1973-01-20 114.5 115.24 114.2 115.14 8574
1973-01-21 115.4 115.44 114.54 115.1 4698
1973-01-22 115.2 115.44 115 115.2 4132
1973-01-23 116.2 118.2 116.1 118.2 10983
1973-01-24 118.4 118.44 117.6 118.24 9581
1973-01-25 118.8 120 118.6 119.3 15376
1973-01-26 119.8 119.9 118.8 119.64 9460
1973-01-27 119.9 121.1 119 119.14 13207
1973-01-28 119.7 120.7 118.7 120.6 11600
1973-01-29 121.1 121.54 120.04 120.34 9921
1973-01-30 120 120 118.7 119.7 10484
1973-01-31 119.4 120.6 119.1 120.4 8004
1973-02-01 120.3 120.8 119.44 119.6 6841
1973-02-02 119.8 121.6 119.44 121.5 9667
1973-02-03 121.5 122.14 121 121.64 8878
1973-02-04 121.8 122.5 121.4 121.6 8545
1973-02-05 122 122.34 121.1 122.04 7443
1973-02-06 122 122.2 121.4 121.5 5830
1973-02-07 121.9 122.5 120.74 121.24 9072
1973-02-08 120.8 122.1 120.2 122 7961
1973-02-09 122.6 123.6 122.5 122.84 9795
1973-02-10 123.4 123.9 123.1 123.44 6907
1973-02-11 123.4 123.74 122.54 122.7 7797
1973-02-12 123.3 123.6 122.7 123.24 7557
1973-02-13 123.2 124 122.94 123.1 8953
1973-02-14 123.1 123.8 122.94 123.64 5273
1973-02-15 124.4 125.5 124.2 124.9 6557
1973-02-16 124.5 124.54 123.4 123.84 7079
1973-02-17 122.9 123.1 122.1 122.14 6949
1973-02-18 122.4 122.94 121.6 122.84 4500
1973-02-19 123.2 123.24 121.8 122.8 4737
1973-02-20 122.3 122.4 120.7 120.9 4958
1973-02-21 121 121.24 120.1 120.94 4205
1973-02-22 121.1 121.3 120.4 120.5 2658
1973-02-23 120.3 121.2 119.94 121.14 2739
1973-02-24 121.3 121.34 120.24 120.44 1618
1973-02-25 120.1 120.1 117.8 118.8 3545
1973-02-26 119.8 119.8 118.4 119.3 2357
1973-02-27 119.2 120.44 119.1 119.54 2090
1973-02-28 119.6 120.24 119.1 119.8 1632
1973-03-01 120.1 120.4 119.4 119.9 1450
1973-03-02 112 112.3 111.2 111.34 6492
1973-03-03 111.9 113.9 111.9 113.3 7702
1973-03-04 113.4 113.8 113.3 113.5 2862
1973-03-05 112.8 112.84 111.9 111.94 4301
1973-03-06 111.5 113 111.5 112.84 4991
1973-03-07 112.8 112.84 110.74 111.04 6195
1973-03-08 112.04 113.7 112.04 113.54 7565
1973-03-09 113.7 114.44 113.6 114.24 7922
1973-03-10 115.1 115.24 113.8 114.24 9935
1973-03-11 114.5 115.34 114.1 115.24 7261
1973-03-12 115.6 115.94 114.9 115.44 8258
1973-03-13 115.8 117.2 115.64 117 9231
1973-03-14 117.1 117.14 116.3 116.84 5811
1973-03-15 117 117.8 116.7 117.74 7603
1973-03-16 117.6 118.24 117.34 118.14 6947
1973-03-17 118.5 118.74 117.94 118.54 6036
1973-03-18 118.4 118.4 116.4 116.44 8488
1973-03-19 116.2 116.94 116.04 116.84 6542
1973-03-20 116.5 118.4 115.64 117.74 8248
1973-03-21 118 118.84 117.8 118.04 6584
1973-03-22 117.94 118.64 117.6 118.04 4994
1973-03-23 121.04 121.04 120.24 120.94 7497
1973-03-24 120.4 122.54 120.2 121.94 9423
1973-03-25 122.8 124.7 122.34 124.14 8958
1973-03-26 123.8 125.3 123.4 124.44 8592
1973-03-27 123.9 127.2 123.7 127.14 7348
1973-03-28 126.2 127.34 126 126.54 6286
1973-03-29 126.9 127.84 126.04 127.4 5194
1973-03-30 128.1 129.5 127.4 129.34 4425
1973-03-31 127.1 128.1 126.34 127.44 4272
1973-04-01 126.8 127.8 125.04 125.64 4121
1973-04-02 124.8 126.6 124.2 125.9 3463
1973-04-03 125 126.8 124.9 126.64 2333
1973-04-04 126.6 127.94 125.84 126.04 2963
1973-04-05 126 127.2 125 125.4 2749
1973-04-06 125.4 126.74 125 126.34 1611
1973-04-07 128 129.34 127.6 129.24 1732
1973-04-08 129.6 129.9 128.5 129.34 1774
1973-04-09 129.3 130 128.54 129.7 1703
1973-04-10 129.7 131 129 129.5 1658
1973-04-11 129.4 130.4 129.1 130 9996
1973-04-12 130 130.5 129.04 129.2 8448
1973-04-13 128.8 129.2 127.9 128.3 10800
1973-04-14 127.9 128.14 126.64 126.94 11330
1973-04-15 126.8 129.94 126.2 129.94 14297
1973-04-16 129.7 130.6 129.34 130.04 9835
1973-04-17 129.44 129.5 127.04 127.64 15394
1973-04-18 126.9 128.3 126.9 127.54 12671
1973-04-19 126.3 126.5 124.54 124.74 14927
1973-04-20 125.2 126.1 124.74 125.7 9292
1973-04-21 125.8 127.2 125.1 127.1 8690
1973-04-22 127.4 128.8 127.34 128.5 11837
1973-04-23 128 128.2 127.14 127.24 10206
1973-04-24 126.5 129.1 126.5 128.9 12464
1973-04-25 129.2 129.5 128.3 128.54 7588
1973-04-26 128.6 129.04 128.4 128.54 6011
1973-04-27 129.24 130.9 129.24 130.54 9355
1973-04-28 131 131.74 130.74 131.4 9133
1973-04-29 132 132.3 131.2 132.04 8177
1973-04-30 132.4 133.44 132.4 133.3 8763
1973-05-01 134 134.8 133.44 134.44 8764
1973-05-02 135 135.4 133.7 134.8 11581
1973-05-03 135.5 136.14 134.3 135.9 11128
1973-05-04 135.5 135.5 134.04 134.44 10521
1973-05-05 133.84 135.2 133.7 134.84 7253
1973-05-06 136.1 136.7 135.34 135.6 8124
1973-05-07 134.5 135 134.2 134.94 6884
1973-05-08 134 136.14 133.84 136.04 7222
1973-05-09 135.9 136.9 135.8 136.44 5097
1973-05-10 136.8 137.94 136.64 137.3 6045
1973-05-11 137.9 139.1 137.74 138.8 6780
1973-05-12 139.3 139.8 137.3 138.2 7190
1973-05-13 139.5 139.6 137.24 138.34 7289
1973-05-14 139 139.3 138.3 139.04 4947
1973-05-15 139.7 141.44 139.64 140.24 6730
1973-05-16 140.8 140.8 139.5 140.4 4615
1973-05-17 140.8 141.1 140 140.3 4057
1973-05-18 141.1 141.4 140.44 141 3825
1973-05-19 140.9 141.2 140.6 141 3362
1973-05-20 140.9 141.2 138 138.7 4106
1973-05-21 128.9 130.8 128.8 130.64 10831
1973-05-22 130.3 131 129.7 130.34 10548
1973-05-23 130.34 131.9 130.2 131.7 11848
1973-05-24 131.84 132.6 131.7 132 8346
1973-05-25 132.8 133.1 131.4 131.64 10825
1973-05-26 131.7 132.8 131 132.14 11469
1973-05-27 132.4 133.2 131.6 133 12855
1973-05-28 133.3 134.5 132.94 134.4 12448
1973-05-29 134.3 134.84 133.74 134.7 8152
1973-05-30 135.2 136.74 134.94 136.14 11446
1973-05-31 137.1 138 136.8 137.44 11979
1973-06-01 138 138.4 137.2 137.64 11008
1973-06-02 137.6 137.64 136.14 136.24 12605
1973-06-03 136.7 138.6 136.3 138.5 10943
1973-06-04 139 140.9 138.9 140.24 13778
1973-06-05 140 140 137.24 137.24 13695
1973-06-06 136.2 137.1 134.5 134.74 15307
1973-06-07 135.5 136 133.74 134.14 13310
1973-06-08 134.5 135.14 133.54 133.7 10080
1973-06-09 134.7 134.8 133.3 133.7 9730
1973-06-10 133.8 135.2 133.3 133.84 11819
1973-06-11 133.84 134.34 130.94 131.04 14705
1973-06-12 131.5 133 131.5 132.64 10738
1973-06-13 133.9 135.3 133.54 134.84 10555
1973-06-14 135.6 136.4 135.1 135.5 11279
1973-06-15 136.9 137 135.2 135.64 10438
1973-06-16 137.1 137.9 136.2 136.5 11341
1973-06-17 135.6 136 134.8 135.34 8990
1973-06-18 134.8 135.54 134.2 135 6515
1973-06-19 135.3 135.54 134.24 134.74 4052
1973-06-20 134.6 135 133.8 134.6 5308
1973-06-21 134.6 135.4 134.1 135.34 5583
1973-06-22 136 136.54 135.8 136.04 4935
1973-06-23 136.94 137.6 135.3 136.14 5570
1973-06-24 136.7 137.1 136 136.6 4727
1973-06-25 137.3 138.4 137 137.6 6497
1973-06-26 137.6 138.2 137 137.6 3749
1973-06-27 137.5 138.4 137.3 138.3 2686
1973-06-28 138.3 138.34 137.7 138.04 1917
1973-06-29 137.2 137.6 135.5 137.2 3760
1973-06-30 137.4 137.8 136.9 137.7 2468
1973-07-01 137.5 138.2 137.04 138.1 2889
1973-07-02 138.3 139.5 138.1 139.24 3064
1973-07-03 127.74 129 127.6 128.5 10388
1973-07-04 128.6 129.6 128.4 129.54 10118
1973-07-05 129.4 129.54 128.4 128.54 7518
1973-07-06 128.5 129.14 127.8 128.04 6707
1973-07-07 128.1 128.1 126.44 126.6 8198
1973-07-08 126.6 127.1 126.4 126.54 4540
1973-07-09 126.54 127 126.4 126.6 4210
1973-07-10 127.2 127.5 125.4 125.94 10199
1973-07-11 126 126.6 125.7 126.4 5814
1973-07-12 126.8 127.84 126.8 127.7 5882
1973-07-13 127.6 128.34 126.84 127.64 7292
1973-07-14 127.6 127.6 126.84 127.4 5051
1973-07-15 127.4 128.3 126.9 127.3 7270
1973-07-16 127.2 127.3 125.6 125.7 8144
1973-07-17 125.1 125.4 123.84 124 9994
1973-07-18 124 124.6 122.6 123.3 12069
1973-07-19 123.8 124.2 122.74 123.6 9583
1973-07-20 124.2 124.84 123.6 124.4 7367
1973-07-21 124.8 125 121.4 121.8 8356
1973-07-22 121.8 122.8 121.3 121.94 8062
1973-07-23 122.24 122.4 121.5 121.8 6026
1973-07-24 121.2 122.4 121.04 121.64 6368
1973-07-25 121.7 121.94 120.24 120.54 5808
1973-07-26 120.7 121.44 120.44 121 5267
1973-07-27 121.6 123.74 121.6 123.24 6550
1973-07-28 123.54 123.6 122.3 122.44 6276
1973-07-29 122.8 123.74 122.6 123.1 5960
1973-07-30 123.9 125.9 123.8 125.1 7900
1973-07-31 125.44 126.3 125.04 126.1 4941
1973-08-01 126.8 127.84 126.44 127.24 6013
1973-08-02 127.6 128.4 127.04 128.14 5088
1973-08-03 127.94 128.3 127.34 127.94 4475
1973-08-04 128.1 128.7 127.5 128.1 3387
1973-08-05 128.7 130.8 128.34 130.74 4477
1973-08-06 130.74 131.84 130.3 131 3815
1973-08-07 131.1 132.2 130.64 131.54 3344
1973-08-08 131.4 132.1 130.7 131.74 2538
1973-08-09 130.8 131.6 130.54 130.84 1941
1973-08-10 130.6 130.84 130.24 130.64 1076
1973-08-11 130.8 131.5 130.44 130.54 1094
1973-08-12 130 130 128.54 128.9 1529
1973-08-13 128.4 129.64 128.24 129.44 960
1973-08-14 129.4 130 129 129.94 1878
1973-08-15 126 128.5 125.8 128.3 9848
1973-08-16 128.04 130.4 128.04 130.3 11955
1973-08-17 130.3 130.9 129.7 130.04 12462
1973-08-18 130 132.3 129.44 132.1 15194
1973-08-19 131.9 132.8 131.5 131.7 10099
1973-08-20 130.5 131.4 130.04 130.6 8626
1973-08-21 130.3 132.7 130.3 132.1 8498
1973-08-22 131.3 132.54 130.7 130.8 9967
1973-08-23 130.7 132.4 130.4 131.84 9705
1973-08-24 132.2 133.7 132.04 133.64 11808
1973-08-25 133.9 135.24 133.5 135.14 12523
1973-08-26 135.5 136.54 135.14 136.4 10530
1973-08-27 136.4 137.6 135.84 136.6 11634
1973-08-28 136.8 137.2 136.04 136.44 9092
1973-08-29 135.94 136.8 135.2 136.54 9475
1973-08-30 135.7 136.1 135.04 135.34 6758
1973-08-31 135.2 136.8 135.14 136.7 6314
1973-09-01 135.5 135.84 133.84 134.7 10703
1973-09-02 134.4 134.94 133.5 133.8 8571
1973-09-03 133.5 136.8 133.34 136.8 10928
1973-09-04 136.6 138.8 136.5 138.4 13311
1973-09-05 138.6 138.64 137.24 137.34 9499
1973-09-06 137.34 137.8 136.8 137.04 8555
1973-09-07 137.2 137.44 136.8 136.94 5157
1973-09-08 137.2 138.7 137.1 138.24 7187
1973-09-09 138 138.14 136.2 136.74 9676
1973-09-10 136.2 136.8 135.84 136.3 7378
1973-09-11 136.1 136.4 135 135.1 6771
1973-09-12 137 137.2 134.1 135.8 7057
1973-09-13 135.6 136 134.44 135.04 3476
1973-09-14 134.8 134.84 132.7 134.04 5529
1973-09-15 134.6 135.1 134.1 134.7 3005
1973-09-16 134.74 135 132.54 133.24 3937
1973-09-17 133.24 134.5 133.24 134.2 2294
1973-09-18 134.7 135.6 134 135.34 1781
1973-09-19 135.5 136.7 135.3 136.14 3057
1973-09-20 136.6 136.9 136.04 136.6 2267
1973-09-21 136.74 136.9 135.8 136.2 1876
1973-09-22 136.4 137.9 136.3 137.7 2143
1973-09-23 137.9 137.9 136.6 137.5 1607
1973-09-24 137.6 137.7 135.4 135.84 2292
1973-09-25 136.5 136.6 134.6 135.44 2382
1973-09-26 132.8 134.14 131.5 131.64 16754
1973-09-27 129.5 130.3 128.64 128.64 14663
1973-09-28 129.5 130.6 127.24 130.4 13437
1973-09-29 128.3 128.4 127.4 127.4 6928
1973-09-30 128.1 128.6 124.6 126.5 14001
1973-10-01 127 128.64 126.5 127.7 10572
1973-10-02 127.7 128.2 124.7 127 14763
1973-10-03 127 127.5 124.6 124.8 11777
1973-10-04 124.4 124.4 121.8 121.8 8604
1973-10-05 122.6 124.2 121.6 124.14 11516
1973-10-06 124.6 125.6 124.14 124.44 8765
1973-10-07 123.2 125.9 122.3 125.24 10156
1973-10-08 126.3 127.2 125.8 126.9 7839
1973-10-09 127.6 127.6 126.24 127.24 7715
1973-10-10 127.7 129.24 127.24 128.84 10215
1973-10-11 128.9 129.2 128.14 128.3 7136
1973-10-12 129 129.4 128.5 128.94 6816
1973-10-13 128 128.2 126.9 127.1 7021
1973-10-14 127.1 127.64 126.7 127.6 5219
1973-10-15 129.8 130.6 129.4 130.6 6549
1973-10-16 130.8 132 130.8 131.8 9116
1973-10-17 131.5 132.44 131.24 132.34 7101
1973-10-18 132.8 133.34 132.2 133.24 6242
1973-10-19 133.5 134.04 132.3 133.7 9226
1973-10-20 133.5 133.5 132.5 132.74 8556
1973-10-21 132.5 132.8 132.1 132.44 4706
1973-10-22 131.8 131.8 129.7 129.7 4776
1973-10-23 129.4 129.44 127.7 128.34 7314
1973-10-24 127.8 128.74 127.34 128.2 5461
1973-10-25 127.9 128.2 125.2 125.54 6443
1973-10-26 125.8 127 125.34 126.34 5406
1973-10-27 126.74 127.6 126.64 127.34 3170
1973-10-28 127.5 127.6 126.04 126.14 3322
1973-10-29 125.8 127.3 125.5 126.6 3517
1973-10-30 126.1 128.4 126 128.2 4194
1973-10-31 128 128.44 127.3 128.14 2669
1973-11-01 130.6 131.14 129.9 130.84 3018
1973-11-02 130.4 131.5 130.4 130.44 1856
1973-11-03 130.8 131.6 130.5 131.3 1991
1973-11-04 131.3 132.4 130.7 132.2 1812
1973-11-05 132.2 133.4 131.9 132.8 1502
1973-11-06 124 124.5 123 123.14 8079
1973-11-07 122.6 122.9 120.34 120.64 10864
1973-11-08 121.2 122.5 121.04 121.5 7350
1973-11-09 122.1 122.94 121.9 122.74 4237
1973-11-10 124.1 125.74 124.1 125.54 8811
1973-11-11 125.1 126.3 124.6 125.74 7320
1973-11-12 125.7 127 125.3 126.84 7672
1973-11-13 126.5 127.2 125.8 126.24 6834
1973-11-14 125.9 128.5 125.2 127.8 10499
1973-11-15 127.6 128.8 127.4 128.24 9603
1973-11-16 128.4 129.5 128.4 129.44 8894
1973-11-17 132.44 132.44 131.54 131.8 11701
1973-11-18 131.9 132.3 130.9 131.7 6981
1973-11-19 131 133.4 130.4 133.1 9159
1973-11-20 132.94 133.84 132.4 132.84 9540
1973-11-21 132.5 133.3 131.9 132.4 8731
1973-11-22 132 132.54 131.3 132.44 6683
1973-11-23 133 134.7 132.94 134.4 8915
1973-11-24 134.4 136 134.3 135.8 8798
1973-11-25 136.3 136.94 135.3 136.84 11072
1973-11-26 136.4 136.54 135.4 135.5 6958
1973-11-27 135.4 138.2 135.2 137.94 8235
1973-11-28 137.6 137.7 136.7 137.4 5761
1973-11-29 136.8 137.6 136.1 136.34 6329
1973-11-30 136.34 136.54 135 136 8254
1973-12-01 135.2 137.5 135.14 137.1 6964
1973-12-02 136.8 138.2 135.34 135.64 7168
1973-12-03 135 135.5 134.24 135.3 4567
1973-12-04 135.1 137.54 134.74 137.24 4739
1973-12-05 137.1 137.74 136.44 137.44 3930
1973-12-06 137.8 139.44 137.8 139.34 4998
1973-12-07 139.34 139.94 138.74 139.54 3510
1973-12-08 139.9 141.4 139.64 141.24 3042
1973-12-09 142.1 143.4 140.94 143.34 4270
1973-12-10 143 144.74 142.8 144.4 4106
1973-12-11 144.4 145.14 143.64 144.14 3492
1973-12-12 144 144.64 143.4 143.54 2731
1973-12-13 143.4 143.54 142.5 143.3 1339
1973-12-14 143.04 143.94 142.94 143.74 1629
1973-12-15 142.8 143.9 142.5 143.6 2542
1973-12-16 143.3 143.4 142.04 142.54 2548
1973-12-17 142.6 145.54 142.1 144.74 2016
1973-12-18 146.5 147.1 145.24 145.6 14340
1973-12-19 145 145.1 142.7 143.54 13755
1973-12-20 143.8 145.1 143.4 144.4 11090
1973-12-21 143.6 145.94 143.04 144.8 12066
1973-12-22 144.74 145.5 143.7 145.1 8749
1973-12-23 144 144.44 142.2 143 11208
1973-12-24 142.5 145.1 142.3 143.9 12940
1973-12-25 144.1 144.8 143.3 144.24 10887
1973-12-26 144.2 144.2 141.24 141.24 15449
1973-12-27 140.6 141.6 140 140.44 14134
1973-12-28 141.3 143.2 141.04 143.1 13432
1973-12-29 144.6 145.9 144.04 145.84 15815
1973-12-30 146.2 147 145.4 145.84 14483
1973-12-31 145.7 146.34 145.3 145.84 8847
1974-01-01 145.4 147.1 144.64 145.64 13511
1974-01-02 146.8 148.1 146.8 148 11209
1974-01-03 147.7 148.2 147.3 147.64 9491
1974-01-04 147.4 148.14 147.1 147.94 8959
1974-01-05 148.1 148.14 146.8 147.3 10273
1974-01-06 147.2 148 146.8 147.54 6828
1974-01-07 147.04 147.8 146.54 147.3 7961
1974-01-08 147.3 148.6 147.1 148.5 12100
1974-01-09 148.3 149.14 147.64 148.7 11227
1974-01-10 149.2 149.3 147.84 148.8 12002
1974-01-11 149.4 150.04 148.94 149.84 11531
1974-01-12 150.8 151 150 150.84 11376
1974-01-13 151.04 151.4 150.3 150.84 11654
1974-01-14 150.5 150.74 149.9 150 6564
1974-01-15 149.6 150.3 149.6 149.8 4942
1974-01-16 151.1 151.5 146.9 147.24 7672
1974-01-17 146.3 148 146.3 147.8 6664
1974-01-18 147.6 148.44 147.4 148.04 4541
1974-01-19 147.9 147.9 147 147.64 4584
1974-01-20 148.1 149.7 148 149.54 4970
1974-01-21 149.74 150.7 149.6 150.54 4387
1974-01-22 150.4 150.7 148.2 149.5 4764
1974-01-23 149 149 147 147.5 6517
1974-01-24 147.2 147.8 146.4 147.64 5375
1974-01-25 147.4 148.4 145 147.94 4890
1974-01-26 148.1 148.54 147.4 148.2 3663
1974-01-27 148.8 149.94 148.8 149.64 5126
1974-01-28 150.2 150.34 149.24 149.9 5111
1974-01-29 141.5 141.9 141.24 141.64 7789
1974-01-30 141.8 142 141.34 141.64 6576
1974-01-31 139 140.64 139 140.34 14548
1974-02-01 140.5 141.2 140.5 140.8 7609
1974-02-02 141 143.3 141 143.14 15977
1974-02-03 142.4 142.8 141.64 141.8 9873
1974-02-04 141.4 142.34 141.3 141.8 6780
1974-02-05 141.7 143.9 141.2 141.3 12620
1974-02-06 142.1 143.6 142.1 143.14 8133
1974-02-07 143.3 143.84 142.8 143.2 10714
1974-02-08 143.8 144.5 143.3 144.3 11474
1974-02-09 144.4 145.5 144.2 145.4 10446
1974-02-10 146 146.4 145.5 145.6 12856
1974-02-11 146.2 146.2 145 145.6 12489
1974-02-12 146.1 146.94 145.34 146.84 16147
1974-02-13 147 147.2 146.2 147.1 10237
1974-02-14 147.2 147.64 146.8 147.6 9219
1974-02-15 147.8 148 146.4 146.5 9452
1974-02-16 148 148.14 146.6 146.7 12701
1974-02-17 146.8 147.9 146.7 147.64 10476
1974-02-18 148 148.44 145.5 146.24 12914
1974-02-19 146.5 146.9 146 146.74 6789
1974-02-20 146 146.4 145.14 145.3 9202
1974-02-21 144.9 145.1 144.24 144.7 10642
1974-02-22 144.4 145.2 143.3 143.4 10798
1974-02-23 143.8 144.4 143 144.3 8731
1974-02-24 144.2 144.8 143.4 143.84 5615
1974-02-25 144 145.54 143.84 144.3 9211
1974-02-26 144.7 145 143.44 144.4 6550
1974-02-27 144.3 145.14 144 145 4230
1974-02-28 145.3 145.7 144.6 145.3 5979
1974-03-01 145.8 147.1 145.4 146.44 8287
1974-03-02 146.44 147.14 146 146.2 6284
1974-03-03 146.4 146.5 144.5 145.5 5391
1974-03-04 145.2 145.64 144.4 144.74 3439
1974-03-05 144.3 145.1 144.1 144.64 3045
1974-03-06 144.5 144.5 143.1 143.9 3708
1974-03-07 144.2 144.3 143.1 143.6 3158
1974-03-08 142.8 142.94 140.6 140.6 4127
1974-03-09 139.4 140.6 138.94 140.14 3100
1974-03-10 141.2 141.2 139.94 140.44 2575
1974-03-11 139.4 141.5 139.2 141.2 3150
1974-03-12 128.1 129.3 127.6 127.8 11085
1974-03-13 127.9 128.5 126.54 126.64 9877
1974-03-14 126 126.4 123.64 124.44 13092
1974-03-15 125.9 126.6 125.2 125.54 8964
1974-03-16 125 128.54 124.6 128.3 9514
1974-03-17 129.2 130.8 128.04 129.24 13198
1974-03-18 130.3 131.04 129.5 129.64 10445
1974-03-19 130.1 130.1 128.14 129.2 6168
1974-03-20 127.6 129.8 126.6 129.2 7427
1974-03-21 130 131.5 129.2 131.4 9879
1974-03-22 131 131.54 129.5 129.64 7271
1974-03-23 129.64 130.24 129.14 129.5 7033
1974-03-24 129.5 130.14 128.94 130.04 4877
1974-03-25 130.4 133.04 130.24 133.04 10590
1974-03-26 132.5 132.54 131.4 131.64 7663
1974-03-27 130.5 130.9 128.64 128.64 10413
1974-03-28 127.44 129.1 126.14 128.2 12443
1974-03-29 127.5 129 127.5 128.54 6532
1974-03-30 129.2 131.4 128.5 130.1 7330
1974-03-31 129.6 129.8 127.6 127.74 9024
1974-04-01 127.6 128.9 127.4 128.4 6173
1974-04-02 129.1 131.4 128.9 131.24 8194
1974-04-03 131.4 132.5 131.24 132.24 7246
1974-04-04 132.24 132.84 131.5 132.7 6931
1974-04-05 132.9 133 131.1 131.74 8413
1974-04-06 132.2 133.7 132.1 132.9 6301
1974-04-07 132.3 133.5 132.2 132.84 4375
1974-04-08 132.74 134.9 132.5 133.64 3464
1974-04-09 132.4 133.94 132.2 132.34 2647
1974-04-10 131.6 131.7 129.8 130.1 3831
1974-04-11 130.4 131.9 129.9 131.7 3237
1974-04-12 132.1 134.7 132 134.54 4586
1974-04-13 135 137.1 134.6 136.74 3449
1974-04-14 137.34 137.74 136.74 136.94 2586
1974-04-15 137.2 137.8 136 136.5 2869
1974-04-16 137.6 139.2 137.6 138.84 2640
1974-04-17 138.7 138.9 138 138.1 2055
1974-04-18 138.3 138.8 137.3 138.3 1557
1974-04-19 138.7 139.44 138.3 139.2 1041
1974-04-20 140.8 141.2 140 140.1 1729
1974-04-21 140.5 141.6 139.9 141.5 1533
1974-04-22 141.6 142.6 141.2 142.44 1058
1974-04-23 142.8 143 142.2 142.4 928
1974-04-24 143.6 143.6 141.2 141.4 10090
1974-04-25 141.2 141.84 140.6 141.74 9217
1974-04-26 141.8 142.8 140.2 142.6 11483
1974-04-27 143.5 145.3 142.54 144.2 14959
1974-04-28 144.3 146 144.14 145.94 11511
1974-04-29 146 146.94 145.5 146.44 10473
1974-04-30 146.44 146.44 144.5 144.8 11039
1974-05-01 144 144.34 143.14 143.54 10859
1974-05-02 143.2 143.94 142 142.2 9735
1974-05-03 142.04 144.1 142.04 144 6963
1974-05-04 143.4 143.44 141.64 141.94 8596
1974-05-05 141.04 144.5 141.04 144.34 12709
1974-05-06 143.7 144 141.5 141.8 9869
1974-05-07 141.3 141.3 139.04 139.2 13374
1974-05-08 139.4 140.54 138.8 139.44 7853
1974-05-09 139.6 141.04 139.04 140.6 9338
1974-05-10 140.1 141.34 139.84 141.1 7273
1974-05-11 139.8 140.8 139.5 140.74 7796
1974-05-12 140.6 140.74 139.7 139.9 6566
1974-05-13 138.6 139.44 137.44 138 9156
1974-05-14 138 138.94 137.54 138.74 9082
1974-05-15 137.9 138.64 137.44 138.2 6339
1974-05-16 138.1 138.94 137.84 138.8 6408
1974-05-17 138.6 139.64 138.6 139.54 6996
1974-05-18 139.1 142.14 139.04 141.9 11260
1974-05-19 141.7 142.14 141.24 141.84 7926
1974-05-20 141.84 142.74 141.8 142.4 7294
1974-05-21 142.1 142.54 142.04 142.2 4135
1974-05-22 142.4 143.84 142.3 143.5 5695
1974-05-23 143.2 145.1 142.6 144.7 6198
1974-05-24 144.9 146.4 144.7 144.84 7302
1974-05-25 144.6 145.14 143.8 144.04 5503
1974-05-26 143.6 145.1 143.6 144.94 3593
1974-05-27 144.5 144.94 143.84 144.64 2430
1974-05-28 145 145.6 144.84 144.94 2163
1974-05-29 145.1 145.14 144.2 144.7 2493
1974-05-30 144.6 145.5 144.5 145.2 2311
1974-05-31 145.5 146.4 145.3 146.34 3196
1974-06-01 146.1 146.14 145.7 145.74 1666
1974-06-02 145.74 146.3 145.24 146.1 1635
1974-06-03 145.9 146 144.24 144.54 2277
1974-06-04 144.6 145.2 144.5 144.64 1652
1974-06-05 145 145.6 144.2 145.4 1455
1974-06-06 148.7 148.94 148.3 148.84 5567
1974-06-07 148.84 150.4 147.8 149.7 12860
1974-06-08 150.1 150.44 149.4 149.5 9586
1974-06-09 149 149.1 147.7 147.8 12661
1974-06-10 148.3 149.2 147.2 147.34 12713
1974-06-11 146.9 147.84 146.7 146.8 9403
1974-06-12 146.4 148.5 146.3 148.34 10986
1974-06-13 148 148.34 146.2 146.6 14193
1974-06-14 146.4 147.34 146.24 147.24 8968
1974-06-15 146.6 146.9 145.14 145.5 11861
1974-06-16 145.3 148 145.1 147.5 10122
1974-06-17 147.2 147.9 146.8 147.2 8945
1974-06-18 147.6 147.94 147.3 147.64 5656
1974-06-19 146.7 146.7 145.54 146.04 9812
1974-06-20 146 146.5 145.04 145.74 9733
1974-06-21 145.8 146.2 144.44 144.54 7715
1974-06-22 144.8 145.4 144.2 144.6 7966
1974-06-23 145.4 146.94 145.4 146.7 9913
1974-06-24 146.5 146.94 146.1 146.5 6788
1974-06-25 146.8 146.8 145.14 145.34 8030
1974-06-26 145.6 145.84 143.9 144.7 9732
1974-06-27 145.7 145.9 144.7 145.1 8924
1974-06-28 145.3 146.2 145 145.54 5214
1974-06-29 146.14 147.3 146.14 146.94 7262
1974-06-30 147.9 148.1 146.5 146.54 6850
1974-07-01 147.1 147.24 145.8 146.2 6566
1974-07-02 145.54 146.14 144.34 144.64 7583
1974-07-03 145 145.5 144.4 145 4323
1974-07-04 144.7 145 142.84 143 6256
1974-07-05 143.5 143.54 142.1 142.8 4860
1974-07-06 143.6 143.94 142.4 142.74 3348
1974-07-07 142.9 143.9 142.64 143.1 3188
1974-07-08 142.2 142.94 141.54 141.74 3607
1974-07-09 142.8 143.9 142.6 143.64 2335
1974-07-10 144 145.1 143.9 144.84 2468
1974-07-11 145.2 145.2 144.3 144.9 1691
1974-07-12 144.74 145.7 144.74 145.2 2024
1974-07-13 145.7 146 145.3 145.94 1864
1974-07-14 146.4 146.7 146.2 146.4 1679
1974-07-15 147.2 147.4 146.7 147.3 1852
1974-07-16 147.1 147.8 146.8 147.3 1445
1974-07-17 146.5 147.7 145.8 147.6 8914
1974-07-18 147.3 147.9 147.1 147.8 7764
1974-07-19 147.94 149.14 147.94 148.74 7984
1974-07-20 149.2 149.54 148.44 148.94 8260
1974-07-21 148.3 148.4 147.6 147.94 7175
1974-07-22 148 148.3 147.4 147.8 4499
1974-07-23 147.6 148 147.2 147.9 3009
1974-07-24 147.2 148.8 147.1 148.34 8011
1974-07-25 147.9 147.9 146.64 146.84 10613
1974-07-26 146.8 148.04 146.7 146.9 8527
1974-07-27 146.9 147.14 146.6 146.8 5383
1974-07-28 147.3 148.2 146.4 147.1 9627
1974-07-29 147.3 148.34 147 148.04 9478
1974-07-30 148.1 148.4 147.34 147.6 9682
1974-07-31 148 148.24 147.5 148.04 7783
1974-08-01 148.6 149.3 148.3 148.9 9174
1974-08-02 148.9 149.4 148.14 148.3 7752
1974-08-03 148.4 149.2 148.04 148.7 6527
1974-08-04 148.4 148.5 145.94 146.64 12734
1974-08-05 146.5 146.94 145.54 146 9275
1974-08-06 146.2 146.44 145.24 145.4 6500
1974-08-07 145.3 145.8 144.64 145.04 5418
1974-08-08 145.4 146.2 145.24 145.64 5276
1974-08-09 145.64 146.5 145.44 145.8 4309
1974-08-10 146 146.24 144.64 144.84 5019
1974-08-11 145.4 147 145.2 146.8 6880
1974-08-12 146.9 149 146.9 148.7 9015
1974-08-13 148.3 149.94 148.3 149.44 8670
1974-08-14 149.8 150.24 149.2 150.14 5560
1974-08-15 149.74 150.44 149.54 150.14 3156
1974-08-16 150.24 151.6 150.1 151.1 4917
1974-08-17 151.3 151.5 150.34 150.8 3456
1974-08-18 150.8 151.6 150.6 151.34 2700
1974-08-19 151.54 151.7 150.7 150.74 3000
1974-08-20 148.1 148.34 147.74 147.94 3844
1974-08-21 148 148.5 147.5 148.44 3131
1974-08-22 148.4 149.54 148.4 149.2 1613
1974-08-23 149.2 149.64 148.84 149.3 1466
1974-08-24 149.2 149.4 148.84 149.04 1306
1974-08-25 149.2 149.9 149.1 149.7 1481
1974-08-26 149.9 151.2 149.5 151.1 1233
1974-08-27 154.6 155.94 154.5 155.5 14286
1974-08-28 155.5 155.8 155.04 155.4 9495
1974-08-29 156 156.8 155.64 155.84 11233
1974-08-30 156 156.8 155.4 156.3 11332
1974-08-31 156.7 156.9 155.8 156.3 10177
1974-09-01 156 156.4 155.5 156.1 8381
1974-09-02 156.4 156.4 154.5 154.54 11251
1974-09-03 154.7 156.8 154.5 156.7 10013
1974-09-04 156.7 156.7 155.5 155.6 8698
1974-09-05 155 155.84 154.9 155.6 7963
1974-09-06 155.2 156.1 155 155.14 7709
1974-09-07 155.1 155.6 154.14 154.24 9841
1974-09-08 154 154.7 153.8 154.14 7844
1974-09-09 154.1 156.44 154.1 156.1 11154
1974-09-10 156.3 156.4 155.8 156.24 8478
1974-09-11 156.3 156.64 154.7 154.84 11598
1974-09-12 154.84 155.7 154.7 155.54 6878
1974-09-13 155 155.54 154.2 155.5 8219
1974-09-14 154.3 157.2 154.2 156.1 13965
1974-09-15 156.3 157.34 156.24 157.14 10744
1974-09-16 157 157.6 156.74 157.34 8138
1974-09-17 157.64 157.8 156.64 156.8 8414
1974-09-18 156.7 157 155.9 156.4 10116
1974-09-19 156.6 156.9 156 156.3 7702
1974-09-20 156.6 156.6 155.34 155.54 10095
1974-09-21 156.6 157.3 156.6 157.04 8669
1974-09-22 156.94 157 156.34 156.54 6011
1974-09-23 156.8 156.94 156 156.14 5991
1974-09-24 156.6 156.74 153.8 154.8 7875
1974-09-25 155.3 155.4 154.2 155.1 6030
1974-09-26 155.7 156.5 155.4 156.34 5406
1974-09-27 156.4 156.8 154.94 155.34 4445
1974-09-28 155.8 156.14 154.54 155.7 3356
1974-09-29 155.84 156 155.2 155.74 3297
1974-09-30 155.54 156.1 154.6 154.64 5829
1974-10-01 154.84 154.84 152.8 152.9 4772
1974-10-02 153.2 153.2 151.7 151.94 3661
1974-10-03 152.04 152.7 152 152.6 1418
1974-10-04 152.8 154.1 152.8 153.84 1759
1974-10-05 154.3 154.74 154.2 154.4 1874
1974-10-06 154.2 154.3 153.44 154.2 2237
1974-10-07 154.4 155 153.2 154.1 2703
1974-10-08 142.2 143 141.8 142.84 5803
1974-10-09 142.74 143.54 141.3 141.54 9801
1974-10-10 141.8 141.8 140.2 141.04 14283
1974-10-11 141.5 142.7 141 141.04 10433
1974-10-12 141.2 141.74 140.54 141.64 7923
1974-10-13 142.3 143 141.34 142.9 8630
1974-10-14 143.2 143.6 142.54 142.9 8698
1974-10-15 143.3 144.34 143.3 144.1 8197
1974-10-16 144.4 145 144.4 144.94 8150
1974-10-17 145.1 145.5 144.44 145.1 9235
1974-10-18 144.8 145.1 144.14 144.84 7773
1974-10-19 145.2 145.4 144.1 144.3 6905
1974-10-20 145.1 145.6 144.64 144.84 9040
1974-10-21 144.8 145.24 143.64 144.14 9886
1974-10-22 144.7 144.7 143.6 144.2 9760
1974-10-23 144.4 144.94 143.84 144.14 6550
1974-10-24 144.14 144.4 143.14 143.34 8499
1974-10-25 143.44 144 142.94 143.04 9724
1974-10-26 142.84 143.04 142.2 142.4 10072
1974-10-27 142.9 143 140.7 141.34 10954
1974-10-28 141.4 141.7 140.8 141.4 7350
1974-10-29 141.7 141.7 140.64 140.84 6308
1974-10-30 141.24 142.3 141.24 141.94 7122
1974-10-31 141.8 141.8 139 139.74 12912
1974-11-01 139.5 139.8 138.24 138.4 10641
1974-11-02 138.4 138.94 137.34 137.54 8404
1974-11-03 137.4 138.2 137 137.4 8865
1974-11-04 137.7 138.04 137.4 137.8 6766
1974-11-05 137.9 138.7 137.84 138.1 5949
1974-11-06 137.9 138.2 136.5 136.7 5827
1974-11-07 136.3 138.44 136.3 137.94 6283
1974-11-08 137.94 138.44 137.3 137.64 5190
1974-11-09 137.3 138.14 137.1 137.64 4442
1974-11-10 137.74 138.8 137.44 138.64 4065
1974-11-11 138.64 139.7 138.6 139.64 3506
1974-11-12 139.9 140.9 139.64 140.44 2969
1974-11-13 140.4 141.8 140.3 141.3 3890
1974-11-14 141.7 142.24 141.6 142.2 2578
1974-11-15 142.24 143.5 141.74 142.84 2835
1974-11-16 142.9 143.8 142.9 143.4 1694
1974-11-17 144.9 146.04 144.8 145.94 1831
1974-11-18 145.94 147.7 145.9 147.44 1416
1974-11-19 140.94 141.14 139.7 140.24 7351
1974-11-20 140.2 140.5 139.4 139.94 6631
1974-11-21 139.84 140.1 139.4 139.74 5380
1974-11-22 139.6 141.6 139.5 141.2 7444
1974-11-23 140.8 141.2 140.34 141.14 5712
1974-11-24 140.8 140.94 140.34 140.84 5792
1974-11-25 141.3 141.94 141.1 141.54 5702
1974-11-26 141.24 141.24 139.8 140.3 6241
1974-11-27 139.1 141.34 138.24 141.2 9651
1974-11-28 140.8 141.7 140.5 140.8 6494
1974-11-29 140.3 140.3 139.3 139.5 6095
1974-11-30 139.2 139.5 138.5 139 5186
1974-12-01 138.4 140.84 138.3 140.3 8681
1974-12-02 140.1 141.54 139.94 141.5 7417
1974-12-03 141.7 144 141.6 143.84 13277
1974-12-04 143.7 145.1 143.7 143.9 10343
1974-12-05 143.9 145.9 143.8 145.84 6773
1974-12-06 145.2 146.4 144.84 145.6 7650
1974-12-07 145.4 145.7 144.9 145.34 6075
1974-12-08 145 145.8 145 145.5 4000
1974-12-09 145.4 145.84 145 145.34 4740
1974-12-10 145.3 146 144.6 145.2 7328
1974-12-11 145.2 145.6 144.54 144.74 6510
1974-12-12 144.5 145.8 144.24 145.54 6867
1974-12-13 145.1 145.8 145 145.04 5971
1974-12-14 144.84 145.44 144.8 145.14 4226
1974-12-15 145.1 145.7 144.5 145.2 5633
1974-12-16 145 145.64 144.7 144.84 4926
1974-12-17 145.2 147.3 145.04 147.1 6380
1974-12-18 147.04 147.3 146.34 147.1 5537
1974-12-19 146.8 148.5 146.74 148.34 4608
1974-12-20 148 148.14 147.5 147.64 4973
1974-12-21 148.6 149.3 148.5 148.6 3963
1974-12-22 149 149.2 148.4 149.14 3177
1974-12-23 149.2 149.54 149.04 149.34 1244
1974-12-24 149.3 149.6 148.6 149.34 1796
1974-12-25 149.2 149.8 149 149.04 2109
1974-12-26 149.1 149.14 148.04 148.14 1876
1974-12-27 147.8 148.4 147.1 148.14 1199
1974-12-28 148.3 148.5 147.8 147.9 1266
1974-12-29 147.7 149.1 146 147.94 1025
1974-12-30 148.9 148.9 148.2 148.2 153
1974-12-31 148.1 148.5 148 148.2 154
1975-01-01 148 148.2 147.8 148.1 166
1975-01-02 148 148 147.6 147.6 160
1975-01-03 147.2 147.2 147.2 147.2 151
1975-01-04 147 147 146.04 146.04 154
1975-01-05 146 147.1 146 147.1 172
1975-01-06 147 147 144.9 145 171
1975-01-07 144.5 144.5 143.6 143.6 170
1975-01-08 140.6 141.2 140.6 141.1 155
1975-01-09 140.8 140.8 138.6 138.6 159
1975-01-10 138.6 138.6 138.6 138.6 152
1975-01-11 138.6 139.4 138.6 139.4 154
1975-01-12 139.4 139.4 137.6 137.6 156
1975-01-13 137.6 137.6 137.6 137.6 150
1975-01-14 138.2 138.2 138.2 138.2 150
1975-01-15 138.2 138.2 138.2 138.2 151
1975-01-16 138.2 138.2 138.2 138.2 150
1975-01-17 138.2 138.2 138.2 138.2 150
1975-01-18 138 138 138 138 150
1975-01-19 137.6 137.6 137.6 137.6 151
1975-01-20 140.5 140.5 140 140 151
1975-01-21 142.8 143.54 142.7 143.4 7830
1975-01-22 143.1 143.14 142.4 142.84 6746
1975-01-23 142.6 142.94 141.9 142.14 6439
1975-01-24 142.7 144.9 142.7 144.14 10735
1975-01-25 144.1 145.3 144 144.2 9794
1975-01-26 143.5 144.2 143.44 144.1 5238
1975-01-27 143.9 144.54 143.64 143.84 6691
1975-01-28 143.6 143.9 142.14 142.3 5368
1975-01-29 141.9 142.8 141.34 142.7 6857
1975-01-30 142.6 143.4 141.84 142.1 5558
1975-01-31 142.6 143.1 141.64 142.6 3540
1975-02-01 143 143.44 142.5 143.34 2263
1975-02-02 143.44 144.1 143.1 143.9 1576
1975-02-03 144.8 145.9 144.8 145.7 2114
1975-02-04 146.1 146.44 145.54 146.4 1604
1975-02-05 146.4 146.6 145.9 146 1479
1975-02-06 146.5 147.1 146.24 147 1135
1975-02-07 145.8 146.74 145.2 146.7 910
1975-02-08 147.2 147.64 146.5 147.34 1047
1975-02-09 147.7 149.3 147.5 149.24 843
1975-02-10 149.3 149.34 148.7 148.84 936
1975-02-11 148.7 148.7 145.84 146.5 783
1975-02-12 150.6 151.5 150.6 150.9 7470
1975-02-13 150.7 151 148.5 150.44 10469
1975-02-14 150.44 150.74 149.9 150.4 5991
1975-02-15 150.4 150.5 149.04 149.3 5158
1975-02-16 149 149 147.5 148.24 8833
1975-02-17 147.8 148.6 147.6 148.3 6545
1975-02-18 148.8 149.3 148.54 148.9 6420
1975-02-19 148.8 148.8 148 148.54 4578
1975-02-20 148.8 149.3 147.3 147.5 7188
1975-02-21 147.8 148.54 147 148.34 7723
1975-02-22 148.3 149.04 148.2 148.94 4234
1975-02-23 149.2 149.24 148 149.04 5950
1975-02-24 149.4 149.6 148.5 149.34 5188
1975-02-25 149.4 149.9 149.1 149.64 5178
1975-02-26 149.7 149.9 149.24 149.84 3175
1975-02-27 149.8 149.9 149.3 149.84 2245
1975-02-28 150 150.1 148.74 148.84 5136
1975-03-01 149.2 150.4 148.8 149.94 6745
1975-03-02 149.64 150.3 149.1 149.34 4658
1975-03-03 149.4 149.84 149.34 149.74 2068
1975-03-04 149.8 150.5 149.7 150.44 6007
1975-03-05 150.9 151.44 150.8 151.4 5956
1975-03-06 151.8 152.1 151.5 152 5664
1975-03-07 152.2 152.24 151.54 151.84 5950
1975-03-08 152 152 150.6 150.94 6394
1975-03-09 150.6 150.6 149.7 150.44 5849
1975-03-10 150.5 150.9 149.7 149.94 3282
1975-03-11 150.3 150.64 149.64 150.4 2475
1975-03-12 150 150.9 149.6 150.44 2236
1975-03-13 150.7 151.4 150.54 151.14 2427
1975-03-14 150.9 151.3 150.6 150.84 3072
1975-03-15 150.84 151.3 150.7 151.24 2606
1975-03-16 151.5 151.7 150.5 151.1 2928
1975-03-17 152.1 153.54 151.9 153.44 4399
1975-03-18 153.6 154.14 153.5 153.74 2814
1975-03-19 153.5 153.8 153.24 153.6 2096
1975-03-20 154.24 154.84 154.1 154.8 3159
1975-03-21 155.1 155.9 155 155.84 1881
1975-03-22 156.1 156.84 155.94 156.54 2389
1975-03-23 156.54 157.9 156.4 157.84 2430
1975-03-24 158.2 158.3 157.4 157.64 1968
1975-03-25 152.8 153.7 152.54 153.6 5517
1975-03-26 153.4 153.8 153 153.6 3007
1975-03-27 153.3 155.84 153.1 155.5 7849
1975-03-28 155.1 155.34 154.5 154.9 6013
1975-03-29 155.1 155.44 154.5 154.74 4276
1975-03-30 154.6 155.1 154.4 154.74 2738
1975-03-31 154.7 155.24 154.4 154.9 3259
1975-04-01 154.1 154.4 153.2 154.3 6455
1975-04-02 155.4 155.4 153.3 153.9 8777
1975-04-03 153.64 154.24 153.3 153.74 5176
1975-04-04 153 153.5 152.7 153.34 4409
1975-04-05 153.1 153.34 152.64 152.94 3744
1975-04-06 152.5 154.34 152.24 154.24 8390
1975-04-07 154.2 155.2 154.04 155.04 5818
1975-04-08 154.7 156 153.8 154.4 8768
1975-04-09 154 154.74 153.8 154.54 3979
1975-04-10 154.4 155.6 154 155.2 7127
1975-04-11 155.4 156.5 155.24 156.44 8703
1975-04-12 156.6 157.8 156.5 157.6 10700
1975-04-13 157.8 158.74 157.4 158.7 8766
1975-04-14 158.2 158.7 157.94 158.5 6309
1975-04-15 156.8 157.54 156.4 157.4 7846
1975-04-16 158.8 160.1 158.8 159 12102
1975-04-17 159 159.3 158.4 158.54 8936
1975-04-18 158.5 158.94 158.04 158.6 4745
1975-04-19 158.7 160.2 158.64 159.9 5914
1975-04-20 159.9 159.9 158.54 158.7 4605
1975-04-21 158.8 159.1 157.8 158 3897
1975-04-22 158.2 159.4 157.8 159.14 4057
1975-04-23 159 159.8 158.9 159.1 3277
1975-04-24 159.1 159.8 158.6 158.7 3759
1975-04-25 158.8 159.6 158.5 159.44 2757
1975-04-26 159.4 159.84 159 159.1 2851
1975-04-27 159 159 158.2 158.44 2802
1975-04-28 158.1 159.44 158.04 159.34 2571
1975-04-29 159.34 159.5 158.6 159.14 3052
1975-04-30 159.2 159.2 158.74 158.84 3138
1975-05-01 159.04 159.6 158.7 159.54 3012
1975-05-02 159.5 159.8 159.1 159.54 5096
1975-05-03 158.9 159.3 156.6 157.7 3817
1975-05-04 154 154 151.24 151.24 14895
1975-05-05 151 151.6 150.24 151.1 17170
1975-05-06 151.24 151.5 150.4 151.1 11046
1975-05-07 150.9 151.5 150.5 150.54 6665
1975-05-08 150.4 150.8 149.5 150.74 9768
1975-05-09 150.84 151.44 150.74 150.9 7121
1975-05-10 150.8 151.9 150.8 151.84 6112
1975-05-11 151.94 152.6 151.94 152.5 6973
1975-05-12 153 153.34 152.64 153 7015
1975-05-13 153.4 153.7 152.9 153.4 7323
1975-05-14 153.4 153.7 152.9 153.34 7490
1975-05-15 153.4 154.6 153.24 154.54 9107
1975-05-16 154.7 155.6 154.64 155.24 9968
1975-05-17 155.2 156.1 154.8 156.04 9049
1975-05-18 156.2 156.4 155.7 156.24 9010
1975-05-19 156.24 156.54 154.84 155.04 9134
1975-05-20 155.2 155.5 154.54 154.6 5917
1975-05-21 154.7 155.1 154.7 154.94 3459
1975-05-22 155.74 156.7 155.7 156.3 6914
1975-05-23 155.9 156 153.5 153.64 10908
1975-05-24 153.9 154.2 153 153.04 8279
1975-05-25 154.7 154.9 154.4 154.64 5072
1975-05-26 154.74 154.74 153.84 154.04 7648
1975-05-27 154.5 155.74 154.3 155.44 10348
1975-05-28 155.44 155.74 155.14 155.5 5604
1975-05-29 155.54 155.94 155.1 155.74 6525
1975-05-30 156 157.34 155.84 157.2 6486
1975-05-31 157.3 157.8 157.04 157.2 5550
1975-06-01 157.3 157.64 156.74 157.2 5520
1975-06-02 157.3 157.94 156.7 157.9 5837
1975-06-03 158.2 159.54 158.14 159.5 6474
1975-06-04 159.7 160 159.44 159.84 6063
1975-06-05 160 160.5 159.8 160.44 5204
1975-06-06 160.6 160.8 160.24 160.74 5667
1975-06-07 160.74 160.94 160.6 160.84 3820
1975-06-08 161.1 161.1 160.04 160.14 4344
1975-06-09 159.94 159.94 159.1 159.44 3705
1975-06-10 159.74 159.84 159.2 159.74 3114
1975-06-11 159.8 160.1 159.4 159.84 4097
1975-06-12 159.94 160.7 159 160 5199
1975-06-13 147.3 148.24 146.94 147.8 9370
1975-06-14 148 148.1 145.9 146.14 12934
1975-06-15 146.3 146.54 145.4 145.7 11286
1975-06-16 146.2 146.34 145.14 145.2 9072
1975-06-17 145.2 146.6 144.8 146.3 8921
1975-06-18 146.4 146.8 145.9 145.94 6048
1975-06-19 146.24 147.6 146.14 146.44 9761
1975-06-20 147.2 147.7 146.5 147.2 8101
1975-06-21 147.7 148.7 147.64 148.6 9444
1975-06-22 148.7 149.8 148.5 149.3 11645
1975-06-23 149.6 150.44 149.44 150.4 8085
1975-06-24 150.5 150.84 147.5 147.84 14426
1975-06-25 148.8 149.5 148.14 149.44 9363
1975-06-26 149.7 150.24 148.1 148.4 9418
1975-06-27 148.54 148.9 147.3 148.14 8490
1975-06-28 148.34 148.5 147.5 147.9 5763
1975-06-29 147.5 148.1 147.14 147.4 7418
1975-06-30 147.6 149 147.6 148.84 7839
1975-07-01 148.84 149.3 148.3 148.4 6939
1975-07-02 149 149.1 148 148.64 8515
1975-07-03 148.9 149.8 148.8 149.64 7062
1975-07-04 149.4 149.4 148.24 148.74 8515
1975-07-05 148.4 148.54 146.6 147.44 9871
1975-07-06 147.54 147.9 146.9 147 6080
1975-07-07 147.3 147.3 146.84 147.04 5189
1975-07-08 147.1 149.5 147.1 148.14 9095
1975-07-09 148.14 148.5 147.24 147.94 7086
1975-07-10 147.74 148.44 147.64 148 5367
1975-07-11 148.5 149 148.3 148.94 2676
1975-07-12 149 149.54 148.74 149.44 3506
1975-07-13 149.5 150 149.4 149.94 4283
1975-07-14 150.1 150.5 149.6 150.44 3577
1975-07-15 150.5 150.7 150.2 150.64 2949
1975-07-16 150.4 151.3 150.3 151.2 2717
1975-07-17 151.1 152.5 150.9 152.24 4168
1975-07-18 152.3 152.7 151.64 152.4 3377
1975-07-19 152.8 153.6 152.8 153.54 3532
1975-07-20 153.24 153.64 152.5 153.34 3036
1975-07-21 153.6 153.6 152.8 153.34 1443
1975-07-22 153.44 154.14 153.3 153.94 1707
1975-07-23 154 154.44 153.84 154.24 1674
1975-07-24 154.5 154.7 152.8 153.3 1877
1975-07-25 148.1 148.44 146.9 148.1 7801
1975-07-26 147.7 147.94 146.5 146.54 9000
1975-07-27 146.54 146.74 145.9 146.2 7484
1975-07-28 146.1 146.84 145.8 146 5453
1975-07-29 145.94 146.64 145.7 146.3 5185
1975-07-30 146.4 146.84 146.04 146.34 4011
1975-07-31 146.2 146.34 145.7 146.14 3433
1975-08-01 145.74 145.84 144.44 145.6 9767
1975-08-02 145.7 146.1 145.1 145.54 6059
1975-08-03 145.7 146.4 145.5 146.04 4249
1975-08-04 146.6 147.4 146.34 147.3 5125
1975-08-05 147.4 148.54 147.24 148.3 8679
1975-08-06 148.1 148.44 147.5 148.14 7464
1975-08-07 147.64 148.7 147.14 148.4 7692
1975-08-08 148.5 150.1 148.3 149.9 9064
1975-08-09 150 150.8 149.64 150.74 8814
1975-08-10 150.74 151.54 150.64 150.74 6722
1975-08-11 150.9 151.7 150.8 151.14 7948
1975-08-12 151.5 152.6 151.3 152.54 7871
1975-08-13 152.4 152.4 151.94 152.3 4138
1975-08-14 152.3 152.9 151.8 152.84 4943
1975-08-15 153.3 153.6 152.14 152.6 8202
1975-08-16 152.9 153.8 152.5 153.7 5541
1975-08-17 154.3 155.7 154.2 155.34 6951
1975-08-18 155.1 155.44 154.74 155.3 6508
1975-08-19 155.3 156.04 155.04 155.9 4939
1975-08-20 155.74 156.3 155.3 155.94 3895
1975-08-21 155.84 157 155.7 156.64 4333
1975-08-22 156.34 156.34 155.24 155.94 3274
1975-08-23 155.24 155.4 153.8 155.14 4651
1975-08-24 154.6 156.2 154.1 154.34 3479
1975-08-25 153.6 154.5 153.2 153.9 2592
1975-08-26 154.3 155.7 154.3 155.54 2553
1975-08-27 155.84 156.2 154.94 156 2331
1975-08-28 156.3 158.2 156.24 157.54 3010
1975-08-29 157.34 158.14 157.04 157.94 2463
1975-08-30 158.6 158.6 157.4 157.6 2369
1975-08-31 157.4 157.4 156.5 157.14 2165
1975-09-01 157 157.14 156.74 156.94 1038
1975-09-02 156.74 156.8 155.54 155.8 1772
1975-09-03 154.8 155 154.3 154.6 1541
1975-09-04 154.1 155.8 153.3 155.6 11273
1975-09-05 155.44 156.7 155.14 156.44 8384
1975-09-06 155.84 155.84 153.44 153.44 9353
1975-09-07 153.7 153.9 152 152.34 12981
1975-09-08 153.3 154.7 153 153.9 9571
1975-09-09 153.8 154 153.14 153.3 5066
1975-09-10 152.5 152.5 151.5 152.14 8852
1975-09-11 151.9 152.6 151.8 152.4 4239
1975-09-12 151.8 152.94 150.9 152.64 5803
1975-09-13 152 154.3 152 154.04 8831
1975-09-14 153.9 155.2 153.74 154.54 8042
1975-09-15 154.74 155.7 154.5 155.64 6191
1975-09-16 155.7 156.6 155.5 155.94 8665
1975-09-17 155.8 157.2 155.64 157.1 6089
1975-09-18 157.2 158.24 157.1 157.9 9096
1975-09-19 157.7 157.84 157.3 157.7 4713
1975-09-20 157.8 158.3 157.2 157.4 5458
1975-09-21 157.4 158.14 156.9 157.24 5742
1975-09-22 157.6 159.2 157.6 158.74 6455
1975-09-23 158.9 159.24 158.4 158.94 4711
1975-09-24 158.7 159.44 158.54 159.34 6317
1975-09-25 158.94 159.2 158.4 158.8 4124
1975-09-26 158.74 159.2 158.64 159.14 4521
1975-09-27 159.14 159.4 156.7 158.5 8112
1975-09-28 158.7 158.74 157 157.1 6162
1975-09-29 157 157.44 156.5 156.94 5292
1975-09-30 157.3 158.34 157.3 158 5668
1975-10-01 157.7 158.24 157.2 158.1 3844
1975-10-02 159.7 160.9 159.4 160.34 4147
1975-10-03 160.54 160.7 159.7 159.84 3131
1975-10-04 159.7 160.44 159.3 159.84 3798
1975-10-05 160.04 160.24 159.1 159.5 3044
1975-10-06 158.7 159.7 158.54 159.54 3238
1975-10-07 159.5 159.5 158.7 159.04 1769
1975-10-08 159.4 159.74 158.64 159.14 2523
1975-10-09 158.94 158.94 157.8 158.4 3747
1975-10-10 158 158.1 157 157.04 2963
1975-10-11 157.34 158.3 157.2 158 2268
1975-10-12 158.3 158.6 157.84 157.94 1307
1975-10-13 158 158.1 157.1 157.74 2174
1975-10-14 157.74 158.14 157.44 158.04 2258
1975-10-15 158.3 158.7 158.1 158.6 2471
1975-10-16 158.9 159.34 158 158.6 3215
1975-10-17 153.84 153.84 153.04 153.5 5836
1975-10-18 152.8 154.7 152.8 154.64 10387
1975-10-19 154.8 155.54 154.7 155.24 10426
1975-10-20 155.3 155.8 154.94 155.74 8203
1975-10-21 155.6 156 155.3 155.74 5786
1975-10-22 155.84 155.84 154.24 154.64 7866
1975-10-23 154.9 155.4 153.9 154.1 6712
1975-10-24 154.64 155.1 154.24 154.9 5672
1975-10-25 155.1 155.24 153.7 154 6964
1975-10-26 154 154.3 153.4 154.2 4359
1975-10-27 154.2 154.84 153.94 154.4 4525
1975-10-28 154.2 155.3 153.64 155.14 5416
1975-10-29 155 155.64 154.7 155.2 5191
1975-10-30 155.3 155.3 154.6 154.7 3929
1975-10-31 154.5 156.8 154.4 156.6 11286
1975-11-01 156.6 157.7 156.34 157.3 8163
1975-11-02 157.6 157.9 157.14 157.8 5968
1975-11-03 157.9 158.7 157.6 158.24 7599
1975-11-04 158.34 158.44 157.34 157.94 4218
1975-11-05 158 158.3 157.44 158.1 3192
1975-11-06 158.3 158.8 158.14 158.64 5339
1975-11-07 158.3 159.04 157.64 158.24 5436
1975-11-08 158.4 158.7 158.24 158.3 4784
1975-11-09 158.84 159.54 158.2 159.5 7014
1975-11-10 159.2 159.2 158.1 158.2 6561
1975-11-11 158.1 158.54 157.4 157.5 4453
1975-11-12 157.5 158.34 157.1 158.24 4705
1975-11-13 158 158 156.6 157.1 5871
1975-11-14 157.4 157.9 156.74 157.4 3061
1975-11-15 157.6 158.1 157.1 157.2 3274
1975-11-16 157.7 158.2 157.5 158.14 3760
