"Index" "Open" "High" "Low" "Close" "Volume"
1972-09-28 52.3 52.4 52.1 52.18 1211
1972-09-29 52.2 52.6 52.1 52.14 1844
1972-09-30 52.5 52.5 51.54 51.54 814
1972-10-01 51.35 51.7 50.7 50.87 511
1972-10-02 51 51.05 50.32 50.32 415
1972-10-03 50.3 50.66 50.2 50.66 697
1972-10-04 50.7 50.85 50.55 50.65 1200
1972-10-05 50.6 50.6 48.5 48.54 242
1972-10-06 48.5 49.44 48.5 49.44 637
1972-10-07 49.4 49.4 49.2 49.38 785
1972-10-08 49.65 50.6 49.65 50.4 153
1972-10-09 50.1 52.1 50.1 51.46 337
1972-10-10 51 51.7 51 51.36 257
1972-10-11 51.4 51.45 50.94 50.94 75
1972-10-12 51.25 52.45 51.25 52.35 17664
1972-10-13 52.6 53.2 52.2 52.7 14253
1972-10-14 52.5 52.5 51.5 51.65 9805
1972-10-15 51.7 51.95 51.25 51.7 8147
1972-10-16 51.3 52.35 51.05 51.85 10260
1972-10-17 51.9 52.1 51.5 51.85 6855
1972-10-18 51.95 52.15 51.75 51.9 2576
1972-10-19 51.7 54.15 51.6 54 19240
1972-10-20 53.7 54.4 53.4 53.65 19613
1972-10-21 53.55 54.85 53.3 53.9 18513
1972-10-22 54.3 54.55 52.65 53.2 16581
1972-10-23 53.3 53.3 52.65 52.75 7370
1972-10-24 52.5 52.5 50.5 50.7 26359
1972-10-25 50.7 50.95 50.4 50.75 12308
1972-10-26 51.2 51.35 50.75 50.8 4963
1972-10-27 50.8 51.2 50.4 50.75 6110
1972-10-28 50.9 51.6 50.75 51.1 7153
1972-10-29 51.2 51.35 50.4 50.7 9063
1972-10-30 50.65 51.15 50.25 50.95 11568
1972-10-31 51.15 51.45 50.9 51.1 8103
1972-11-01 50.8 50.9 50.45 50.5 6422
1972-11-02 50.4 50.5 49.3 49.64 9545
1972-11-03 50.5 51.65 50.35 51.02 2985
1972-11-04 50.85 51.05 50.6 51 1572
1972-11-05 51.15 51.3 50.3 50.69 492
1972-11-06 50.55 50.8 50.55 50.65 253
1972-11-07 51 51.6 51 51.32 663
1972-11-08 51.3 51.35 50.45 50.95 327
1972-11-09 50.75 50.8 50.65 50.67 485
1972-11-10 50.55 50.75 50.5 50.66 207
1972-11-11 50.3 50.4 50.1 50.21 251
1972-11-12 50.7 50.9 50.3 50.38 146
1972-11-13 50.2 50.6 50.2 50.54 330
1972-11-14 50.4 51.15 50.35 50.65 380
1972-11-15 50.5 50.55 49.6 50.42 281
1972-11-16 50.3 50.4 49.9 50.03 100
1972-11-17 49.96 50.4 49.65 50.39 521
1972-11-18 50.35 50.5 50.08 50.08 704
1972-11-19 50.15 50.3 49.93 49.93 735
1972-11-20 50.7 50.7 50.3 50.34 126
1972-11-21 50.2 50.25 50.05 50.12 162
1972-11-22 50.1 50.5 50.03 50.2 4333
1972-11-23 50.7 51.6 50.7 51.27 14999
1972-11-24 51 52.5 51 52.4 22984
1972-11-25 51.9 52.4 51.7 52.13 9066
1972-11-26 51.7 52.7 51.6 52.21 10156
1972-11-27 52.4 52.7 51.9 51.95 10291
1972-11-28 52.5 52.55 52 52.25 5589
1972-11-29 52.9 53.6 52.3 53.35 15951
1972-11-30 55.5 56.8 54.65 55.88 20433
1972-12-01 54.4 54.65 53.7 54.15 9671
1972-12-02 54.65 54.9 52.8 53.05 15420
1972-12-03 53 53.8 52.85 53.45 5833
1972-12-04 53.35 53.55 52.8 52.83 4665
1972-12-05 51.7 51.85 51 51.15 11677
1972-12-06 50.9 51.6 50.8 51.3 6505
1972-12-07 51.6 51.95 51.45 51.77 4509
1972-12-08 51.7 52.35 51.41 52.05 6272
1972-12-09 52.4 52.5 50.8 50.87 8262
1972-12-10 51.25 51.4 50.6 51.25 5458
1972-12-11 51.15 51.7 50.9 51.2 4656
1972-12-12 50.8 51.5 50.7 51.4 5130
1972-12-13 51.6 52.05 51.1 51.42 4537
1972-12-14 51.7 51.85 51.2 51.47 2202
1972-12-15 51.85 54.4 51.55 54.25 1104
1972-12-16 53.7 54.5 53.24 53.24 1461
1972-12-17 52.85 54.1 52.85 53.57 408
1972-12-18 54.4 56 54 55.89 410
1972-12-19 54.7 58 54.6 56.64 268
1972-12-20 57.5 57.5 56.4 56.92 2119
1972-12-21 57.9 58.75 55.9 55.95 366
1972-12-22 56.2 56.99 55.2 56.99 208
1972-12-23 58 58.8 57.6 58.13 172
1972-12-24 57.8 58.7 57.6 58.7 780
1972-12-25 58.5 58.65 57.88 57.88 205
1972-12-26 58 58 57.3 57.56 829
1972-12-27 57.7 57.9 57.2 57.51 123
1972-12-28 59.3 60 59.3 59.95 118
1972-12-29 60.2 60.2 59.5 59.86 91
1972-12-30 59.6 59.6 59.15 59.35 130
1972-12-31 59.45 59.45 59.1 59.13 107
1973-01-01 58.2 58.8 57.68 57.68 166
1973-01-02 56.75 57 55.8 55.8 121
1973-01-03 56.7 57.05 55.1 55.55 18289
1973-01-04 55.8 56.6 55.45 56.25 11706
1973-01-05 56.1 56.35 55.8 56.3 5779
1973-01-06 56.6 58.75 56.55 58.5 19272
1973-01-07 58.8 58.9 56.9 57 13146
1973-01-08 57.7 58.35 57.5 58.15 9399
1973-01-09 57.85 57.9 57 57.5 11657
1973-01-10 57.6 58.4 57.6 57.95 11642
1973-01-11 57.6 57.7 56.2 56.95 15138
1973-01-12 56.75 57.4 56.7 56.95 5617
1973-01-13 57.2 57.35 56.75 57.25 2428
1973-01-14 56.9 56.95 56.25 56.4 7361
1973-01-15 56 56.45 55.4 56.15 11251
1973-01-16 56.4 56.6 55.6 55.8 6280
1973-01-17 55 56.4 54.7 56.25 10698
1973-01-18 55.9 59 55.9 58.4 20415
1973-01-19 58.4 58.7 57.7 58.1 9936
1973-01-20 58.75 58.85 57.9 58.7 10075
1973-01-21 58.4 58.9 56.7 56.85 18309
1973-01-22 56.4 57.25 56.16 56.6 15338
1973-01-23 57 57.4 56.5 56.7 7183
1973-01-24 57 57.3 56.7 56.75 4887
1973-01-25 56.15 56.7 55.6 56.3 13129
1973-01-26 56.2 57.45 56.2 57.2 12790
1973-01-27 56.2 56.95 56.2 56.8 8092
1973-01-28 57.1 57.85 57.1 57.35 9323
1973-01-29 57.8 58.05 57.51 57.55 7307
1973-01-30 57.3 57.34 56.3 56.55 9728
1973-01-31 56.7 57.75 56.5 57.7 12977
1973-02-01 57.5 58.3 57.5 57.9 12281
1973-02-02 58.4 58.5 57.2 57.6 12285
1973-02-03 57.65 57.9 57.05 57.8 7578
1973-02-04 57.75 58.3 57.35 58.2 10534
1973-02-05 58.3 58.4 57.9 58.3 6886
1973-02-06 58.7 58.7 57 57.1 21769
1973-02-07 56.8 56.8 55.1 55.15 20405
1973-02-08 55.4 55.8 55.2 55.65 11954
1973-02-09 55.8 55.9 54.4 54.7 12541
1973-02-10 54.7 54.8 54 54.35 13009
1973-02-11 54.45 54.7 52 52.15 22630
1973-02-12 52.7 53.15 52.3 52.65 10594
1973-02-13 52.4 53.2 52.3 53.05 12631
1973-02-14 52.9 53.4 52.4 52.71 12603
1973-02-15 54.6 54.9 54 54.5 1051
1973-02-16 54.4 54.4 53.3 53.48 517
1973-02-17 53.25 54.25 53.15 53.9 619
1973-02-18 53.9 54 53.3 53.61 834
1973-02-19 53.65 54.2 53.5 53.76 335
1973-02-20 53.6 53.89 53.2 53.79 554
1973-02-21 53.7 53.75 53.15 53.24 225
1973-02-22 53.45 54.25 53.2 53.74 247
1973-02-23 53.46 53.95 53.2 53.86 171
1973-02-24 54 54.05 53.75 54.04 365
1973-02-25 55.1 55.15 54.65 54.86 424
1973-02-26 54.5 54.6 53.2 53.58 362
1973-02-27 53.85 53.85 53.5 53.62 545
1973-02-28 53.5 54 53.45 53.95 252
1973-03-01 53.8 53.8 53.55 53.76 93
1973-03-02 54.25 54.25 53.65 53.67 159
1973-03-03 53.5 53.5 52.7 52.93 200
1973-03-04 53.2 53.25 52.95 53 163
1973-03-05 53.1 53.2 52.8 52.9 374
1973-03-06 52.75 52.8 52.75 52.8 135
1973-03-07 53.5 54 53.4 54 86
1973-03-08 53.5 54.28 53.5 54.28 80
1973-03-09 54.15 54.15 53.79 53.79 82
1973-03-10 53.6 54 53.6 54 78
1973-03-11 54.04 54.04 54.04 54.04 106
1973-03-12 54.95 54.95 54.95 54.95 75
1973-03-13 55.4 55.5 55.4 55.5 79
1973-03-14 55.4 55.4 55.36 55.36 79
1973-03-15 56.1 56.1 55.92 55.92 84
1973-03-16 55.7 56.03 55.55 56.03 91
1973-03-17 55.7 56.03 55.7 56.03 89
1973-03-18 56.72 56.72 56.72 56.72 95
1973-03-19 55.8 55.8 54.76 54.76 79
1973-03-20 55.2 55.23 55.2 55.23 236
1973-03-21 55.69 55.69 55.69 55.69 75
1973-03-22 55 55.55 55 55.55 79
1973-03-23 56.4 56.57 56.4 56.57 89
1973-03-24 56.82 56.82 56.82 56.82 86
1973-03-25 57 57 56.04 56.04 142
1973-03-26 56.3 56.7 56.1 56.55 4793
1973-03-27 55.2 55.65 54.6 55.25 14616
1973-03-28 55.5 55.95 55.05 55.15 7153
1973-03-29 55.4 55.55 54.95 55.45 7220
1973-03-30 55.35 55.6 55.2 55.25 3664
1973-03-31 55.2 56.2 54.8 55.85 10340
1973-04-01 55.7 55.85 55.4 55.6 3820
1973-04-02 55.6 56.1 55.5 55.8 7518
1973-04-03 55.6 55.95 55.4 55.8 7113
1973-04-04 55.6 55.7 55.35 55.45 5867
1973-04-05 55.55 55.55 54.5 54.6 9959
1973-04-06 54.6 54.8 54.2 54.65 10470
1973-04-07 54.6 54.95 53.8 54.05 9722
1973-04-08 54 54.2 53.65 54.1 8120
1973-04-09 54.1 54.8 53.9 54.75 8814
1973-04-10 54.5 55.4 54.4 55.35 7759
1973-04-11 55.05 55.2 54.55 54.75 6024
1973-04-12 54.65 54.8 54.3 54.65 7539
1973-04-13 55 55.4 54.6 54.7 11423
1973-04-14 54.8 54.85 54.1 54.5 11231
1973-04-15 54.5 54.7 54.2 54.28 2798
1973-04-16 54.2 54.72 54.1 54.72 631
1973-04-17 54.7 54.75 54.25 54.64 546
1973-04-18 54.8 55 54.6 54.88 693
1973-04-19 55 56.05 55 55.69 834
1973-04-20 55.5 56 55.5 55.69 315
1973-04-21 55.5 55.8 55.35 55.5 150
1973-04-22 55.3 55.65 55.3 55.56 141
1973-04-23 55.7 55.7 55.47 55.47 162
1973-04-24 55.6 56.5 55.6 56.38 201
1973-04-25 56.55 56.6 55.5 55.83 388
1973-04-26 55.7 55.73 55.65 55.73 139
1973-04-27 55.88 55.9 55.5 55.54 228
1973-04-28 55.7 55.86 55.7 55.78 208
1973-04-29 55.6 55.73 55.5 55.73 98
1973-04-30 55.65 55.65 55.15 55.43 193
1973-05-01 56.35 57.45 56.3 57.38 294
1973-05-02 57.35 59.2 56.9 59.04 146
1973-05-03 58.7 59.6 58.7 58.89 168
1973-05-04 58.55 59.3 58.4 59.2 1042
1973-05-05 60 63.9 60 61.99 599
1973-05-06 63 64.05 62.65 63.25 23417
1973-05-07 63.9 63.9 62 62.2 27060
1973-05-08 62.55 63.45 62.35 63 19206
1973-05-09 63.4 65.3 63.2 63.55 36489
1973-05-10 63.9 64.7 62.8 64.5 23416
1973-05-11 65.2 67 65.2 65.8 29007
1973-05-12 67.3 67.8 66.35 67.65 26429
1973-05-13 66.4 67.15 65.9 66.35 25346
1973-05-14 66.8 68.79 66.41 68.6 27472
1973-05-15 69.7 69.7 67.6 68.05 31437
1973-05-16 68.8 69.1 68 68.65 15049
1973-05-17 69.1 73.1 69.1 72.8 29929
1973-05-18 71.8 72.75 71.2 72.45 23955
1973-05-19 71.7 73.2 70.8 73 20047
1973-05-20 72.7 78 72.3 77.8 30078
1973-05-21 78.8 79.4 76.5 78.65 40370
1973-05-22 78.8 80.7 77.7 80.45 33519
1973-05-23 83.5 85.45 82 85.45 26394
1973-05-24 90.45 90.45 90.45 90.45 7881
1973-05-25 97.95 97.95 82.95 82.95 11778
1973-05-26 81 81 71 76.5 17359
1973-05-27 78.5 80.4 75.5 79.13 8394
1973-05-28 79.8 80.6 76.8 79.84 4031
1973-05-29 79 82.2 79 81.67 1155
1973-05-30 82 87.4 82 86.85 1674
1973-05-31 89.5 89.9 80 83.03 980
1973-06-01 81 84 80.5 82.95 717
1973-06-02 81.5 84.6 80.8 82.63 599
1973-06-03 82.2 83.5 81.5 82.89 560
1973-06-04 83.3 85.8 83.3 85.6 809
1973-06-05 87.2 88.8 86.7 87.25 356
1973-06-06 87 88.4 86.45 86.45 488
1973-06-07 87.15 87.85 87.15 87.85 487
1973-06-08 89.2 94.1 89.2 94.1 782
1973-06-09 94.3 95.2 90.1 90.46 289
1973-06-10 91.5 93.36 89.8 93.36 193
1973-06-11 93 93 90.8 91.24 382
1973-06-12 88.84 89.9 87.79 87.79 127
1973-06-13 88.5 88.5 82.08 82.08 181
1973-06-14 77 78.5 73.5 75.2 594
1973-06-15 73.5 75.5 73.32 73.32 213
1973-06-16 75.7 78.2 75.3 76.65 15930
1973-06-17 76.7 77.8 76 76.7 10629
1973-06-18 73.7 75.1 72.8 74.6 15378
1973-06-19 75.7 80 75.6 78.4 23817
1973-06-20 76.8 77.8 76.1 76.2 12142
1973-06-21 76.4 79.1 76.3 78.5 18205
1973-06-22 79 79.5 78.2 78.3 11498
1973-06-23 79.7 81.1 76 76.3 23403
1973-06-24 77.9 79.4 77.2 79.1 14219
1973-06-25 80.5 80.5 77.1 78.75 18655
1973-06-26 78.3 80.7 77.8 80 15023
1973-06-27 77.5 78.5 76.6 77.35 19940
1973-06-28 74.8 77.2 74.3 76.8 15245
1973-06-29 76.9 77.1 74.8 75.2 14703
1973-06-30 75.1 76 74.1 74.5 16099
1973-07-01 75.3 76.3 74.6 74.8 11239
1973-07-02 74.8 75 71.6 71.7 19024
1973-07-03 70.7 70.8 66 67.2 27320
1973-07-04 67.9 70 66.4 68.95 21267
1973-07-05 70 70.2 68.65 69.4 13018
1973-07-06 68.5 68.9 67.9 68.55 9453
1973-07-07 68.55 70.7 68.4 69.55 16266
1973-07-08 69.8 71.6 69.5 71 11677
1973-07-09 70.7 73.3 70 73.12 3434
1973-07-10 73.2 74.8 71.6 74.38 975
1973-07-11 73.6 74.9 73.5 74.07 782
1973-07-12 72.1 76 72.1 75.7 589
1973-07-13 74.6 75.1 73.1 74.75 392
1973-07-14 73.7 76.8 73.7 76.41 582
1973-07-15 76.9 76.9 75.9 76.8 840
1973-07-16 77.3 77.5 75.86 75.86 460
1973-07-17 75.5 77 75.5 76.13 110
1973-07-18 76.6 77 76 76.04 109
1973-07-19 77.5 78.6 77.5 77.89 783
1973-07-20 77.6 78.1 77.2 77.51 97
1973-07-21 75.5 76.4 74.44 74.44 117
1973-07-22 76 76.7 75.3 76.47 114
1973-07-23 76.67 77.2 76.2 77.03 115
1973-07-24 77.5 78.5 77.5 77.7 97
1973-07-25 77.2 77.5 76.5 77.1 127
1973-07-26 76.9 77.4 76.8 77.2 97
1973-07-27 76.8 77.65 76.65 77.21 270
1973-07-28 78.2 80 78.2 79.51 202
1973-07-29 81.55 81.55 80.14 80.14 204
1973-07-30 80.2 83.8 80.15 83.65 23728
1973-07-31 83.5 84.2 82.6 83.5 16997
1973-08-01 86.5 88.4 86.3 88.25 21319
1973-08-02 87.5 89.45 86.4 88.75 26180
1973-08-03 85.5 86.7 83.4 83.8 25582
1973-08-04 83.8 84.3 82.3 83 17900
1973-08-05 80 81.8 76 76.25 28505
1973-08-06 77.3 78.4 77 77.6 17097
1973-08-07 78.4 79.4 77.7 78.55 13815
1973-08-08 77.9 79.8 77.8 78.9 12463
1973-08-09 78.7 78.9 75.9 76.7 15675
1973-08-10 76.4 78.5 73.6 74.2 30322
1973-08-11 74.7 76.2 74.7 75.8 10343
1973-08-12 76.5 79.5 76.5 77.25 19567
1973-08-13 76.5 78.4 76.3 78.25 10493
1973-08-14 77.9 78.2 74.7 75 14408
1973-08-15 76.1 76.9 75.3 76.75 12345
1973-08-16 76.4 79 76.15 77.95 15787
1973-08-17 77.7 77.85 76.4 76.9 12517
1973-08-18 76.7 77.75 76.6 77.2 9550
1973-08-19 77.5 77.7 74.8 75.35 13842
1973-08-20 75 75.2 72.3 73.5 9372
1973-08-21 74 75 73.4 73.83 2392
1973-08-22 74.7 75.1 72.2 73.27 927
1973-08-23 75.4 78.1 75.4 77.85 1261
1973-08-24 77 77.5 76.3 77 1266
1973-08-25 77.05 77.8 76.2 76.31 223
1973-08-26 75 75 74.25 74.8 645
1973-08-27 74.5 75.4 74.5 75.2 131
1973-08-28 76.1 80.8 76 80.4 317
1973-08-29 78.4 79.1 76.5 77 131
1973-08-30 76 77.1 75.8 76.41 155
1973-08-31 76.7 76.7 75.9 76.23 339
1973-09-01 76.3 76.3 74.3 74.6 301
1973-09-02 75 76.1 75 75.75 165
1973-09-03 75.9 75.9 73.3 73.64 139
1973-09-04 73.4 76.77 73.4 76.77 750
1973-09-05 76.4 76.75 75.9 75.99 96
1973-09-06 75.7 76.55 75.7 76.55 206
1973-09-07 76.6 77.05 76.22 76.22 171
1973-09-08 75.7 76.2 75.7 75.95 142
1973-09-09 76.2 76.5 76.03 76.03 174
1973-09-10 76.5 78.1 76 77.55 15481
1973-09-11 77.75 77.8 75.7 76.1 17635
1973-09-12 76.6 76.85 75.8 76.4 13145
1973-09-13 76.5 76.9 75.55 76.5 10606
1973-09-14 76.7 77.6 76.7 77.2 8786
1973-09-15 77.4 78.1 77 77.35 9480
1973-09-16 77.7 78 77.25 77.55 11780
1973-09-17 77.55 80.4 77.2 79.4 20800
1973-09-18 79.2 79.6 78.4 79.1 13652
1973-09-19 79.1 79.15 78.6 78.85 4655
1973-09-20 78.2 78.3 77.65 77.95 8562
1973-09-21 78 79.8 77.9 78.9 20306
1973-09-22 79.3 80.7 78 78.4 28069
1973-09-23 78.85 80.3 78.8 79.6 19580
1973-09-24 84.4 86.2 81.8 82.8 49198
1973-09-25 73 76 67 72.85 44426
1973-09-26 74.65 75.5 73.75 74.65 22902
1973-09-27 75.65 77 74.4 74.85 21405
1973-09-28 75.6 76 74.35 76 16861
1973-09-29 76.2 76.3 73.7 74.8 18958
1973-09-30 74 74.9 73.4 74.05 14836
1973-10-01 74.6 75.25 73.85 73.95 15231
1973-10-02 71.7 72 68.4 69.25 28629
1973-10-03 69.1 70.8 68.8 69.9 16232
1973-10-04 70.4 70.45 68.7 69.65 9504
1973-10-05 69.4 69.75 66.7 68.4 20468
1973-10-06 67.8 67.8 66 66.95 15939
1973-10-07 63 64.3 62.4 63 19493
1973-10-08 63.6 65.5 63.5 65 15396
1973-10-09 66.65 67.15 65.2 65.4 11954
1973-10-10 64.05 65.8 63.3 65.3 14972
1973-10-11 65.1 66.6 64.9 65.7 9284
1973-10-12 65.9 67.3 65.9 66.45 10797
1973-10-13 67.2 67.7 66.65 67.4 8703
1973-10-14 66 66.85 65.7 66.35 9067
1973-10-15 67.1 67.8 66.8 67.3 8124
1973-10-16 66.8 66.95 65.5 66.3 10164
1973-10-17 66.6 66.7 65.55 65.8 6280
1973-10-18 66.2 67.3 64.9 66.7 14447
1973-10-19 66.4 69.8 66.35 69.5 19813
1973-10-20 69.3 70.1 68.1 69.2 20955
1973-10-21 69.5 70.25 69.1 69.3 16275
1973-10-22 72.6 73.2 70.1 70.37 3514
1973-10-23 70.3 70.6 69.1 69.27 839
1973-10-24 69.9 70.2 69.4 69.68 533
1973-10-25 69.3 70.6 68.5 68.97 651
1973-10-26 68.8 68.9 65.6 67.4 419
1973-10-27 66.4 67.2 66.2 66.7 179
1973-10-28 66.8 67.5 66.8 67.15 180
1973-10-29 67.1 67.3 66.9 67.3 130
1973-10-30 67.25 69.3 67.25 69.3 263
1973-10-31 70 70 68.7 69.05 303
1973-11-01 70.5 70.5 69.78 69.78 139
1973-11-02 69.3 69.3 66.3 66.45 301
1973-11-03 67.3 67.56 67.05 67.56 792
1973-11-04 66.56 68 65.7 68 754
1973-11-05 67.7 68.3 67.4 67.67 98
1973-11-06 67.7 67.97 67.6 67.97 85
1973-11-07 68.1 68.5 68.08 68.08 293
1973-11-08 67.5 67.6 67.3 67.3 95
1973-11-09 67.5 68.1 67.5 68 121
1973-11-10 68.5 68.9 68 68.42 310
1973-11-11 68.4 68.4 67.13 67.13 123
1973-11-12 66.3 66.3 66.1 66.17 85
1973-11-13 66.93 66.93 66.3 66.82 78
1973-11-14 65.2 65.2 64.7 64.7 84
1973-11-15 68.45 68.45 68.45 68.45 76
1973-11-16 68 70.69 68 70.69 81
1973-11-17 69.9 69.95 69.3 69.3 90
1973-11-18 69.85 69.85 69.85 69.85 75
1973-11-19 68.85 69 68.6 68.65 80
1973-11-20 68.1 68.1 67.4 67.4 76
1973-11-21 67.78 67.78 67.78 67.78 266
1973-11-22 68 68.72 68 68.72 187
1973-11-23 67.7 67.7 66 66 98
1973-11-24 67 67 66.7 66.7 79
1973-11-25 66.9 66.9 66.9 66.9 75
1973-11-26 67.3 67.3 66.3 66.3 79
1973-11-27 67.02 67.02 67.02 67.02 76
1973-11-28 67.78 67.78 67.78 67.78 75
1973-11-29 66.5 66.5 65.85 65.85 83
1973-11-30 66.12 66.12 66.12 66.12 75
1973-12-01 66.44 66.44 66.44 66.44 175
1973-12-02 66.7 67.05 66.5 66.65 4371
1973-12-03 65.7 65.9 64.6 65.45 15860
1973-12-04 65.6 66.6 65.5 66.1 9656
1973-12-05 66.3 66.79 65.3 65.55 9368
1973-12-06 64.1 64.8 62.8 63.55 18940
1973-12-07 63.9 64.5 63.3 64.3 10771
1973-12-08 64.2 64.3 62.8 63.25 11310
1973-12-09 63.5 63.9 63.1 63.25 6923
1973-12-10 63.05 63.2 62.25 62.9 10895
1973-12-11 63.45 63.7 62.85 63.05 8680
1973-12-12 62.8 63.45 62.7 63.15 5133
1973-12-13 62.7 64.05 61.9 63.9 14490
1973-12-14 63.7 64.35 63.55 63.75 7289
1973-12-15 63.95 64.6 63.9 64.5 6435
1973-12-16 64.8 65.15 63.4 63.5 13085
1973-12-17 63.8 64.3 63.45 64 7767
1973-12-18 63.9 64.3 63.75 64.1 6506
1973-12-19 63.85 63.95 62.5 63 13185
1973-12-20 62.3 62.69 61.75 61.95 14079
1973-12-21 62.1 62.65 61.3 62.45 19787
1973-12-22 62.1 62.3 61.5 61.55 11455
1973-12-23 60.8 62.45 60.8 62.39 4191
1973-12-24 62.1 63.4 61.6 62.22 1517
1973-12-25 61.5 62.5 61.5 62.16 642
1973-12-26 62 63.1 61.8 62.64 728
1973-12-27 63 65.3 63 64.27 489
1973-12-28 63.8 64.2 63.55 63.95 136
1973-12-29 64 64 63.1 63.1 168
1973-12-30 62.95 63.15 62.8 62.98 339
1973-12-31 63.2 63.9 62.1 62.65 163
1974-01-01 62.6 62.6 61.78 61.78 127
1974-01-02 62.35 62.4 62 62.4 301
1974-01-03 62.5 63.65 62.5 63.65 89
1974-01-04 63.7 63.7 63.27 63.27 122
1974-01-05 63.5 63.5 62.9 63.05 88
1974-01-06 63.35 64 63.3 63.65 91
1974-01-07 64.2 64.65 64.2 64.47 95
1974-01-08 64.4 64.65 64 64.65 133
1974-01-09 64.5 66.1 64.5 66.1 527
1974-01-10 67.3 67.35 66.2 67.35 166
1974-01-11 66.4 66.65 66.4 66.65 83
1974-01-12 66.4 66.65 66.1 66.65 122
1974-01-13 66.75 67.5 66.75 67.05 210
1974-01-14 67.2 68.1 66.75 67.95 10176
1974-01-15 68.4 68.5 67.3 67.85 10289
1974-01-16 68.4 69 68 68.25 11561
1974-01-17 67.6 67.8 66.5 66.85 12297
1974-01-18 65.9 66.45 64.5 64.65 19106
1974-01-19 64.6 64.8 63.7 64.35 21268
1974-01-20 64.5 65.1 64.3 64.38 9670
1974-01-21 64 64.8 63.9 64.7 7856
1974-01-22 64.7 64.9 64 64.25 6528
1974-01-23 64.1 64.7 63.35 63.45 11406
1974-01-24 63.6 65.15 63.5 64.7 15921
1974-01-25 64.9 65.45 64.5 64.75 9460
1974-01-26 65.4 65.6 64.3 64.4 10240
1974-01-27 64.3 64.9 64.1 64.65 6698
1974-01-28 65.1 65.35 64.45 64.5 8770
1974-01-29 64.4 64.9 64.3 64.6 6467
1974-01-30 64 64.54 63.85 64.15 7758
1974-01-31 64.2 64.4 63.6 63.65 6125
1974-02-01 63.9 64.05 63.2 63.85 12193
1974-02-02 63.85 65.3 63.65 65 21483
1974-02-03 64.95 65.2 64.51 64.66 10512
1974-02-04 64.75 65 64.4 64.98 2302
1974-02-05 64.5 64.65 63.5 63.53 1062
1974-02-06 63.5 63.8 62.8 62.98 386
1974-02-07 62.9 63.5 62.9 63.27 439
1974-02-08 63.4 63.7 63.4 63.64 183
1974-02-09 63.65 63.81 63.3 63.81 221
1974-02-10 63.85 64.7 63.8 64.7 163
1974-02-11 64.6 65.7 64.6 65.7 262
1974-02-12 65.7 65.7 65.05 65.52 334
1974-02-13 65.7 65.74 65.7 65.74 92
1974-02-14 65.3 66.32 65.2 66.32 690
1974-02-15 66.8 66.85 65.83 65.83 129
1974-02-16 65 65.9 65 65.4 94
1974-02-17 65.7 66.85 65.7 66.85 176
1974-02-18 67.3 67.7 66.12 66.12 256
1974-02-19 66.5 66.9 66.05 66.9 81
1974-02-20 66.6 67.38 66.6 67.38 125
1974-02-21 67.05 67.6 67.05 67.54 179
1974-02-22 66.8 66.8 65.92 65.92 215
1974-02-23 66.1 66.3 65.65 66.1 225
1974-02-24 66.3 66.45 65.55 65.75 12571
1974-02-25 66.5 67.1 66.35 66.5 13168
1974-02-26 67.7 68.8 67.7 68.65 28519
1974-02-27 68 73.2 67.65 73.05 37985
1974-02-28 72.3 74.7 72.3 72.7 42007
1974-03-01 72.95 74.22 72.5 73.15 22544
1974-03-02 73.1 74.45 71.8 72.8 32176
1974-03-03 72 72.85 71.1 71.3 28227
1974-03-04 70.7 72.3 70.3 71.8 27660
1974-03-05 72.1 72.45 69.2 70.15 36395
1974-03-06 70.3 70.9 69.85 70.55 15924
1974-03-07 70.4 71 68.6 70.7 29886
1974-03-08 70.7 72.25 70.5 71.55 22848
1974-03-09 72.3 73 70.95 71.4 29117
1974-03-10 71.35 72.7 70.8 72.55 17550
1974-03-11 72.55 73.3 71.35 71.95 21178
1974-03-12 72.1 73.4 71.9 71.95 25357
1974-03-13 71 71 69.5 70.2 24837
1974-03-14 69.85 70.75 69.35 69.85 19920
1974-03-15 68.7 69.3 67.95 68.1 18379
1974-03-16 68.4 69.5 68.2 69.4 16565
1974-03-17 69.4 70.2 67.3 67.6 15675
1974-03-18 66.7 67.1 65.4 66.22 17477
1974-03-19 66.4 66.9 66.1 66.78 4208
1974-03-20 66.6 67.59 66.53 67.03 896
1974-03-21 67 67.9 67 67.66 533
1974-03-22 67.95 68.2 67.5 68.19 314
1974-03-23 69.7 70.05 69.3 69.35 382
1974-03-24 69.9 70.6 69.5 70 203
1974-03-25 70.85 71 69.1 69.37 539
1974-03-26 69 69.9 68.85 69.74 328
1974-03-27 69.8 71.9 69.4 71.65 448
1974-03-28 72.3 73.5 72.2 72.8 1312
1974-03-29 74 74.1 72.6 73.1 406
1974-03-30 72 72 71.2 71.5 108
1974-03-31 71.7 77.8 71.4 77.27 151
1974-04-01 77.3 78.27 77.2 78.27 170
1974-04-02 77 80.6 77 77.37 159
1974-04-03 77.6 77.6 76.06 76.06 150
1974-04-04 75.8 75.9 70.36 70.36 132
1974-04-05 70.5 70.7 68.8 68.8 134
1974-04-06 69.9 70.1 69.6 69.64 302
1974-04-07 68.6 69.05 66.9 67.6 35140
1974-04-08 68.35 69.25 67.9 68.55 17985
1974-04-09 69.05 69.45 68.3 69.15 13398
1974-04-10 69.1 69.3 68.28 68.4 11317
1974-04-11 67.9 69.9 67.7 68.8 18849
1974-04-12 68.8 69.5 68.6 69 8985
1974-04-13 68.9 69.6 68.65 68.9 7764
1974-04-14 68.6 68.75 67 67.15 15188
1974-04-15 67.4 67.6 65.6 66.3 20732
1974-04-16 66.4 67.4 66.25 67.1 13550
1974-04-17 67.3 68.2 66.85 67.15 12585
1974-04-18 67.5 68.8 67.3 67.4 17659
1974-04-19 67.3 67.95 67 67.85 9014
1974-04-20 67.7 68.5 66.1 66.35 16847
1974-04-21 66.4 66.85 65.9 66.65 11099
1974-04-22 66.9 67.25 66.4 66.9 8923
1974-04-23 67 67.2 66.5 66.7 4376
1974-04-24 66.3 67.85 66.05 67.4 15147
1974-04-25 67.5 67.75 66.9 67.4 8828
1974-04-26 67.6 68.5 67.5 67.9 12877
1974-04-27 68.3 68.3 67.1 67.15 10930
1974-04-28 67.3 67.3 66.25 66.6 12742
1974-04-29 66.8 66.9 64.9 65.2 12826
1974-04-30 64.7 65.75 64.5 64.9 12422
1974-05-01 64.6 65.7 64.5 65.56 4589
1974-05-02 65.3 66.15 65.3 65.74 838
1974-05-03 65.8 66 64.3 65.18 726
1974-05-04 65.5 65.9 64.7 64.85 230
1974-05-05 65 65.65 64.8 65.46 970
1974-05-06 66 66.2 65.55 66.12 175
1974-05-07 66.4 66.4 64.4 64.4 234
1974-05-08 64 64.37 63.95 64.37 266
1974-05-09 64.5 65.2 64.45 64.77 190
1974-05-10 65.35 65.5 64.89 64.89 162
1974-05-11 64.7 64.75 64.1 64.67 94
1974-05-12 64.3 64.4 63.1 63.26 116
1974-05-13 62.8 63.7 62.4 63.7 88
1974-05-14 63.4 63.6 62.2 62.52 197
1974-05-15 61.9 62 61.7 61.77 135
1974-05-16 62.1 62.5 61.8 62.5 149
1974-05-17 62.6 62.6 61.67 61.67 716
1974-05-18 61.6 61.6 61.07 61.07 128
1974-05-19 61.6 61.66 61.5 61.66 168
1974-05-20 61.95 61.95 61.65 61.66 624
1974-05-21 62.7 63.2 62.5 62.65 7853
1974-05-22 62.8 62.8 61.6 62.25 12245
1974-05-23 62.3 63.7 61.96 63.35 17767
1974-05-24 63 63.7 62.85 63.35 10929
1974-05-25 63.15 64.15 62.4 63.85 17697
1974-05-26 64 64.35 63.45 63.7 10550
1974-05-27 63.85 64.6 63.7 64.05 13516
1974-05-28 64.4 64.79 64.1 64.2 9797
1974-05-29 64.2 64.3 62.7 62.75 15424
1974-05-30 63.25 64.7 63.2 63.95 19184
1974-05-31 64 64.35 63 63.75 13715
1974-06-01 63.9 64.77 63.6 64.35 11280
1974-06-02 64.45 65.45 64.15 64.75 14381
1974-06-03 64.8 64.85 64.05 64.25 10391
1974-06-04 64 64.65 63.75 64.05 11046
1974-06-05 64.15 64.35 63.85 64.1 8291
1974-06-06 64 64.2 62.8 62.85 14504
1974-06-07 62.6 63.35 62.45 62.55 10381
1974-06-08 62.9 63.19 62.65 62.78 6469
1974-06-09 63.05 63.3 62.6 62.78 8436
1974-06-10 62.8 62.95 62.25 62.48 6773
1974-06-11 62.4 64.1 62.4 63.35 13952
1974-06-12 63.5 63.7 63.3 63.48 5671
1974-06-13 63.2 63.5 62.7 63.35 9038
1974-06-14 64.05 65.35 63.9 65.3 26116
1974-06-15 65.6 65.8 64.26 64.5 21834
1974-06-16 64.4 64.8 63.8 64.65 11944
1974-06-17 64.55 65.35 64.5 65.3 8672
1974-06-18 65.25 65.3 64.05 64.25 12952
1974-06-19 64.45 65.9 64.3 65.8 20897
1974-06-20 65.6 65.65 64.3 64.4 18158
1974-06-21 64.75 65 63.5 64.18 14616
1974-06-22 64.1 64.7 63.75 64.45 10590
1974-06-23 64.45 65 63.9 63.93 11818
1974-06-24 64.2 64.4 62.8 63 26606
1974-06-25 63.4 63.44 61.8 61.9 14827
1974-06-26 61.95 62.25 60.6 60.8 27366
1974-06-27 61.2 61.2 59.8 60.25 18822
1974-06-28 60.9 61.49 60.6 60.75 19366
1974-06-29 60.9 61.35 60.8 60.95 10509
1974-06-30 61.6 62.2 60.8 61.15 24560
1974-07-01 61 61.4 60.05 60.3 21331
1974-07-02 60.5 61.6 60.3 61.36 6480
1974-07-03 61.7 61.95 60.8 60.96 1268
1974-07-04 61.1 62.4 60.45 61.9 2537
1974-07-05 61.9 62.05 61.4 61.63 518
1974-07-06 61.45 61.85 60.95 61.61 361
1974-07-07 61.2 62.8 60.65 61.4 306
1974-07-08 61.7 61.75 61.28 61.28 235
1974-07-09 61.15 61.75 61 61.75 963
1974-07-10 61.6 61.85 61.3 61.69 122
1974-07-11 61.5 61.68 61.4 61.68 357
1974-07-12 61.5 62 61.5 61.77 225
1974-07-13 61.5 61.66 60.4 60.61 137
1974-07-14 60.8 61 60.6 60.82 239
1974-07-15 60.7 61.1 60.7 61.1 301
1974-07-16 60.9 61.3 60.8 61.1 186
1974-07-17 61.35 61.35 61.16 61.16 171
1974-07-18 61.15 61.6 61.15 61.6 761
1974-07-19 61.6 61.85 61.5 61.72 103
1974-07-20 61.6 61.7 61.35 61.49 164
1974-07-21 61.1 61.4 60.55 60.88 249
1974-07-22 60.3 60.35 59.98 59.98 312
1974-07-23 60.35 60.38 60.1 60.38 87
1974-07-24 60.55 60.55 60.23 60.23 80
1974-07-25 60.18 60.2 59.3 59.37 104
1974-07-26 59.7 59.7 59.65 59.65 79
1974-07-27 59.5 59.88 59.5 59.88 127
1974-07-28 59.63 59.63 59.63 59.63 88
1974-07-29 59.16 59.16 59.16 59.16 100
1974-07-30 59.2 59.21 59.2 59.21 755
1974-07-31 59.7 59.7 59.16 59.16 87
1974-08-01 58.88 58.88 58.88 58.88 75
1974-08-02 59 59 58.9 58.9 80
1974-08-03 59.1 59.44 59.1 59.44 76
1974-08-04 59.05 59.05 59.05 59.05 75
1974-08-05 59.76 59.76 59.76 59.76 75
1974-08-06 60.2 61.83 60.2 61.83 91
1974-08-07 62 62 61.7 61.94 82
1974-08-08 62 62 61.3 61.3 179
1974-08-09 61.7 61.7 61.7 61.7 75
1974-08-10 61.04 61.04 61.04 61.04 75
1974-08-11 58.83 58.83 58.83 58.83 75
1974-08-12 58.8 59.1 58.55 58.75 13071
1974-08-13 58.9 59.2 57.85 58.35 15171
1974-08-14 58.5 59.25 58.45 58.75 11906
1974-08-15 58.6 59.1 58.45 58.63 8481
1974-08-16 58.4 59 58.05 58.75 11600
1974-08-17 58.6 59.5 58.1 59.35 12015
1974-08-18 59.45 59.7 58.75 58.9 11321
1974-08-19 59 59.55 58.9 59.45 8043
1974-08-20 59.7 59.8 59.1 59.15 12074
1974-08-21 59.35 59.55 57.6 58.35 20550
1974-08-22 58.1 58.5 57.75 58.45 9217
1974-08-23 58.5 58.75 58.25 58.47 9494
1974-08-24 58.1 59.25 57.85 59.05 16200
1974-08-25 59.05 59.2 58.6 58.95 9894
1974-08-26 58.4 60.5 58.05 59.4 27363
1974-08-27 59.45 60.3 59.1 59.35 17469
1974-08-28 59.5 60 59.3 59.4 15321
1974-08-29 59.85 60.5 59.15 59.35 29958
1974-08-30 59.4 59.5 59 59.25 15164
1974-08-31 59.4 59.65 58.3 58.45 19120
1974-09-01 58.6 58.75 58.2 58.24 7145
1974-09-02 58.2 58.2 57.35 57.44 2838
1974-09-03 57.4 57.85 57.3 57.53 3163
1974-09-04 58 58.3 57.9 58.01 1311
1974-09-05 58.2 58.21 57.8 58.09 647
1974-09-06 57.8 58.85 57.8 58.74 811
1974-09-07 58.8 59.1 58.55 58.6 522
1974-09-08 58.55 60.08 58.4 60.08 255
1974-09-09 60.2 60.8 59.8 60.68 804
1974-09-10 60.4 60.78 60.3 60.78 137
1974-09-11 61 61.9 61 61.76 348
1974-09-12 61.3 61.48 60.91 60.91 91
1974-09-13 60.8 60.8 60.15 60.59 906
1974-09-14 61 61.6 61 61.24 94
1974-09-15 61.7 61.7 61.14 61.14 77
1974-09-16 60.6 60.85 60.3 60.64 338
1974-09-17 60.5 60.65 60.45 60.58 141
1974-09-18 61 61 59.85 60.03 89
1974-09-19 59.5 59.5 59.46 59.46 83
1974-09-20 59.45 59.45 57.94 57.94 112
1974-09-21 58.3 58.3 57.4 57.58 237
1974-09-22 58.4 58.5 57.65 57.8 17341
1974-09-23 58.2 58.45 58 58.23 8957
1974-09-24 58.49 58.5 58.05 58.33 7944
1974-09-25 58.55 58.89 58.35 58.56 8436
1974-09-26 58.3 58.85 58.2 58.38 9404
1974-09-27 58.5 58.65 58.3 58.33 3617
1974-09-28 58.5 58.55 57.7 57.98 10124
1974-09-29 57.7 58.85 57.6 58.5 13396
1974-09-30 58.55 58.8 58.46 58.63 5252
1974-10-01 58.45 59.4 58.45 58.95 11784
1974-10-02 59.1 59.55 58.75 58.9 13995
1974-10-03 58.8 59.65 57.8 58.25 25499
1974-10-04 58.26 58.4 58 58.3 5228
1974-10-05 58.3 58.35 57.6 57.8 11555
1974-10-06 57.9 58.19 57.4 57.65 11997
1974-10-07 57.8 58.05 57.4 57.87 13436
1974-10-08 57.8 57.95 57.5 57.65 5419
1974-10-09 57.6 58.55 57.5 58.33 14335
1974-10-10 58.2 58.4 57.9 57.95 11238
1974-10-11 57.9 57.9 57.5 57.63 12928
1974-10-12 57.7 57.7 56.1 56.45 18716
1974-10-13 56.3 56.4 55.7 56.01 6567
1974-10-14 56.3 56.8 56.06 56.46 1309
1974-10-15 56.45 56.7 56.05 56.17 921
1974-10-16 56.2 56.6 56.2 56.35 1154
1974-10-17 56.3 56.5 56.1 56.13 369
1974-10-18 55.7 56 55.7 55.98 386
1974-10-19 56.15 56.25 55.8 55.88 178
1974-10-20 56.2 56.67 56.1 56.67 325
1974-10-21 56.55 56.6 56 56.07 134
1974-10-22 56.45 56.55 56.4 56.55 334
1974-10-23 56.2 56.25 55.3 55.35 479
1974-10-24 55.25 55.3 54.9 54.91 123
1974-10-25 55.25 55.25 54.9 55 91
1974-10-26 55.15 55.2 54.29 54.29 168
1974-10-27 54.15 54.3 54 54.01 269
1974-10-28 53.3 53.35 52.24 52.29 224
1974-10-29 50.6 51.4 50.6 51.06 130
1974-10-30 52.5 52.7 51.73 51.73 83
1974-10-31 51.75 51.78 51.7 51.78 86
1974-11-01 52.3 52.8 52.25 52.67 125
1974-11-02 53.1 53.1 52.52 52.52 108
1974-11-03 52.7 52.85 52.3 52.8 7663
1974-11-04 52.8 52.85 51.95 52.05 12596
1974-11-05 52.05 52.6 51.75 52.4 9593
1974-11-06 52.6 53.5 52.15 53.38 15731
1974-11-07 53.3 53.55 52.85 53.03 11473
1974-11-08 52.85 54.75 52.6 54.7 23949
1974-11-09 54.6 55.5 53.9 55 23906
1974-11-10 54.8 55.45 54.45 54.78 15892
1974-11-11 53.9 54.95 51.7 51.9 31989
1974-11-12 52.2 52.7 51.95 52.3 12938
1974-11-13 52.35 52.75 51.95 52.5 12142
1974-11-14 52.5 53.14 52.3 52.8 9321
1974-11-15 52.2 53.6 51.7 53.3 18399
1974-11-16 53.2 53.9 52.7 53.05 14792
1974-11-17 53.15 53.9 53.15 53.4 8895
1974-11-18 53.5 53.8 52.4 52.5 12652
1974-11-19 52.6 53.35 52.4 52.98 11183
1974-11-20 53.3 53.78 52.6 53.03 14543
1974-11-21 53.3 54.1 52.3 53.38 24020
1974-11-22 53 53.65 52.5 53.1 13557
1974-11-23 52.95 53.5 52.8 53.1 11759
1974-11-24 52.9 53.24 52.65 52.85 14100
1974-11-25 52.9 52.9 51 51.2 13956
1974-11-26 51.35 51.85 51 51.55 5547
1974-11-27 52.6 54.1 52.3 53.93 872
1974-11-28 53.4 53.8 53.35 53.77 290
1974-11-29 53.5 53.65 51.95 52.09 590
1974-11-30 52.3 52.7 52.29 52.29 219
1974-12-01 52.2 52.8 51.9 52.57 169
1974-12-02 52.47 52.85 51.8 51.88 282
1974-12-03 51.78 51.98 51.38 51.95 103
1974-12-04 51.35 52.1 51.35 52.07 188
1974-12-05 52.4 53 52.4 52.63 301
1974-12-06 52.7 52.7 52.42 52.42 388
1974-12-07 52.05 52.3 51.3 51.53 186
1974-12-08 52.1 52.1 51.81 51.81 87
1974-12-09 51.775 51.86 51.75 51.86 101
1974-12-10 52 52.05 51.9 52.02 99
1974-12-11 51.9 52.25 51.8 52.08 361
1974-12-12 52.1 52.45 52.1 52.24 89
1974-12-13 52.2 52.35 52.17 52.17 284
1974-12-14 52.4 52.4 51.35 51.83 17570
1974-12-15 51.8 53.2 51.25 53.13 20918
1974-12-16 52.9 53.3 52.25 52.93 13756
1974-12-17 52.8 53.05 52.4 52.63 6619
1974-12-18 52.5 53.8 52.35 53.33 12703
1974-12-19 53.2 53.4 51.7 52 17255
1974-12-20 52.05 52.25 51.5 51.6 10878
1974-12-21 51.9 52.15 51.45 51.88 8953
1974-12-22 51.7 52.1 51.55 51.85 4890
1974-12-23 52 52.1 51.65 51.93 4973
1974-12-24 51.6 52.6 51 52.18 20198
1974-12-25 51.95 52.45 51.85 52.2 7969
1974-12-26 52.1 52.75 52.05 52.65 10728
1974-12-27 52.65 52.75 51.7 52.07 9388
1974-12-28 51.9 52.95 51.7 52.65 18970
1974-12-29 52.55 52.74 51.95 52.55 10274
1974-12-30 52.35 52.55 52.2 52.43 3946
1974-12-31 52.35 52.6 52.2 52.35 5378
1975-01-01 52.3 52.5 51.7 51.75 11564
1975-01-02 51.65 51.95 51.45 51.75 7496
1975-01-03 51.4 51.5 51.1 51.15 11194
1975-01-04 51.35 51.4 50.9 50.95 6387
1975-01-05 51.05 51.5 50.85 50.93 13222
1975-01-06 50.92 51.2 50.8 50.85 14458
1975-01-07 50.7 50.8 50.4 50.45 3670
1975-01-08 50.6 50.8 50.45 50.76 1256
1975-01-09 50.56 50.75 50.55 50.63 902
1975-01-10 50.8 51.15 50.8 51.03 330
1975-01-11 50.75 51.3 50.75 51.17 271
1975-01-12 51.1 51.2 50.23 50.53 342
1975-01-13 50.6 50.65 50.5 50.51 154
1975-01-14 50.9 50.9 50.69 50.69 118
1975-01-15 50.7 50.7 50.35 50.67 114
1975-01-16 50.75 51.1 50.55 50.55 193
1975-01-17 50.3 50.84 50.2 50.84 176
1975-01-18 50.65 50.8 50.6 50.63 103
1975-01-19 50.65 50.7 50.6 50.61 89
1975-01-20 50.95 51.4 50.95 51.19 330
1975-01-21 51.4 51.9 51.35 51.81 774
1975-01-22 52.1 52.86 52.1 52.86 163
1975-01-23 53.1 53.1 52.7 52.83 121
1975-01-24 52.9 53.1 52.63 52.63 159
1975-01-25 52.5 52.5 52.45 52.45 411
1975-01-26 53.4 53.65 53.21 53.5 7538
1975-01-27 53.7 53.85 52.8 53.1 13650
1975-01-28 53.1 53.2 52.75 53.03 5470
1975-01-29 52.95 53.1 52.85 53 5180
1975-01-30 53.05 53.5 53 53.28 6569
1975-01-31 53.4 53.75 52.2 52.43 21587
1975-02-01 52.3 52.44 51.8 51.9 16711
1975-02-02 51.9 52.05 51.15 51.23 10564
1975-02-03 51.2 51.5 50.8 51 17590
1975-02-04 51.1 51.5 50.95 51.43 8210
1975-02-05 51.55 51.67 51.35 51.53 5831
1975-02-06 51.5 51.8 51.35 51.4 6958
1975-02-07 52.2 52.4 51.25 51.63 18140
1975-02-08 51.55 51.95 51.45 51.58 8303
1975-02-09 51.8 51.93 51.55 51.6 7072
1975-02-10 51.75 51.85 51.1 51.33 8278
1975-02-11 51.3 51.45 51.1 51.4 4204
1975-02-12 51.25 51.4 51.2 51.38 2162
1975-02-13 51.4 52 51.35 51.95 8369
1975-02-14 51.8 51.85 51.4 51.6 5107
1975-02-15 51.7 52.4 51.51 52.37 14863
1975-02-16 52.3 53.5 52.15 53.2 26417
1975-02-17 53.1 53.15 52.6 52.83 10632
1975-02-18 52.75 52.8 51.95 52.18 9815
1975-02-19 52.2 52.2 51.71 51.88 9426
1975-02-20 51.94 53 51.85 52.9 15709
1975-02-21 52.8 53.35 52.05 52.6 22152
1975-02-22 52.7 52.9 52.4 52.68 7711
1975-02-23 53.25 53.4 52.75 52.95 14707
1975-02-24 52.95 53 52.6 52.95 10189
1975-02-25 52.95 53.7 52.9 53.08 18376
1975-02-26 53.05 53.1 52.4 52.6 13376
1975-02-27 53.2 53.5 53 53.18 12258
1975-02-28 53.5 54.1 53 54.08 25795
1975-03-01 53.95 55.6 53.55 55.38 41715
1975-03-02 55 56.8 54.8 55.95 38320
1975-03-03 56.95 57.15 55.9 56.85 24527
1975-03-04 56.85 57.6 56.55 57.03 25565
1975-03-05 57.65 58.5 56.9 58.45 25548
1975-03-06 58.5 58.85 57.55 58.08 27668
1975-03-07 58.2 58.2 56.8 56.93 22666
1975-03-08 56 57.3 55.9 56.95 20404
1975-03-09 56 56.8 55.8 56 13278
1975-03-10 55.6 57.3 55.5 56.68 4847
1975-03-11 56.8 57.3 56.5 56.63 1043
1975-03-12 56.1 56.3 55 55.09 1275
1975-03-13 55.2 56 55.1 55.33 372
1975-03-14 55.2 55.7 55.2 55.55 229
1975-03-15 55.8 56.4 55.55 56.23 316
1975-03-16 55.95 56.6 55.9 56.44 537
1975-03-17 56.6 57.4 56.6 56.92 146
1975-03-18 56.85 57.05 56.5 56.72 148
1975-03-19 56.8 56.8 55.4 55.44 382
1975-03-20 55.35 55.7 55.35 55.57 211
1975-03-21 55.7 56.2 55.7 56.07 132
1975-03-22 55.7 55.75 55 55.65 175
1975-03-23 55.2 55.7 55.15 55.27 223
1975-03-24 55.5 55.7 55.4 55.48 218
1975-03-25 55.85 55.85 55.43 55.43 94
1975-03-26 55.7 55.85 55.6 55.6 199
1975-03-27 55.5 55.5 55.1 55.12 422
1975-03-28 54.8 54.95 52.2 52.4 726
1975-03-29 51.6 51.65 51.2 51.5 419
1975-03-30 52.5 52.5 52.08 52.08 212
1975-03-31 51.7 51.83 51.7 51.83 91
1975-04-01 51.75 51.75 51.2 51.51 79
1975-04-02 52.68 52.68 52.68 52.68 87
1975-04-03 53.18 53.18 53.18 53.18 75
1975-04-04 52.44 52.44 52.44 52.44 75
1975-04-05 52.34 52.34 52.34 52.34 176
1975-04-06 52.65 53.06 52.65 53.06 430
1975-04-07 53.06 53.06 53.06 53.06 75
1975-04-08 53.3 53.3 53.3 53.3 75
1975-04-09 52.42 52.42 52.42 52.42 75
1975-04-10 52.3 52.3 52.3 52.3 76
1975-04-11 52.4 52.56 52.4 52.56 429
1975-04-12 52.05 52.05 51.9 51.9 81
1975-04-13 51.7 52.02 51.7 52.02 83
1975-04-14 52.68 52.68 52.68 52.68 76
1975-04-15 52.15 52.15 52.15 52.15 415
1975-04-16 51.95 52.12 51.95 52.12 79
1975-04-17 52.5 52.5 52.22 52.22 77
1975-04-18 52.15 52.15 52.15 52.15 219
1975-04-19 52.35 52.8 52.3 52.45 8835
1975-04-20 52.2 52.5 52 52.28 11732
1975-04-21 52.35 53.3 52.35 53.28 16106
1975-04-22 53.26 53.6 52.96 53.38 12415
1975-04-23 53.45 54.05 53.4 53.58 16847
1975-04-24 53.25 53.6 53.11 53.35 10592
1975-04-25 53.16 54.4 53.16 53.36 24748
1975-04-26 53.25 53.65 53.15 53.43 10310
1975-04-27 53.15 53.3 52.6 52.73 14862
1975-04-28 52.85 53.45 52.85 53.05 10555
1975-04-29 53.45 53.9 53.2 53.33 15885
1975-04-30 53 53.5 52.9 53.3 10305
1975-05-01 53.41 53.84 53.15 53.3 14806
1975-05-02 53.25 53.84 53.15 53.4 11826
1975-05-03 53.5 53.7 53.2 53.43 8869
1975-05-04 53.45 53.74 52.75 52.8 14332
1975-05-05 52.7 53 52.6 52.73 11079
1975-05-06 52.45 52.8 52.35 52.4 11464
1975-05-07 52.2 52.39 51.35 51.48 21896
1975-05-08 51.4 51.6 50.5 50.75 18796
1975-05-09 50.8 51.3 50.7 51.27 4225
1975-05-10 51.2 51.6 51.1 51.54 1424
1975-05-11 51.49 51.49 51 51.26 1349
1975-05-12 51.15 51.4 51 51.16 249
1975-05-13 51.2 51.3 51.16 51.16 365
1975-05-14 51 51.35 51 51.22 379
1975-05-15 51.3 51.5 51.12 51.12 197
1975-05-16 50.8 51 50.8 50.95 140
1975-05-17 51.15 51.25 50.35 50.42 181
1975-05-18 50.2 50.75 50.2 50.59 152
1975-05-19 50.7 50.95 50.65 50.81 293
1975-05-20 50.75 51.25 50.75 50.79 108
1975-05-21 51.04 51.2 50.93 50.93 175
1975-05-22 51.2 51.25 50.95 51.01 122
1975-05-23 51.05 51.05 50.43 50.43 138
1975-05-24 50.23 50.55 50.2 50.55 136
1975-05-25 49.35 49.7 49.2 49.55 155
1975-05-26 49.45 49.7 49.4 49.54 128
1975-05-27 49.75 49.75 48.9 49.17 543
1975-05-28 49.65 50.1 49.65 49.83 4601
1975-05-29 49.85 49.95 49.5 49.8 4367
1975-05-30 49.6 49.84 49.55 49.78 3642
1975-05-31 50 50.45 50 50.38 6423
1975-06-01 50.28 52.05 50.26 51.9 14761
1975-06-02 51.7 52.5 51.45 51.68 25972
1975-06-03 51.95 52.15 51.25 51.9 11241
1975-06-04 51.5 51.75 51.05 51.28 8860
1975-06-05 51.2 51.48 50.8 51.13 9700
1975-06-06 50.95 51.58 50.9 51.48 10698
1975-06-07 51.45 51.5 51 51.08 6745
1975-06-08 50.9 50.95 50.26 50.75 6464
1975-06-09 50.5 51.3 50.4 51.08 11675
1975-06-10 50.95 51.25 50.6 50.78 10625
1975-06-11 50.9 51.09 50.7 50.78 9139
1975-06-12 50.7 51.11 50.5 51.08 8469
1975-06-13 50.8 51.2 50.6 51 9038
1975-06-14 50.9 51.1 49.9 50 12585
1975-06-15 49.8 49.95 48.9 49.22 18945
1975-06-16 49.22 49.5 49.05 49.14 13045
1975-06-17 49.2 49.4 48.6 49.17 9936
1975-06-18 48.8 49.35 48.8 49.32 4928
1975-06-19 49.4 50.3 49.4 50.13 1654
1975-06-20 49.95 50.05 49.7 49.88 773
1975-06-21 49.9 50.25 49.9 49.98 190
1975-06-22 50.3 50.5 49.8 50 447
1975-06-23 50.17 50.25 50.1 50.16 223
1975-06-24 50.25 50.25 49.75 49.89 363
1975-06-25 49.7 50.3 49.6 50.28 509
1975-06-26 50.45 51 50.45 50.88 269
1975-06-27 50.5 50.5 50.4 50.43 227
1975-06-28 50.6 50.7 50.6 50.66 192
1975-06-29 50.25 50.5 50.12 50.12 99
1975-06-30 50.2 50.25 50 50.1 147
1975-07-01 50.25 50.26 50.25 50.26 84
1975-07-02 50.55 51.22 50.5 51.22 98
1975-07-03 51.2 51.5 51.2 51.31 89
1975-07-04 51.5 52.83 51.4 52.83 158
1975-07-05 51.3 52.7 51.3 52.3 384
1975-07-06 52.65 52.8 52.28 52.28 97
1975-07-07 52.25 52.6 52.15 52.15 100
1975-07-08 52.05 52.05 51.38 51.38 340
1975-07-09 51.65 52.05 50.8 50.85 18401
1975-07-10 50.85 51.19 50.75 51.1 9539
1975-07-11 51 51.39 50.15 50.8 19770
1975-07-12 50.5 50.85 50.4 50.82 6301
1975-07-13 50.75 51.2 50.65 50.96 10128
1975-07-14 51.05 51.25 50.52 50.63 9910
1975-07-15 50.1 50.5 50.05 50.4 16736
1975-07-16 50.35 50.54 50.1 50.33 8148
1975-07-17 50.15 50.49 50 50.35 7408
1975-07-18 50.3 50.8 50.3 50.4 9390
1975-07-19 50 50.19 49.3 49.33 24967
1975-07-20 49.1 49.3 47.75 47.85 31468
1975-07-21 48.1 48.4 47.62 48.25 15222
1975-07-22 48.3 48.59 48.2 48.37 6593
1975-07-23 48.35 48.55 48.2 48.27 4898
1975-07-24 48.05 48.6 47.65 48.42 12344
1975-07-25 48.5 48.65 48.2 48.32 6255
1975-07-26 48.05 48.4 47.9 48.2 6520
1975-07-27 48.5 48.55 48.2 48.22 8275
1975-07-28 47.9 48.3 47.35 48.25 15022
1975-07-29 48 48.55 47.9 47.95 13658
1975-07-30 48 48.5 47.95 48.13 16832
1975-07-31 48.3 49.2 47.9 48.87 4414
1975-08-01 48.9 49.75 48.9 49.35 2247
1975-08-02 49.45 49.8 49.19 49.19 1074
1975-08-03 48.6 49 48.6 48.69 349
1975-08-04 48.65 48.85 48.65 48.66 517
1975-08-05 48.75 48.8 48 48 285
1975-08-06 47.7 48.25 47.7 48.11 284
1975-08-07 48 48.36 48 48.36 819
1975-08-08 48.25 48.9 48.1 48.9 233
1975-08-09 49.1 49.5 49.05 49.08 287
1975-08-10 49.1 49.1 48.47 48.47 475
1975-08-11 48.2 48.61 47.8 48.14 226
1975-08-12 48.25 48.84 48.25 48.84 315
1975-08-13 49 49 48.51 48.51 132
1975-08-14 48.55 48.7 48.48 48.48 182
1975-08-15 48.85 49 48.7 48.82 137
1975-08-16 49.05 49.05 48.1 48.11 321
1975-08-17 48.75 48.75 48.22 48.28 205
1975-08-18 48.2 48.5 48.2 48.5 84
1975-08-19 48.5 48.5 48 48.31 129
1975-08-20 48.65 48.89 48.3 48.4 5362
1975-08-21 48.8 49 48.2 48.22 12272
1975-08-22 48.2 48.9 48.16 48.55 10061
1975-08-23 49.3 49.7 48.6 48.65 17845
1975-08-24 48.35 49.4 48.3 48.7 15823
1975-08-25 48.95 49.35 48.85 49.2 8660
1975-08-26 49.05 49.2 48.5 48.88 10548
1975-08-27 49 49.1 48.65 48.7 5851
1975-08-28 48.8 48.9 48.6 48.83 5309
1975-08-29 49.25 50 49.25 49.94 21774
1975-08-30 50.35 53.5 50.35 52.15 35394
1975-08-31 51.3 51.45 50.75 50.88 15094
1975-09-01 50.8 52.05 50.8 51.85 12688
1975-09-02 51.8 52.35 51.75 51.95 12773
1975-09-03 51.75 51.85 51 51.45 10864
1975-09-04 51.5 52.25 50.65 51.05 16688
1975-09-05 51.2 51.65 51.1 51.4 8332
1975-09-06 51.9 52.2 51.1 51.35 15661
1975-09-07 51.1 52.15 51.05 51.95 9402
1975-09-08 50.7 50.9 48.25 48.53 17514
1975-09-09 48.8 49 47.75 48.44 11641
1975-09-10 48.45 48.55 47.9 48.26 9369
1975-09-11 48 48.45 47.9 48.07 7538
1975-09-12 48.05 48.6 47.4 47.59 2328
1975-09-13 47.61 47.9 46.95 47.19 1271
1975-09-14 47.05 47.6 47.05 47.35 864
1975-09-15 47.5 47.85 47.5 47.7 210
1975-09-16 47.35 48.2 47.35 48 895
1975-09-17 47.3 47.65 47.1 47.55 144
1975-09-18 47.3 47.95 47.3 47.77 291
1975-09-19 48.1 48.1 47.9 48.01 205
1975-09-20 47.8 47.8 47.73 47.73 612
1975-09-21 47.65 48 47.5 47.5 432
1975-09-22 47.6 47.8 47.6 47.66 279
1975-09-23 47.65 47.9 47.65 47.9 195
1975-09-24 47.85 47.9 47.69 47.69 110
1975-09-25 47.7 47.78 47.7 47.78 86
1975-09-26 48 48.05 47.85 47.9 83
1975-09-27 48.1 49.15 48.1 49.15 103
1975-09-28 48.6 48.6 48.34 48.34 282
1975-09-29 47.99 48 47.45 47.98 411
1975-09-30 48.3 48.8 48.3 48.45 5698
1975-10-01 48.4 48.65 48.3 48.32 5387
1975-10-02 48.1 48.2 46.8 47.1 23209
1975-10-03 47.2 47.6 47.2 47.45 7750
1975-10-04 47.3 47.65 47.2 47.53 4254
1975-10-05 47.6 47.85 47.11 47.3 6022
1975-10-06 47.5 47.65 47.15 47.28 4117
1975-10-07 47.15 47.4 46.8 47.28 4553
1975-10-08 47.35 47.5 46.3 46.5 11193
1975-10-09 46.5 46.7 44.5 44.62 23621
1975-10-10 43.9 44.25 42.6 42.85 24879
1975-10-11 41.95 44.5 41.95 43.55 24294
1975-10-12 42.8 43.2 41.5 41.78 17875
1975-10-13 41.81 42.95 41.7 41.88 18142
1975-10-14 42.2 42.75 42.2 42.4 9660
1975-10-15 42.41 42.65 41.95 42.4 9765
1975-10-16 42.6 43.3 42.5 42.98 9691
1975-10-17 42.3 42.9 42.2 42.33 7340
1975-10-18 42.55 42.85 42.4 42.58 6194
1975-10-19 42.2 42.7 42.2 42.6 4585
1975-10-20 42.55 42.75 42.25 42.4 4151
1975-10-21 42.45 42.5 40.6 40.8 17855
1975-10-22 40.55 41.6 40.55 41.57 11595
1975-10-23 41.4 42.55 41.36 42.45 13312
1975-10-24 42.6 42.8 41.75 41.8 9820
1975-10-25 42 43.4 41.75 42.56 14988
1975-10-26 42.3 42.45 41.55 41.85 10313
1975-10-27 41.85 42.4 41.65 42.27 6323
1975-10-28 42.3 42.7 41.9 42.57 7961
1975-10-29 42.2 43.2 42.2 42.87 16794
1975-10-30 42.75 43.15 42.3 42.77 9149
1975-10-31 42.5 42.65 42.2 42.37 7728
1975-11-01 41.9 42.35 41.7 42.05 6318
1975-11-02 42.09 42.3 42 42.12 4614
1975-11-03 42.05 42.2 41.55 41.75 7105
1975-11-04 41.7 41.8 40.9 41.17 9079
1975-11-05 41.22 41.6 40.7 41.5 9992
1975-11-06 41.2 41.7 41.2 41.4 6576
1975-11-07 41.3 41.4 40.9 41.1 8974
1975-11-08 40.96 41.5 40.9 41.25 7095
1975-11-09 41.7 42.2 41.5 41.52 13402
1975-11-10 40.75 41.3 40.75 41.02 13468
1975-11-11 40.9 41.3 40.6 41.25 16951
1975-11-12 41.25 41.4 40.65 40.85 23330
1975-11-13 40.45 41.3 40.45 41.22 6065
1975-11-14 41.15 41.5 41.1 41.38 1378
1975-11-15 41.45 41.7 41.25 41.51 869
1975-11-16 41.45 41.6 41.35 41.48 269
